%!PS-Adobe-3.0 EPSF-3.0
%%Title: /content/drive/MyDrive/zero-coherence-transfer/deviation-nd-n.eps
%%Creator: matplotlib version 3.2.2, http://matplotlib.org/
%%CreationDate: Fri Jul 30 11:40:48 2021
%%Orientation: portrait
%%BoundingBox: -146.5671875 179.48531250000005 758.5671875 612.5146874999999
%%EndComments
%%BeginProlog
/mpldict 9 dict def
mpldict begin
/m { moveto } bind def
/l { lineto } bind def
/r { rlineto } bind def
/c { curveto } bind def
/cl { closepath } bind def
/box {
m
1 index 0 r
0 exch r
neg 0 r
cl
} bind def
/clipbox {
box
clip
newpath
} bind def
%!PS-Adobe-3.0 Resource-Font
%%Title: DejaVu Sans
%%Copyright: Copyright (c) 2003 by Bitstream, Inc. All Rights Reserved. Copyright (c) 2006 by Tavmjong Bah. All Rights Reserved. DejaVu changes are in public domain 
%%Creator: Converted from TrueType to type 3 by PPR
25 dict begin
/_d{bind def}bind def
/_m{moveto}_d
/_l{lineto}_d
/_cl{closepath eofill}_d
/_c{curveto}_d
/_sc{7 -1 roll{setcachedevice}{pop pop pop pop pop pop}ifelse}_d
/_e{exec}_d
/FontName /DejaVuSans def
/PaintType 0 def
/FontMatrix[.001 0 0 .001 0 0]def
/FontBBox[-1021 -463 1793 1232]def
/FontType 3 def
/Encoding [ /space /comma /hyphen /period /zero /one /two /three /four /five /six /seven /eight /nine /D /N /S /a /c /d /e /g /h /i /l /n /o /p /q /r /s /t /v /x ] def
/FontInfo 10 dict dup begin
/FamilyName (DejaVu Sans) def
/FullName (DejaVu Sans) def
/Notice (Copyright (c) 2003 by Bitstream, Inc. All Rights Reserved. Copyright (c) 2006 by Tavmjong Bah. All Rights Reserved. DejaVu changes are in public domain ) def
/Weight (Book) def
/Version (Version 2.35) def
/ItalicAngle 0.0 def
/isFixedPitch false def
/UnderlinePosition -130 def
/UnderlineThickness 90 def
end readonly def
/CharStrings 35 dict dup begin
/.notdef 0 def
/space{318 0 0 0 0 0 _sc
}_d
/comma{318 0 77 -115 220 124 _sc
117 124 _m
220 124 _l
220 40 _l
140 -115 _l
77 -115 _l
117 40 _l
117 124 _l
_cl}_d
/hyphen{361 0 49 234 312 314 _sc
49 314 _m
312 314 _l
312 234 _l
49 234 _l
49 314 _l
_cl}_d
/period{318 0 107 0 210 124 _sc
107 124 _m
210 124 _l
210 0 _l
107 0 _l
107 124 _l
_cl}_d
/zero{636 0 66 -13 570 742 _sc
318 664 _m
267 664 229 639 203 589 _c
177 539 165 464 165 364 _c
165 264 177 189 203 139 _c
229 89 267 64 318 64 _c
369 64 407 89 433 139 _c
458 189 471 264 471 364 _c
471 464 458 539 433 589 _c
407 639 369 664 318 664 _c
318 742 _m
399 742 461 709 505 645 _c
548 580 570 486 570 364 _c
570 241 548 147 505 83 _c
461 19 399 -13 318 -13 _c
236 -13 173 19 130 83 _c
87 147 66 241 66 364 _c
66 486 87 580 130 645 _c
173 709 236 742 318 742 _c
_cl}_d
/one{636 0 110 0 544 729 _sc
124 83 _m
285 83 _l
285 639 _l
110 604 _l
110 694 _l
284 729 _l
383 729 _l
383 83 _l
544 83 _l
544 0 _l
124 0 _l
124 83 _l
_cl}_d
/two{{636 0 73 0 536 742 _sc
192 83 _m
536 83 _l
536 0 _l
73 0 _l
73 83 _l
110 121 161 173 226 239 _c
290 304 331 346 348 365 _c
380 400 402 430 414 455 _c
426 479 433 504 433 528 _c
433 566 419 598 392 622 _c
365 646 330 659 286 659 _c
255 659 222 653 188 643 _c
154 632 117 616 78 594 _c
78 694 _l
118 710 155 722 189 730 _c
223 738 255 742 284 742 _c
}_e{359 742 419 723 464 685 _c
509 647 532 597 532 534 _c
532 504 526 475 515 449 _c
504 422 484 390 454 354 _c
446 344 420 317 376 272 _c
332 227 271 164 192 83 _c
_cl}_e}_d
/three{{636 0 76 -13 556 742 _sc
406 393 _m
453 383 490 362 516 330 _c
542 298 556 258 556 212 _c
556 140 531 84 482 45 _c
432 6 362 -13 271 -13 _c
240 -13 208 -10 176 -4 _c
144 1 110 10 76 22 _c
76 117 _l
103 101 133 89 166 81 _c
198 73 232 69 268 69 _c
330 69 377 81 409 105 _c
441 129 458 165 458 212 _c
458 254 443 288 413 312 _c
383 336 341 349 287 349 _c
}_e{202 349 _l
202 430 _l
291 430 _l
339 430 376 439 402 459 _c
428 478 441 506 441 543 _c
441 580 427 609 401 629 _c
374 649 336 659 287 659 _c
260 659 231 656 200 650 _c
169 644 135 635 98 623 _c
98 711 _l
135 721 170 729 203 734 _c
235 739 266 742 296 742 _c
370 742 429 725 473 691 _c
517 657 539 611 539 553 _c
539 513 527 479 504 451 _c
481 423 448 403 406 393 _c
_cl}_e}_d
/four{636 0 49 0 580 729 _sc
378 643 _m
129 254 _l
378 254 _l
378 643 _l
352 729 _m
476 729 _l
476 254 _l
580 254 _l
580 172 _l
476 172 _l
476 0 _l
378 0 _l
378 172 _l
49 172 _l
49 267 _l
352 729 _l
_cl}_d
/five{{636 0 77 -13 549 729 _sc
108 729 _m
495 729 _l
495 646 _l
198 646 _l
198 467 _l
212 472 227 476 241 478 _c
255 480 270 482 284 482 _c
365 482 429 459 477 415 _c
525 370 549 310 549 234 _c
549 155 524 94 475 51 _c
426 8 357 -13 269 -13 _c
238 -13 207 -10 175 -6 _c
143 -1 111 6 77 17 _c
77 116 _l
106 100 136 88 168 80 _c
199 72 232 69 267 69 _c
}_e{323 69 368 83 401 113 _c
433 143 450 183 450 234 _c
450 284 433 324 401 354 _c
368 384 323 399 267 399 _c
241 399 214 396 188 390 _c
162 384 135 375 108 363 _c
108 729 _l
_cl}_e}_d
/six{{636 0 70 -13 573 742 _sc
330 404 _m
286 404 251 388 225 358 _c
199 328 186 286 186 234 _c
186 181 199 139 225 109 _c
251 79 286 64 330 64 _c
374 64 409 79 435 109 _c
461 139 474 181 474 234 _c
474 286 461 328 435 358 _c
409 388 374 404 330 404 _c
526 713 _m
526 623 _l
501 635 476 644 451 650 _c
425 656 400 659 376 659 _c
310 659 260 637 226 593 _c
}_e{192 549 172 482 168 394 _c
187 422 211 444 240 459 _c
269 474 301 482 336 482 _c
409 482 467 459 509 415 _c
551 371 573 310 573 234 _c
573 159 550 99 506 54 _c
462 9 403 -13 330 -13 _c
246 -13 181 19 137 83 _c
92 147 70 241 70 364 _c
70 479 97 571 152 639 _c
206 707 280 742 372 742 _c
396 742 421 739 447 735 _c
472 730 498 723 526 713 _c
_cl}_e}_d
/seven{636 0 82 0 551 729 _sc
82 729 _m
551 729 _l
551 687 _l
286 0 _l
183 0 _l
432 646 _l
82 646 _l
82 729 _l
_cl}_d
/eight{{636 0 68 -13 568 742 _sc
318 346 _m
271 346 234 333 207 308 _c
180 283 167 249 167 205 _c
167 161 180 126 207 101 _c
234 76 271 64 318 64 _c
364 64 401 76 428 102 _c
455 127 469 161 469 205 _c
469 249 455 283 429 308 _c
402 333 365 346 318 346 _c
219 388 _m
177 398 144 418 120 447 _c
96 476 85 511 85 553 _c
85 611 105 657 147 691 _c
188 725 245 742 318 742 _c
}_e{390 742 447 725 489 691 _c
530 657 551 611 551 553 _c
551 511 539 476 515 447 _c
491 418 459 398 417 388 _c
464 377 501 355 528 323 _c
554 291 568 251 568 205 _c
568 134 546 80 503 43 _c
459 5 398 -13 318 -13 _c
237 -13 175 5 132 43 _c
89 80 68 134 68 205 _c
68 251 81 291 108 323 _c
134 355 171 377 219 388 _c
183 544 _m
183 506 194 476 218 455 _c
}_e{242 434 275 424 318 424 _c
360 424 393 434 417 455 _c
441 476 453 506 453 544 _c
453 582 441 611 417 632 _c
393 653 360 664 318 664 _c
275 664 242 653 218 632 _c
194 611 183 582 183 544 _c
_cl}_e}_d
/nine{{636 0 63 -13 566 742 _sc
110 15 _m
110 105 _l
134 93 159 84 185 78 _c
210 72 235 69 260 69 _c
324 69 374 90 408 134 _c
442 178 462 244 468 334 _c
448 306 424 284 396 269 _c
367 254 335 247 300 247 _c
226 247 168 269 126 313 _c
84 357 63 417 63 494 _c
63 568 85 628 129 674 _c
173 719 232 742 306 742 _c
390 742 455 709 499 645 _c
543 580 566 486 566 364 _c
}_e{566 248 538 157 484 89 _c
429 21 356 -13 264 -13 _c
239 -13 214 -10 189 -6 _c
163 -2 137 5 110 15 _c
306 324 _m
350 324 385 339 411 369 _c
437 399 450 441 450 494 _c
450 546 437 588 411 618 _c
385 648 350 664 306 664 _c
262 664 227 648 201 618 _c
175 588 162 546 162 494 _c
162 441 175 399 201 369 _c
227 339 262 324 306 324 _c
_cl}_e}_d
/D{770 0 98 0 711 729 _sc
197 648 _m
197 81 _l
316 81 _l
416 81 490 103 537 149 _c
583 195 607 267 607 365 _c
607 463 583 534 537 580 _c
490 625 416 648 316 648 _c
197 648 _l
98 729 _m
301 729 _l
442 729 546 699 612 641 _c
678 582 711 490 711 365 _c
711 239 677 147 611 88 _c
545 29 441 0 301 0 _c
98 0 _l
98 729 _l
_cl}_d
/N{748 0 98 0 650 729 _sc
98 729 _m
231 729 _l
554 119 _l
554 729 _l
650 729 _l
650 0 _l
517 0 _l
194 610 _l
194 0 _l
98 0 _l
98 729 _l
_cl}_d
/S{{635 0 66 -13 579 742 _sc
535 705 _m
535 609 _l
497 627 462 640 429 649 _c
395 657 363 662 333 662 _c
279 662 237 651 208 631 _c
179 610 165 580 165 542 _c
165 510 174 485 194 469 _c
213 452 250 439 304 429 _c
364 417 _l
437 403 491 378 526 343 _c
561 307 579 260 579 201 _c
579 130 555 77 508 41 _c
460 5 391 -13 300 -13 _c
265 -13 228 -9 189 -2 _c
}_e{150 5 110 16 69 32 _c
69 134 _l
109 111 148 94 186 83 _c
224 71 262 66 300 66 _c
356 66 399 77 430 99 _c
460 121 476 152 476 194 _c
476 230 465 258 443 278 _c
421 298 385 313 335 323 _c
275 335 _l
201 349 148 372 115 404 _c
82 435 66 478 66 534 _c
66 598 88 649 134 686 _c
179 723 242 742 322 742 _c
356 742 390 739 426 733 _c
461 727 497 717 535 705 _c
}_e{_cl}_e}_d
/a{{613 0 60 -13 522 560 _sc
343 275 _m
270 275 220 266 192 250 _c
164 233 150 205 150 165 _c
150 133 160 107 181 89 _c
202 70 231 61 267 61 _c
317 61 357 78 387 114 _c
417 149 432 196 432 255 _c
432 275 _l
343 275 _l
522 312 _m
522 0 _l
432 0 _l
432 83 _l
411 49 385 25 355 10 _c
325 -5 287 -13 243 -13 _c
187 -13 142 2 109 33 _c
76 64 60 106 60 159 _c
}_e{60 220 80 266 122 298 _c
163 329 224 345 306 345 _c
432 345 _l
432 354 _l
432 395 418 427 391 450 _c
364 472 326 484 277 484 _c
245 484 215 480 185 472 _c
155 464 127 453 100 439 _c
100 522 _l
132 534 164 544 195 550 _c
226 556 256 560 286 560 _c
365 560 424 539 463 498 _c
502 457 522 395 522 312 _c
_cl}_e}_d
/c{{550 0 55 -13 488 560 _sc
488 526 _m
488 442 _l
462 456 437 466 411 473 _c
385 480 360 484 334 484 _c
276 484 230 465 198 428 _c
166 391 150 339 150 273 _c
150 206 166 154 198 117 _c
230 80 276 62 334 62 _c
360 62 385 65 411 72 _c
437 79 462 90 488 104 _c
488 21 _l
462 9 436 0 410 -5 _c
383 -10 354 -13 324 -13 _c
242 -13 176 12 128 64 _c
}_e{79 115 55 185 55 273 _c
55 362 79 432 128 483 _c
177 534 244 560 330 560 _c
358 560 385 557 411 551 _c
437 545 463 537 488 526 _c
_cl}_e}_d
/d{{635 0 55 -13 544 760 _sc
454 464 _m
454 760 _l
544 760 _l
544 0 _l
454 0 _l
454 82 _l
435 49 411 25 382 10 _c
353 -5 319 -13 279 -13 _c
213 -13 159 13 117 65 _c
75 117 55 187 55 273 _c
55 359 75 428 117 481 _c
159 533 213 560 279 560 _c
319 560 353 552 382 536 _c
411 520 435 496 454 464 _c
148 273 _m
148 207 161 155 188 117 _c
215 79 253 61 301 61 _c
}_e{348 61 385 79 413 117 _c
440 155 454 207 454 273 _c
454 339 440 390 413 428 _c
385 466 348 485 301 485 _c
253 485 215 466 188 428 _c
161 390 148 339 148 273 _c
_cl}_e}_d
/e{{615 0 55 -13 562 560 _sc
562 296 _m
562 252 _l
149 252 _l
153 190 171 142 205 110 _c
238 78 284 62 344 62 _c
378 62 412 66 444 74 _c
476 82 509 95 541 113 _c
541 28 _l
509 14 476 3 442 -3 _c
408 -9 373 -13 339 -13 _c
251 -13 182 12 131 62 _c
80 112 55 181 55 268 _c
55 357 79 428 127 481 _c
175 533 241 560 323 560 _c
397 560 455 536 498 489 _c
}_e{540 441 562 377 562 296 _c
472 322 _m
471 371 457 410 431 440 _c
404 469 368 484 324 484 _c
274 484 234 469 204 441 _c
174 413 156 373 152 322 _c
472 322 _l
_cl}_e}_d
/g{{635 0 55 -207 544 560 _sc
454 280 _m
454 344 440 395 414 431 _c
387 467 349 485 301 485 _c
253 485 215 467 188 431 _c
161 395 148 344 148 280 _c
148 215 161 165 188 129 _c
215 93 253 75 301 75 _c
349 75 387 93 414 129 _c
440 165 454 215 454 280 _c
544 68 _m
544 -24 523 -93 482 -139 _c
440 -184 377 -207 292 -207 _c
260 -207 231 -204 203 -200 _c
175 -195 147 -188 121 -178 _c
}_e{121 -91 _l
147 -105 173 -115 199 -122 _c
225 -129 251 -133 278 -133 _c
336 -133 380 -117 410 -87 _c
439 -56 454 -10 454 52 _c
454 96 _l
435 64 411 40 382 24 _c
353 8 319 0 279 0 _c
211 0 157 25 116 76 _c
75 127 55 195 55 280 _c
55 364 75 432 116 483 _c
157 534 211 560 279 560 _c
319 560 353 552 382 536 _c
411 520 435 496 454 464 _c
454 547 _l
544 547 _l
}_e{544 68 _l
_cl}_e}_d
/h{634 0 91 0 549 760 _sc
549 330 _m
549 0 _l
459 0 _l
459 327 _l
459 379 448 417 428 443 _c
408 469 378 482 338 482 _c
289 482 251 466 223 435 _c
195 404 181 362 181 309 _c
181 0 _l
91 0 _l
91 760 _l
181 760 _l
181 462 _l
202 494 227 519 257 535 _c
286 551 320 560 358 560 _c
420 560 468 540 500 501 _c
532 462 549 405 549 330 _c
_cl}_d
/i{278 0 94 0 184 760 _sc
94 547 _m
184 547 _l
184 0 _l
94 0 _l
94 547 _l
94 760 _m
184 760 _l
184 646 _l
94 646 _l
94 760 _l
_cl}_d
/l{278 0 94 0 184 760 _sc
94 760 _m
184 760 _l
184 0 _l
94 0 _l
94 760 _l
_cl}_d
/n{634 0 91 0 549 560 _sc
549 330 _m
549 0 _l
459 0 _l
459 327 _l
459 379 448 417 428 443 _c
408 469 378 482 338 482 _c
289 482 251 466 223 435 _c
195 404 181 362 181 309 _c
181 0 _l
91 0 _l
91 547 _l
181 547 _l
181 462 _l
202 494 227 519 257 535 _c
286 551 320 560 358 560 _c
420 560 468 540 500 501 _c
532 462 549 405 549 330 _c
_cl}_d
/o{612 0 55 -13 557 560 _sc
306 484 _m
258 484 220 465 192 427 _c
164 389 150 338 150 273 _c
150 207 163 156 191 118 _c
219 80 257 62 306 62 _c
354 62 392 80 420 118 _c
448 156 462 207 462 273 _c
462 337 448 389 420 427 _c
392 465 354 484 306 484 _c
306 560 _m
384 560 445 534 490 484 _c
534 433 557 363 557 273 _c
557 183 534 113 490 63 _c
445 12 384 -13 306 -13 _c
227 -13 165 12 121 63 _c
77 113 55 183 55 273 _c
55 363 77 433 121 484 _c
165 534 227 560 306 560 _c
_cl}_d
/p{{635 0 91 -207 580 560 _sc
181 82 _m
181 -207 _l
91 -207 _l
91 547 _l
181 547 _l
181 464 _l
199 496 223 520 252 536 _c
281 552 316 560 356 560 _c
422 560 476 533 518 481 _c
559 428 580 359 580 273 _c
580 187 559 117 518 65 _c
476 13 422 -13 356 -13 _c
316 -13 281 -5 252 10 _c
223 25 199 49 181 82 _c
487 273 _m
487 339 473 390 446 428 _c
418 466 381 485 334 485 _c
}_e{286 485 249 466 222 428 _c
194 390 181 339 181 273 _c
181 207 194 155 222 117 _c
249 79 286 61 334 61 _c
381 61 418 79 446 117 _c
473 155 487 207 487 273 _c
_cl}_e}_d
/q{{635 0 55 -207 544 560 _sc
148 273 _m
148 207 161 155 188 117 _c
215 79 253 61 301 61 _c
348 61 385 79 413 117 _c
440 155 454 207 454 273 _c
454 339 440 390 413 428 _c
385 466 348 485 301 485 _c
253 485 215 466 188 428 _c
161 390 148 339 148 273 _c
454 82 _m
435 49 411 25 382 10 _c
353 -5 319 -13 279 -13 _c
213 -13 159 13 117 65 _c
75 117 55 187 55 273 _c
}_e{55 359 75 428 117 481 _c
159 533 213 560 279 560 _c
319 560 353 552 382 536 _c
411 520 435 496 454 464 _c
454 547 _l
544 547 _l
544 -207 _l
454 -207 _l
454 82 _l
_cl}_e}_d
/r{411 0 91 0 411 560 _sc
411 463 _m
401 469 390 473 378 476 _c
366 478 353 480 339 480 _c
288 480 249 463 222 430 _c
194 397 181 350 181 288 _c
181 0 _l
91 0 _l
91 547 _l
181 547 _l
181 462 _l
199 495 224 520 254 536 _c
284 552 321 560 365 560 _c
371 560 378 559 386 559 _c
393 558 401 557 411 555 _c
411 463 _l
_cl}_d
/s{{521 0 54 -13 472 560 _sc
443 531 _m
443 446 _l
417 458 391 468 364 475 _c
336 481 308 485 279 485 _c
234 485 200 478 178 464 _c
156 450 145 430 145 403 _c
145 382 153 366 169 354 _c
185 342 217 330 265 320 _c
296 313 _l
360 299 405 279 432 255 _c
458 230 472 195 472 151 _c
472 100 452 60 412 31 _c
372 1 316 -13 246 -13 _c
216 -13 186 -10 154 -5 _c
}_e{122 0 89 8 54 20 _c
54 113 _l
87 95 120 82 152 74 _c
184 65 216 61 248 61 _c
290 61 323 68 346 82 _c
368 96 380 117 380 144 _c
380 168 371 187 355 200 _c
339 213 303 226 247 238 _c
216 245 _l
160 257 119 275 95 299 _c
70 323 58 356 58 399 _c
58 450 76 490 112 518 _c
148 546 200 560 268 560 _c
301 560 332 557 362 552 _c
391 547 418 540 443 531 _c
}_e{_cl}_e}_d
/t{392 0 27 0 368 702 _sc
183 702 _m
183 547 _l
368 547 _l
368 477 _l
183 477 _l
183 180 _l
183 135 189 106 201 94 _c
213 81 238 75 276 75 _c
368 75 _l
368 0 _l
276 0 _l
206 0 158 13 132 39 _c
106 65 93 112 93 180 _c
93 477 _l
27 477 _l
27 547 _l
93 547 _l
93 702 _l
183 702 _l
_cl}_d
/v{592 0 30 0 562 547 _sc
30 547 _m
125 547 _l
296 88 _l
467 547 _l
562 547 _l
357 0 _l
235 0 _l
30 547 _l
_cl}_d
/x{592 0 29 0 559 547 _sc
549 547 _m
351 281 _l
559 0 _l
453 0 _l
294 215 _l
135 0 _l
29 0 _l
241 286 _l
47 547 _l
153 547 _l
298 352 _l
443 547 _l
549 547 _l
_cl}_d
end readonly def

/BuildGlyph
 {exch begin
 CharStrings exch
 2 copy known not{pop /.notdef}if
 true 3 1 roll get exec
 end}_d

/BuildChar {
 1 index /Encoding get exch get
 1 index /BuildGlyph get exec
}_d

FontName currentdict end definefont pop
%!PS-Adobe-3.0 Resource-Font
%%Title: DejaVu Sans Oblique
%%Copyright: Copyright (c) 2003 by Bitstream, Inc. All Rights Reserved. Copyright (c) 2006 by Tavmjong Bah. All Rights Reserved. DejaVu changes are in public domain 
%%Creator: Converted from TrueType to type 3 by PPR
25 dict begin
/_d{bind def}bind def
/_m{moveto}_d
/_l{lineto}_d
/_cl{closepath eofill}_d
/_c{curveto}_d
/_sc{7 -1 roll{setcachedevice}{pop pop pop pop pop pop}ifelse}_d
/_e{exec}_d
/FontName /DejaVuSans-Oblique def
/PaintType 0 def
/FontMatrix[.001 0 0 .001 0 0]def
/FontBBox[-1016 -350 1659 1068]def
/FontType 3 def
/Encoding [ /delta ] def
/FontInfo 10 dict dup begin
/FamilyName (DejaVu Sans) def
/FullName (DejaVu Sans Oblique) def
/Notice (Copyright (c) 2003 by Bitstream, Inc. All Rights Reserved. Copyright (c) 2006 by Tavmjong Bah. All Rights Reserved. DejaVu changes are in public domain ) def
/Weight (Oblique) def
/Version (Version 2.35) def
/ItalicAngle -11.0 def
/isFixedPitch false def
/UnderlinePosition -130 def
/UnderlineThickness 90 def
end readonly def
/CharStrings 2 dict dup begin
/.notdef 0 def
/delta{{612 0 38 -13 557 742 _sc
542 633 _m
514 655 461 667 383 667 _c
300 667 255 648 248 610 _c
242 580 280 557 364 542 _c
428 530 476 505 508 469 _c
546 425 556 358 539 268 _c
521 182 486 113 432 63 _c
377 12 310 -13 232 -13 _c
154 -13 98 12 63 63 _c
28 113 20 183 38 273 _c
50 339 84 399 139 453 _c
160 473 184 490 211 502 _c
165 528 147 563 156 609 _c
}_e{173 697 253 742 397 742 _c
469 742 522 730 557 708 _c
542 633 _l
274 478 _m
250 468 226 451 204 428 _c
168 391 144 339 132 273 _c
119 207 123 155 144 118 _c
164 80 199 62 248 62 _c
295 62 336 81 372 119 _c
407 156 431 206 443 268 _c
455 332 450 380 427 412 _c
401 445 369 464 329 468 _c
308 470 290 473 274 478 _c
_cl}_e}_d
end readonly def

/BuildGlyph
 {exch begin
 CharStrings exch
 2 copy known not{pop /.notdef}if
 true 3 1 roll get exec
 end}_d

/BuildChar {
 1 index /Encoding get exch get
 1 index /BuildGlyph get exec
}_d

FontName currentdict end definefont pop
end
%%EndProlog
mpldict begin
-146.567 179.485 translate
905.134 433.029 0 0 clipbox
gsave
0 0 m
905.134375 0 l
905.134375 433.029375 l
0 433.029375 l
cl
1.000 setgray
fill
grestore
gsave
60.934375 45.309375 m
897.934375 45.309375 l
897.934375 425.829375 l
60.934375 425.829375 l
cl
1.000 setgray
fill
grestore
0.800 setlinewidth
1 setlinejoin
2 setlinecap
[] 0 setdash
0.690 setgray
gsave
837 380.5 60.93 45.31 clipbox
110.869034 45.309375 m
110.869034 425.829375 l
stroke
grestore
0 setlinecap
0.000 setgray
gsave
/o {
gsave
newpath
translate
0.8 setlinewidth
1 setlinejoin
0 setlinecap
0 0 m
0 -3.5 l

gsave
0.000 setgray
fill
grestore
stroke
grestore
} bind def
110.869 45.3094 o
grestore
/DejaVuSans findfont
12.000 scalefont
setfont
gsave
103.228409 29.184375 translate
0.000000 rotate
0.000000 0 m /one glyphshow
7.634766 0 m /zero glyphshow
grestore
2 setlinecap
0.690 setgray
gsave
837 380.5 60.93 45.31 clipbox
150.499716 45.309375 m
150.499716 425.829375 l
stroke
grestore
0 setlinecap
0.000 setgray
gsave
/o {
gsave
newpath
translate
0.8 setlinewidth
1 setlinejoin
0 setlinecap
0 0 m
0 -3.5 l

gsave
0.000 setgray
fill
grestore
stroke
grestore
} bind def
150.5 45.3094 o
grestore
gsave
142.859091 29.184375 translate
0.000000 rotate
0.000000 0 m /two glyphshow
7.634766 0 m /zero glyphshow
grestore
2 setlinecap
0.690 setgray
gsave
837 380.5 60.93 45.31 clipbox
190.130398 45.309375 m
190.130398 425.829375 l
stroke
grestore
0 setlinecap
0.000 setgray
gsave
/o {
gsave
newpath
translate
0.8 setlinewidth
1 setlinejoin
0 setlinecap
0 0 m
0 -3.5 l

gsave
0.000 setgray
fill
grestore
stroke
grestore
} bind def
190.13 45.3094 o
grestore
gsave
182.489773 29.184375 translate
0.000000 rotate
0.000000 0 m /three glyphshow
7.634766 0 m /zero glyphshow
grestore
2 setlinecap
0.690 setgray
gsave
837 380.5 60.93 45.31 clipbox
229.76108 45.309375 m
229.76108 425.829375 l
stroke
grestore
0 setlinecap
0.000 setgray
gsave
/o {
gsave
newpath
translate
0.8 setlinewidth
1 setlinejoin
0 setlinecap
0 0 m
0 -3.5 l

gsave
0.000 setgray
fill
grestore
stroke
grestore
} bind def
229.761 45.3094 o
grestore
gsave
222.120455 29.184375 translate
0.000000 rotate
0.000000 0 m /four glyphshow
7.634766 0 m /zero glyphshow
grestore
2 setlinecap
0.690 setgray
gsave
837 380.5 60.93 45.31 clipbox
269.391761 45.309375 m
269.391761 425.829375 l
stroke
grestore
0 setlinecap
0.000 setgray
gsave
/o {
gsave
newpath
translate
0.8 setlinewidth
1 setlinejoin
0 setlinecap
0 0 m
0 -3.5 l

gsave
0.000 setgray
fill
grestore
stroke
grestore
} bind def
269.392 45.3094 o
grestore
gsave
261.751136 29.184375 translate
0.000000 rotate
0.000000 0 m /five glyphshow
7.634766 0 m /zero glyphshow
grestore
2 setlinecap
0.690 setgray
gsave
837 380.5 60.93 45.31 clipbox
309.022443 45.309375 m
309.022443 425.829375 l
stroke
grestore
0 setlinecap
0.000 setgray
gsave
/o {
gsave
newpath
translate
0.8 setlinewidth
1 setlinejoin
0 setlinecap
0 0 m
0 -3.5 l

gsave
0.000 setgray
fill
grestore
stroke
grestore
} bind def
309.022 45.3094 o
grestore
gsave
301.381818 29.184375 translate
0.000000 rotate
0.000000 0 m /six glyphshow
7.634766 0 m /zero glyphshow
grestore
2 setlinecap
0.690 setgray
gsave
837 380.5 60.93 45.31 clipbox
348.653125 45.309375 m
348.653125 425.829375 l
stroke
grestore
0 setlinecap
0.000 setgray
gsave
/o {
gsave
newpath
translate
0.8 setlinewidth
1 setlinejoin
0 setlinecap
0 0 m
0 -3.5 l

gsave
0.000 setgray
fill
grestore
stroke
grestore
} bind def
348.653 45.3094 o
grestore
gsave
341.012500 29.184375 translate
0.000000 rotate
0.000000 0 m /seven glyphshow
7.634766 0 m /zero glyphshow
grestore
2 setlinecap
0.690 setgray
gsave
837 380.5 60.93 45.31 clipbox
388.283807 45.309375 m
388.283807 425.829375 l
stroke
grestore
0 setlinecap
0.000 setgray
gsave
/o {
gsave
newpath
translate
0.8 setlinewidth
1 setlinejoin
0 setlinecap
0 0 m
0 -3.5 l

gsave
0.000 setgray
fill
grestore
stroke
grestore
} bind def
388.284 45.3094 o
grestore
gsave
380.643182 29.184375 translate
0.000000 rotate
0.000000 0 m /eight glyphshow
7.634766 0 m /zero glyphshow
grestore
2 setlinecap
0.690 setgray
gsave
837 380.5 60.93 45.31 clipbox
427.914489 45.309375 m
427.914489 425.829375 l
stroke
grestore
0 setlinecap
0.000 setgray
gsave
/o {
gsave
newpath
translate
0.8 setlinewidth
1 setlinejoin
0 setlinecap
0 0 m
0 -3.5 l

gsave
0.000 setgray
fill
grestore
stroke
grestore
} bind def
427.914 45.3094 o
grestore
gsave
420.273864 29.184375 translate
0.000000 rotate
0.000000 0 m /nine glyphshow
7.634766 0 m /zero glyphshow
grestore
2 setlinecap
0.690 setgray
gsave
837 380.5 60.93 45.31 clipbox
467.54517 45.309375 m
467.54517 425.829375 l
stroke
grestore
0 setlinecap
0.000 setgray
gsave
/o {
gsave
newpath
translate
0.8 setlinewidth
1 setlinejoin
0 setlinecap
0 0 m
0 -3.5 l

gsave
0.000 setgray
fill
grestore
stroke
grestore
} bind def
467.545 45.3094 o
grestore
gsave
456.084233 29.184375 translate
0.000000 rotate
0.000000 0 m /one glyphshow
7.634766 0 m /zero glyphshow
15.269531 0 m /zero glyphshow
grestore
2 setlinecap
0.690 setgray
gsave
837 380.5 60.93 45.31 clipbox
507.175852 45.309375 m
507.175852 425.829375 l
stroke
grestore
0 setlinecap
0.000 setgray
gsave
/o {
gsave
newpath
translate
0.8 setlinewidth
1 setlinejoin
0 setlinecap
0 0 m
0 -3.5 l

gsave
0.000 setgray
fill
grestore
stroke
grestore
} bind def
507.176 45.3094 o
grestore
gsave
495.714915 29.184375 translate
0.000000 rotate
0.000000 0 m /one glyphshow
7.634766 0 m /one glyphshow
15.269531 0 m /zero glyphshow
grestore
2 setlinecap
0.690 setgray
gsave
837 380.5 60.93 45.31 clipbox
546.806534 45.309375 m
546.806534 425.829375 l
stroke
grestore
0 setlinecap
0.000 setgray
gsave
/o {
gsave
newpath
translate
0.8 setlinewidth
1 setlinejoin
0 setlinecap
0 0 m
0 -3.5 l

gsave
0.000 setgray
fill
grestore
stroke
grestore
} bind def
546.807 45.3094 o
grestore
gsave
535.345597 29.184375 translate
0.000000 rotate
0.000000 0 m /one glyphshow
7.634766 0 m /two glyphshow
15.269531 0 m /zero glyphshow
grestore
2 setlinecap
0.690 setgray
gsave
837 380.5 60.93 45.31 clipbox
586.437216 45.309375 m
586.437216 425.829375 l
stroke
grestore
0 setlinecap
0.000 setgray
gsave
/o {
gsave
newpath
translate
0.8 setlinewidth
1 setlinejoin
0 setlinecap
0 0 m
0 -3.5 l

gsave
0.000 setgray
fill
grestore
stroke
grestore
} bind def
586.437 45.3094 o
grestore
gsave
574.976278 29.184375 translate
0.000000 rotate
0.000000 0 m /one glyphshow
7.634766 0 m /three glyphshow
15.269531 0 m /zero glyphshow
grestore
2 setlinecap
0.690 setgray
gsave
837 380.5 60.93 45.31 clipbox
626.067898 45.309375 m
626.067898 425.829375 l
stroke
grestore
0 setlinecap
0.000 setgray
gsave
/o {
gsave
newpath
translate
0.8 setlinewidth
1 setlinejoin
0 setlinecap
0 0 m
0 -3.5 l

gsave
0.000 setgray
fill
grestore
stroke
grestore
} bind def
626.068 45.3094 o
grestore
gsave
614.606960 29.184375 translate
0.000000 rotate
0.000000 0 m /one glyphshow
7.634766 0 m /four glyphshow
15.269531 0 m /zero glyphshow
grestore
2 setlinecap
0.690 setgray
gsave
837 380.5 60.93 45.31 clipbox
665.69858 45.309375 m
665.69858 425.829375 l
stroke
grestore
0 setlinecap
0.000 setgray
gsave
/o {
gsave
newpath
translate
0.8 setlinewidth
1 setlinejoin
0 setlinecap
0 0 m
0 -3.5 l

gsave
0.000 setgray
fill
grestore
stroke
grestore
} bind def
665.699 45.3094 o
grestore
gsave
654.237642 29.184375 translate
0.000000 rotate
0.000000 0 m /one glyphshow
7.634766 0 m /five glyphshow
15.269531 0 m /zero glyphshow
grestore
2 setlinecap
0.690 setgray
gsave
837 380.5 60.93 45.31 clipbox
705.329261 45.309375 m
705.329261 425.829375 l
stroke
grestore
0 setlinecap
0.000 setgray
gsave
/o {
gsave
newpath
translate
0.8 setlinewidth
1 setlinejoin
0 setlinecap
0 0 m
0 -3.5 l

gsave
0.000 setgray
fill
grestore
stroke
grestore
} bind def
705.329 45.3094 o
grestore
gsave
693.868324 29.184375 translate
0.000000 rotate
0.000000 0 m /one glyphshow
7.634766 0 m /six glyphshow
15.269531 0 m /zero glyphshow
grestore
2 setlinecap
0.690 setgray
gsave
837 380.5 60.93 45.31 clipbox
744.959943 45.309375 m
744.959943 425.829375 l
stroke
grestore
0 setlinecap
0.000 setgray
gsave
/o {
gsave
newpath
translate
0.8 setlinewidth
1 setlinejoin
0 setlinecap
0 0 m
0 -3.5 l

gsave
0.000 setgray
fill
grestore
stroke
grestore
} bind def
744.96 45.3094 o
grestore
gsave
733.499006 29.184375 translate
0.000000 rotate
0.000000 0 m /one glyphshow
7.634766 0 m /seven glyphshow
15.269531 0 m /zero glyphshow
grestore
2 setlinecap
0.690 setgray
gsave
837 380.5 60.93 45.31 clipbox
784.590625 45.309375 m
784.590625 425.829375 l
stroke
grestore
0 setlinecap
0.000 setgray
gsave
/o {
gsave
newpath
translate
0.8 setlinewidth
1 setlinejoin
0 setlinecap
0 0 m
0 -3.5 l

gsave
0.000 setgray
fill
grestore
stroke
grestore
} bind def
784.591 45.3094 o
grestore
gsave
773.129688 29.184375 translate
0.000000 rotate
0.000000 0 m /one glyphshow
7.634766 0 m /eight glyphshow
15.269531 0 m /zero glyphshow
grestore
2 setlinecap
0.690 setgray
gsave
837 380.5 60.93 45.31 clipbox
824.221307 45.309375 m
824.221307 425.829375 l
stroke
grestore
0 setlinecap
0.000 setgray
gsave
/o {
gsave
newpath
translate
0.8 setlinewidth
1 setlinejoin
0 setlinecap
0 0 m
0 -3.5 l

gsave
0.000 setgray
fill
grestore
stroke
grestore
} bind def
824.221 45.3094 o
grestore
gsave
812.760369 29.184375 translate
0.000000 rotate
0.000000 0 m /one glyphshow
7.634766 0 m /nine glyphshow
15.269531 0 m /zero glyphshow
grestore
2 setlinecap
0.690 setgray
gsave
837 380.5 60.93 45.31 clipbox
863.851989 45.309375 m
863.851989 425.829375 l
stroke
grestore
0 setlinecap
0.000 setgray
gsave
/o {
gsave
newpath
translate
0.8 setlinewidth
1 setlinejoin
0 setlinecap
0 0 m
0 -3.5 l

gsave
0.000 setgray
fill
grestore
stroke
grestore
} bind def
863.852 45.3094 o
grestore
gsave
852.391051 29.184375 translate
0.000000 rotate
0.000000 0 m /two glyphshow
7.634766 0 m /zero glyphshow
15.269531 0 m /zero glyphshow
grestore
/DejaVuSans findfont
16.000 scalefont
setfont
gsave
422.848438 10.528125 translate
0.000000 rotate
0.000000 0 m /S glyphshow
10.156250 0 m /p glyphshow
20.312500 0 m /i glyphshow
24.757812 0 m /n glyphshow
34.898438 0 m /space glyphshow
39.984375 0 m /l glyphshow
44.429688 0 m /e glyphshow
54.273438 0 m /n glyphshow
64.414062 0 m /g glyphshow
74.570312 0 m /t glyphshow
80.843750 0 m /h glyphshow
90.984375 0 m /comma glyphshow
96.070312 0 m /space glyphshow
101.156250 0 m /N glyphshow
grestore
2 setlinecap
0.690 setgray
gsave
837 380.5 60.93 45.31 clipbox
60.934375 83.422184 m
897.934375 83.422184 l
stroke
grestore
0 setlinecap
0.000 setgray
gsave
/o {
gsave
newpath
translate
0.8 setlinewidth
1 setlinejoin
0 setlinecap
0 0 m
-3.5 0 l

gsave
0.000 setgray
fill
grestore
stroke
grestore
} bind def
60.9344 83.4222 o
grestore
/DejaVuSans findfont
12.000 scalefont
setfont
gsave
27.200000 78.859684 translate
0.000000 rotate
0.000000 0 m /zero glyphshow
7.634766 0 m /period glyphshow
11.449219 0 m /one glyphshow
19.083984 0 m /zero glyphshow
grestore
2 setlinecap
0.690 setgray
gsave
837 380.5 60.93 45.31 clipbox
60.934375 126.644119 m
897.934375 126.644119 l
stroke
grestore
0 setlinecap
0.000 setgray
gsave
/o {
gsave
newpath
translate
0.8 setlinewidth
1 setlinejoin
0 setlinecap
0 0 m
-3.5 0 l

gsave
0.000 setgray
fill
grestore
stroke
grestore
} bind def
60.9344 126.644 o
grestore
gsave
27.200000 122.081619 translate
0.000000 rotate
0.000000 0 m /zero glyphshow
7.634766 0 m /period glyphshow
11.449219 0 m /one glyphshow
19.083984 0 m /five glyphshow
grestore
2 setlinecap
0.690 setgray
gsave
837 380.5 60.93 45.31 clipbox
60.934375 169.866054 m
897.934375 169.866054 l
stroke
grestore
0 setlinecap
0.000 setgray
gsave
/o {
gsave
newpath
translate
0.8 setlinewidth
1 setlinejoin
0 setlinecap
0 0 m
-3.5 0 l

gsave
0.000 setgray
fill
grestore
stroke
grestore
} bind def
60.9344 169.866 o
grestore
gsave
27.200000 165.303554 translate
0.000000 rotate
0.000000 0 m /zero glyphshow
7.634766 0 m /period glyphshow
11.449219 0 m /two glyphshow
19.083984 0 m /zero glyphshow
grestore
2 setlinecap
0.690 setgray
gsave
837 380.5 60.93 45.31 clipbox
60.934375 213.087989 m
897.934375 213.087989 l
stroke
grestore
0 setlinecap
0.000 setgray
gsave
/o {
gsave
newpath
translate
0.8 setlinewidth
1 setlinejoin
0 setlinecap
0 0 m
-3.5 0 l

gsave
0.000 setgray
fill
grestore
stroke
grestore
} bind def
60.9344 213.088 o
grestore
gsave
27.200000 208.525489 translate
0.000000 rotate
0.000000 0 m /zero glyphshow
7.634766 0 m /period glyphshow
11.449219 0 m /two glyphshow
19.083984 0 m /five glyphshow
grestore
2 setlinecap
0.690 setgray
gsave
837 380.5 60.93 45.31 clipbox
60.934375 256.309925 m
897.934375 256.309925 l
stroke
grestore
0 setlinecap
0.000 setgray
gsave
/o {
gsave
newpath
translate
0.8 setlinewidth
1 setlinejoin
0 setlinecap
0 0 m
-3.5 0 l

gsave
0.000 setgray
fill
grestore
stroke
grestore
} bind def
60.9344 256.31 o
grestore
gsave
27.200000 251.747425 translate
0.000000 rotate
0.000000 0 m /zero glyphshow
7.634766 0 m /period glyphshow
11.449219 0 m /three glyphshow
19.083984 0 m /zero glyphshow
grestore
2 setlinecap
0.690 setgray
gsave
837 380.5 60.93 45.31 clipbox
60.934375 299.53186 m
897.934375 299.53186 l
stroke
grestore
0 setlinecap
0.000 setgray
gsave
/o {
gsave
newpath
translate
0.8 setlinewidth
1 setlinejoin
0 setlinecap
0 0 m
-3.5 0 l

gsave
0.000 setgray
fill
grestore
stroke
grestore
} bind def
60.9344 299.532 o
grestore
gsave
27.200000 294.969360 translate
0.000000 rotate
0.000000 0 m /zero glyphshow
7.634766 0 m /period glyphshow
11.449219 0 m /three glyphshow
19.083984 0 m /five glyphshow
grestore
2 setlinecap
0.690 setgray
gsave
837 380.5 60.93 45.31 clipbox
60.934375 342.753795 m
897.934375 342.753795 l
stroke
grestore
0 setlinecap
0.000 setgray
gsave
/o {
gsave
newpath
translate
0.8 setlinewidth
1 setlinejoin
0 setlinecap
0 0 m
-3.5 0 l

gsave
0.000 setgray
fill
grestore
stroke
grestore
} bind def
60.9344 342.754 o
grestore
gsave
27.200000 338.191295 translate
0.000000 rotate
0.000000 0 m /zero glyphshow
7.634766 0 m /period glyphshow
11.449219 0 m /four glyphshow
19.083984 0 m /zero glyphshow
grestore
2 setlinecap
0.690 setgray
gsave
837 380.5 60.93 45.31 clipbox
60.934375 385.97573 m
897.934375 385.97573 l
stroke
grestore
0 setlinecap
0.000 setgray
gsave
/o {
gsave
newpath
translate
0.8 setlinewidth
1 setlinejoin
0 setlinecap
0 0 m
-3.5 0 l

gsave
0.000 setgray
fill
grestore
stroke
grestore
} bind def
60.9344 385.976 o
grestore
gsave
27.200000 381.413230 translate
0.000000 rotate
0.000000 0 m /zero glyphshow
7.634766 0 m /period glyphshow
11.449219 0 m /four glyphshow
19.083984 0 m /five glyphshow
grestore
gsave
19.871875 179.569375 translate
90.000000 rotate
/DejaVuSans findfont
16.0 scalefont
setfont
0.000000 0.843750 moveto
/D glyphshow
12.320312 0.843750 moveto
/e glyphshow
22.164062 0.843750 moveto
/v glyphshow
31.632812 0.843750 moveto
/i glyphshow
36.078125 0.843750 moveto
/a glyphshow
45.882812 0.843750 moveto
/t glyphshow
52.156250 0.843750 moveto
/i glyphshow
56.601562 0.843750 moveto
/o glyphshow
66.390625 0.843750 moveto
/n glyphshow
76.531250 0.843750 moveto
/comma glyphshow
81.617188 0.843750 moveto
/space glyphshow
/DejaVuSans-Oblique findfont
16.0 scalefont
setfont
86.703125 0.843750 moveto
/delta glyphshow
/DejaVuSans findfont
11.2 scalefont
setfont
96.492188 -1.781250 moveto
/n glyphshow
103.590625 -1.781250 moveto
/d glyphshow

grestore
1.500 setlinewidth
2 setlinecap
0.122 0.467 0.706 setrgbcolor
gsave
837 380.5 60.93 45.31 clipbox
98.97983 151.958206 m
102.942898 152.728732 l
106.905966 158.228876 l
110.869034 160.057479 l
114.832102 152.416165 l
118.79517 156.97576 l
122.758239 154.796998 l
126.721307 133.182658 l
130.684375 147.385772 l
134.647443 147.985999 l
138.610511 93.896512 l
142.57358 143.882794 l
146.536648 90.172425 l
150.499716 89.282263 l
154.462784 89.267568 l
158.425852 82.196972 l
162.38892 88.884217 l
166.351989 88.382234 l
170.315057 88.240546 l
174.278125 88.038637 l
178.241193 93.812233 l
182.204261 87.175179 l
190.130398 87.088921 l
194.093466 86.826584 l
198.056534 90.09758 l
202.019602 86.139177 l
205.98267 86.006842 l
209.945739 87.333029 l
213.908807 85.351148 l
217.871875 85.121422 l
221.834943 84.605615 l
225.798011 85.140026 l
229.76108 84.765121 l
249.57642 81.687587 l
253.539489 81.96442 l
265.428693 81.219044 l
273.35483 80.183218 l
277.317898 79.811271 l
281.280966 79.414567 l
285.244034 80.020559 l
293.17017 78.482279 l
301.096307 77.595887 l
305.059375 76.790283 l
309.022443 78.564552 l
316.94858 74.552743 l
324.874716 73.690111 l
336.76392 73.432029 l
348.653125 72.08275 l
352.616193 71.306715 l
364.505398 64.10051 l
368.468466 69.794454 l
372.431534 67.764153 l
376.394602 67.956581 l
380.35767 67.882498 l
404.13608 66.209972 l
412.062216 64.846746 l
419.988352 62.845473 l
423.95142 64.17536 l
439.803693 62.605739 l
stroke
grestore
1.000 setlinewidth
0 setlinejoin
0 setlinecap
gsave
837 380.5 60.93 45.31 clipbox
/o {
gsave
newpath
translate
1.0 setlinewidth
0 setlinejoin
0 setlinecap
-0 -2 m
2 2 l
-2 2 l
cl

gsave
0.122 0.467 0.706 setrgbcolor
fill
grestore
stroke
grestore
} bind def
98.9798 151.958 o
102.943 152.729 o
106.906 158.229 o
110.869 160.057 o
114.832 152.416 o
118.795 156.976 o
122.758 154.797 o
126.721 133.183 o
130.684 147.386 o
134.647 147.986 o
138.611 93.8965 o
142.574 143.883 o
146.537 90.1724 o
150.5 89.2823 o
154.463 89.2676 o
158.426 82.197 o
162.389 88.8842 o
166.352 88.3822 o
170.315 88.2405 o
174.278 88.0386 o
178.241 93.8122 o
182.204 87.1752 o
190.13 87.0889 o
194.093 86.8266 o
198.057 90.0976 o
202.02 86.1392 o
205.983 86.0068 o
209.946 87.333 o
213.909 85.3511 o
217.872 85.1214 o
221.835 84.6056 o
225.798 85.14 o
229.761 84.7651 o
249.576 81.6876 o
253.539 81.9644 o
265.429 81.219 o
273.355 80.1832 o
277.318 79.8113 o
281.281 79.4146 o
285.244 80.0206 o
293.17 78.4823 o
301.096 77.5959 o
305.059 76.7903 o
309.022 78.5646 o
316.949 74.5527 o
324.875 73.6901 o
336.764 73.432 o
348.653 72.0827 o
352.616 71.3067 o
364.505 64.1005 o
368.468 69.7945 o
372.432 67.7642 o
376.395 67.9566 o
380.358 67.8825 o
404.136 66.21 o
412.062 64.8467 o
419.988 62.8455 o
423.951 64.1754 o
439.804 62.6057 o
grestore
1.500 setlinewidth
1 setlinejoin
2 setlinecap
1.000 0.498 0.055 setrgbcolor
gsave
837 380.5 60.93 45.31 clipbox
102.942898 189.28953 m
106.905966 184.133323 l
110.869034 183.154252 l
114.832102 183.581404 l
118.79517 183.428354 l
122.758239 182.958919 l
126.721307 182.181203 l
130.684375 181.121723 l
134.647443 179.838023 l
138.610511 178.428623 l
142.57358 176.958772 l
146.536648 175.477095 l
150.499716 173.995743 l
154.462784 172.525228 l
158.425852 171.07449 l
162.38892 169.662535 l
166.351989 168.304628 l
170.315057 167.009354 l
174.278125 165.767576 l
178.241193 164.596329 l
182.204261 163.484999 l
186.16733 162.451114 l
190.130398 161.497065 l
194.093466 160.6075 l
198.056534 159.780485 l
202.019602 158.995538 l
205.98267 157.94675 l
209.945739 157.530206 l
213.908807 154.340991 l
217.871875 97.817203 l
221.834943 98.067185 l
225.798011 98.461247 l
229.76108 129.949236 l
233.724148 98.757743 l
237.687216 102.646271 l
241.650284 99.302418 l
245.613352 99.552283 l
249.57642 99.726191 l
253.539489 100.117972 l
257.502557 100.202167 l
261.465625 100.390312 l
265.428693 100.560271 l
269.391761 100.713833 l
273.35483 100.843924 l
277.317898 100.956529 l
281.280966 101.049487 l
285.244034 101.134185 l
289.207102 101.204245 l
293.17017 101.219214 l
297.133239 101.288606 l
301.096307 102.121203 l
305.059375 108.615065 l
309.022443 101.225211 l
312.985511 101.184383 l
316.94858 101.125662 l
320.911648 101.044272 l
328.837784 105.202492 l
332.800852 100.734996 l
336.76392 100.580092 l
340.726989 100.452525 l
344.690057 100.295523 l
348.653125 100.122918 l
352.616193 99.940172 l
356.579261 99.748819 l
360.54233 99.542434 l
364.505398 99.32712 l
368.468466 99.097247 l
372.431534 98.86882 l
376.394602 98.614536 l
380.35767 98.353724 l
384.320739 97.615719 l
388.283807 97.785464 l
392.246875 97.554699 l
396.209943 97.269194 l
400.173011 96.972471 l
404.13608 96.669201 l
408.099148 96.362466 l
412.062216 96.042611 l
416.025284 95.728419 l
419.988352 95.38093 l
423.95142 95.045946 l
427.914489 94.731997 l
431.877557 94.389104 l
435.840625 94.045877 l
439.803693 93.696931 l
443.766761 93.70741 l
447.72983 92.984274 l
451.692898 92.630997 l
455.655966 92.26862 l
459.619034 91.902279 l
463.582102 91.516864 l
467.54517 90.134379 l
471.508239 90.801555 l
475.471307 90.410197 l
487.360511 89.319799 l
491.32358 88.922705 l
511.13892 86.894707 l
515.101989 86.573785 l
519.065057 86.321128 l
523.028125 85.493289 l
526.991193 85.107683 l
530.954261 85.080333 l
534.91733 83.847885 l
542.843466 82.807275 l
550.769602 79.217828 l
554.73267 78.811376 l
562.658807 78.975555 l
566.621875 79.426127 l
570.584943 81.653362 l
578.51108 79.622218 l
586.437216 77.344399 l
590.400284 73.495917 l
610.215625 76.082549 l
626.067898 76.778728 l
633.994034 76.192858 l
673.624716 73.099777 l
stroke
grestore
1.000 setlinewidth
0 setlinejoin
0 setlinecap
gsave
837 380.5 60.93 45.31 clipbox
/o {
gsave
newpath
translate
1.0 setlinewidth
0 setlinejoin
0 setlinecap
-2 -2 m
2 -2 l
2 2 l
-2 2 l
cl

gsave
1.000 0.498 0.055 setrgbcolor
fill
grestore
stroke
grestore
} bind def
102.943 189.29 o
106.906 184.133 o
110.869 183.154 o
114.832 183.581 o
118.795 183.428 o
122.758 182.959 o
126.721 182.181 o
130.684 181.122 o
134.647 179.838 o
138.611 178.429 o
142.574 176.959 o
146.537 175.477 o
150.5 173.996 o
154.463 172.525 o
158.426 171.074 o
162.389 169.663 o
166.352 168.305 o
170.315 167.009 o
174.278 165.768 o
178.241 164.596 o
182.204 163.485 o
186.167 162.451 o
190.13 161.497 o
194.093 160.607 o
198.057 159.78 o
202.02 158.996 o
205.983 157.947 o
209.946 157.53 o
213.909 154.341 o
217.872 97.8172 o
221.835 98.0672 o
225.798 98.4612 o
229.761 129.949 o
233.724 98.7577 o
237.687 102.646 o
241.65 99.3024 o
245.613 99.5523 o
249.576 99.7262 o
253.539 100.118 o
257.503 100.202 o
261.466 100.39 o
265.429 100.56 o
269.392 100.714 o
273.355 100.844 o
277.318 100.957 o
281.281 101.049 o
285.244 101.134 o
289.207 101.204 o
293.17 101.219 o
297.133 101.289 o
301.096 102.121 o
305.059 108.615 o
309.022 101.225 o
312.986 101.184 o
316.949 101.126 o
320.912 101.044 o
328.838 105.202 o
332.801 100.735 o
336.764 100.58 o
340.727 100.453 o
344.69 100.296 o
348.653 100.123 o
352.616 99.9402 o
356.579 99.7488 o
360.542 99.5424 o
364.505 99.3271 o
368.468 99.0972 o
372.432 98.8688 o
376.395 98.6145 o
380.358 98.3537 o
384.321 97.6157 o
388.284 97.7855 o
392.247 97.5547 o
396.21 97.2692 o
400.173 96.9725 o
404.136 96.6692 o
408.099 96.3625 o
412.062 96.0426 o
416.025 95.7284 o
419.988 95.3809 o
423.951 95.0459 o
427.914 94.732 o
431.878 94.3891 o
435.841 94.0459 o
439.804 93.6969 o
443.767 93.7074 o
447.73 92.9843 o
451.693 92.631 o
455.656 92.2686 o
459.619 91.9023 o
463.582 91.5169 o
467.545 90.1344 o
471.508 90.8016 o
475.471 90.4102 o
487.361 89.3198 o
491.324 88.9227 o
511.139 86.8947 o
515.102 86.5738 o
519.065 86.3211 o
523.028 85.4933 o
526.991 85.1077 o
530.954 85.0803 o
534.917 83.8479 o
542.843 82.8073 o
550.77 79.2178 o
554.733 78.8114 o
562.659 78.9756 o
566.622 79.4261 o
570.585 81.6534 o
578.511 79.6222 o
586.437 77.3444 o
590.4 73.4959 o
610.216 76.0825 o
626.068 76.7787 o
633.994 76.1929 o
673.625 73.0998 o
grestore
1.500 setlinewidth
1 setlinejoin
2 setlinecap
0.173 0.627 0.173 setrgbcolor
gsave
837 380.5 60.93 45.31 clipbox
106.905966 192.193764 m
110.869034 190.239472 l
122.758239 191.873448 l
126.721307 192.278955 l
130.684375 192.345426 l
134.647443 192.117428 l
138.610511 191.658092 l
142.57358 190.993801 l
146.536648 190.147113 l
154.462784 188.08341 l
162.38892 185.747601 l
182.204261 179.499775 l
202.019602 173.329544 l
217.871875 168.592631 l
241.650284 161.929585 l
253.539489 158.805578 l
265.428693 155.87303 l
269.391761 82.184874 l
277.317898 82.330377 l
285.244034 82.713807 l
301.096307 83.791832 l
324.874716 85.396732 l
332.800852 85.826878 l
336.76392 85.496125 l
340.726989 86.210043 l
360.54233 86.89615 l
376.394602 87.178323 l
392.246875 87.242231 l
412.062216 87.045814 l
443.766761 86.216989 l
463.582102 85.470743 l
507.175852 83.462348 l
534.91733 82.087289 l
554.73267 80.655079 l
558.695739 80.850436 l
566.621875 80.534943 l
578.51108 79.996268 l
586.437216 79.216004 l
590.400284 78.206482 l
606.252557 78.732626 l
626.067898 77.847498 l
630.030966 77.555155 l
641.92017 76.972219 l
661.735511 72.770137 l
665.69858 75.198105 l
673.624716 68.709983 l
689.476989 68.275423 l
709.29233 73.277961 l
717.218466 66.038166 l
721.181534 72.232945 l
725.144602 70.969928 l
752.88608 66.632804 l
760.812216 67.313565 l
768.738352 72.124004 l
772.70142 72.614752 l
784.590625 70.803376 l
816.29517 69.326257 l
816.29517 69.326257 l
stroke
grestore
1.000 setlinewidth
0 setlinejoin
0 setlinecap
gsave
837 380.5 60.93 45.31 clipbox
/o {
gsave
newpath
translate
1.0 setlinewidth
0 setlinejoin
0 setlinecap
-0 -2.828427 m
2.828427 0 l
0 2.828427 l
-2.828427 0 l
cl

gsave
0.173 0.627 0.173 setrgbcolor
fill
grestore
stroke
grestore
} bind def
106.906 192.194 o
110.869 190.239 o
114.832 190.801 o
118.795 191.254 o
122.758 191.873 o
126.721 192.279 o
130.684 192.345 o
134.647 192.117 o
138.611 191.658 o
142.574 190.994 o
146.537 190.147 o
150.5 189.161 o
154.463 188.083 o
158.426 186.942 o
162.389 185.748 o
166.352 184.519 o
170.315 183.272 o
174.278 182.018 o
178.241 180.759 o
182.204 179.5 o
186.167 178.244 o
190.13 177 o
194.093 175.766 o
198.057 174.541 o
202.02 173.33 o
205.983 172.128 o
209.946 170.944 o
213.909 169.772 o
217.872 168.593 o
221.835 167.464 o
225.798 166.331 o
229.761 165.21 o
233.724 164.104 o
237.687 163.009 o
241.65 161.93 o
245.613 160.867 o
249.576 159.827 o
253.539 158.806 o
257.503 157.812 o
261.466 156.803 o
265.429 155.873 o
269.392 82.1849 o
273.355 82.2177 o
277.318 82.3304 o
281.281 82.4956 o
285.244 82.7138 o
289.207 82.9616 o
293.17 83.2257 o
297.133 83.5083 o
301.096 83.7918 o
305.059 84.0709 o
309.022 84.3624 o
312.986 84.6217 o
316.949 84.8517 o
320.912 85.1401 o
324.875 85.3967 o
328.838 85.6047 o
332.801 85.8269 o
336.764 85.4961 o
340.727 86.21 o
344.69 86.3691 o
348.653 86.5275 o
352.616 86.6633 o
356.579 86.7896 o
360.542 86.8962 o
364.505 86.9893 o
368.468 87.0656 o
372.432 87.1274 o
376.395 87.1783 o
380.358 87.2093 o
384.321 87.238 o
388.284 87.2389 o
392.247 87.2422 o
396.21 87.2189 o
400.173 87.1992 o
404.136 87.1573 o
408.099 87.0612 o
412.062 87.0458 o
416.025 86.9527 o
419.988 86.8944 o
423.951 86.7892 o
427.914 86.7016 o
431.878 86.5933 o
435.841 86.4762 o
439.804 86.3497 o
443.767 86.217 o
447.73 86.0828 o
451.693 85.8979 o
455.656 85.7902 o
459.619 85.6325 o
463.582 85.4707 o
467.545 85.2954 o
471.508 85.1376 o
475.471 84.9585 o
483.397 84.5597 o
491.324 84.2111 o
495.287 84.0408 o
507.176 83.4623 o
515.102 83.0748 o
523.028 82.6798 o
526.991 82.5876 o
534.917 82.0873 o
554.733 80.6551 o
558.696 80.8504 o
562.659 80.7165 o
566.622 80.5349 o
574.548 80.1112 o
578.511 79.9963 o
586.437 79.216 o
590.4 78.2065 o
606.253 78.7326 o
618.142 78.2114 o
626.068 77.8475 o
630.031 77.5552 o
641.92 76.9722 o
661.736 72.7701 o
665.699 75.1981 o
673.625 68.71 o
689.477 68.2754 o
709.292 73.278 o
717.218 66.0382 o
721.182 72.2329 o
725.145 70.9699 o
752.886 66.6328 o
760.812 67.3136 o
768.738 72.124 o
772.701 72.6148 o
784.591 70.8034 o
816.295 69.3263 o
grestore
1.500 setlinewidth
1 setlinejoin
2 setlinecap
0.839 0.153 0.157 setrgbcolor
gsave
837 380.5 60.93 45.31 clipbox
110.869034 196.586661 m
114.832102 195.277454 l
118.79517 192.741147 l
122.758239 193.296347 l
126.721307 194.215022 l
130.684375 194.955104 l
134.647443 195.513468 l
138.610511 195.941926 l
142.57358 196.249048 l
146.536648 196.415994 l
150.499716 196.433085 l
154.462784 196.320976 l
158.425852 196.107718 l
162.38892 195.808384 l
166.351989 195.425912 l
170.315057 194.966614 l
174.278125 194.442341 l
178.241193 193.861647 l
182.204261 193.244927 l
186.16733 192.583543 l
190.130398 191.879317 l
194.093466 191.147418 l
198.056534 190.392737 l
202.019602 189.607089 l
205.98267 188.813115 l
209.945739 187.998246 l
213.908807 187.177026 l
217.871875 186.341737 l
221.834943 185.502795 l
225.798011 184.658463 l
229.76108 183.828748 l
233.724148 182.99946 l
237.687216 182.181024 l
241.650284 181.373113 l
245.613352 180.593521 l
249.57642 179.830082 l
253.539489 179.091531 l
257.502557 178.374967 l
261.465625 177.68522 l
265.428693 177.019836 l
269.391761 176.375376 l
273.35483 175.749483 l
277.317898 175.14659 l
281.280966 174.553797 l
285.244034 173.980687 l
289.207102 173.41887 l
293.17017 172.866152 l
297.133239 172.322081 l
301.096307 171.784083 l
305.059375 171.254881 l
309.022443 170.72824 l
312.985511 170.205478 l
316.94858 169.680324 l
320.911648 169.160564 l
324.874716 168.639885 l
328.837784 168.119182 l
332.800852 167.596904 l
336.76392 167.071842 l
340.726989 166.546803 l
344.690057 165.969033 l
348.653125 165.477574 l
352.616193 164.943103 l
356.579261 164.410142 l
360.54233 163.861814 l
364.505398 163.310287 l
368.468466 162.758515 l
372.431534 161.73428 l
376.394602 161.633831 l
380.35767 161.056491 l
384.320739 160.488458 l
388.283807 159.902874 l
392.246875 159.318635 l
396.209943 158.719889 l
400.173011 158.117427 l
404.13608 157.511615 l
408.099148 156.896367 l
412.062216 156.282331 l
416.025284 155.631239 l
419.988352 151.324892 l
423.95142 154.375571 l
427.914489 153.726113 l
431.877557 148.886757 l
435.840625 152.340186 l
439.803693 105.888957 l
443.766761 128.693997 l
447.72983 106.052784 l
451.692898 106.447451 l
455.655966 104.69029 l
459.619034 104.509298 l
463.582102 104.304028 l
471.508239 103.832504 l
475.471307 103.558031 l
479.434375 103.299239 l
491.32358 102.404402 l
495.286648 102.066582 l
503.212784 101.271754 l
523.028125 99.490814 l
526.991193 99.036656 l
530.954261 98.665126 l
542.843466 97.376696 l
558.695739 95.581842 l
566.621875 94.663293 l
574.548011 93.83829 l
578.51108 93.186649 l
586.437216 92.111042 l
590.400284 91.868387 l
594.363352 91.404828 l
602.289489 90.455282 l
610.215625 89.540937 l
626.067898 87.552232 l
630.030966 87.24926 l
637.957102 86.385379 l
641.92017 85.703517 l
649.846307 84.040129 l
673.624716 82.618574 l
677.587784 81.588756 l
697.403125 80.348174 l
800.442898 70.02373 l
812.332102 63.895556 l
847.999716 66.810116 l
859.88892 63.880007 l
stroke
grestore
1.000 setlinewidth
0 setlinecap
gsave
837 380.5 60.93 45.31 clipbox
/o {
gsave
newpath
translate
1.0 setlinewidth
1 setlinejoin
0 setlinecap
0 -2 m
0.530406 -2 1.03916 -1.789267 1.414214 -1.414214 c
1.789267 -1.03916 2 -0.530406 2 0 c
2 0.530406 1.789267 1.03916 1.414214 1.414214 c
1.03916 1.789267 0.530406 2 0 2 c
-0.530406 2 -1.03916 1.789267 -1.414214 1.414214 c
-1.789267 1.03916 -2 0.530406 -2 0 c
-2 -0.530406 -1.789267 -1.03916 -1.414214 -1.414214 c
-1.03916 -1.789267 -0.530406 -2 0 -2 c
cl

gsave
0.839 0.153 0.157 setrgbcolor
fill
grestore
stroke
grestore
} bind def
110.869 196.587 o
114.832 195.277 o
118.795 192.741 o
122.758 193.296 o
126.721 194.215 o
130.684 194.955 o
134.647 195.513 o
138.611 195.942 o
142.574 196.249 o
146.537 196.416 o
150.5 196.433 o
154.463 196.321 o
158.426 196.108 o
162.389 195.808 o
166.352 195.426 o
170.315 194.967 o
174.278 194.442 o
178.241 193.862 o
182.204 193.245 o
186.167 192.584 o
190.13 191.879 o
194.093 191.147 o
198.057 190.393 o
202.02 189.607 o
205.983 188.813 o
209.946 187.998 o
213.909 187.177 o
217.872 186.342 o
221.835 185.503 o
225.798 184.658 o
229.761 183.829 o
233.724 182.999 o
237.687 182.181 o
241.65 181.373 o
245.613 180.594 o
249.576 179.83 o
253.539 179.092 o
257.503 178.375 o
261.466 177.685 o
265.429 177.02 o
269.392 176.375 o
273.355 175.749 o
277.318 175.147 o
281.281 174.554 o
285.244 173.981 o
289.207 173.419 o
293.17 172.866 o
297.133 172.322 o
301.096 171.784 o
305.059 171.255 o
309.022 170.728 o
312.986 170.205 o
316.949 169.68 o
320.912 169.161 o
324.875 168.64 o
328.838 168.119 o
332.801 167.597 o
336.764 167.072 o
340.727 166.547 o
344.69 165.969 o
348.653 165.478 o
352.616 164.943 o
356.579 164.41 o
360.542 163.862 o
364.505 163.31 o
368.468 162.759 o
372.432 161.734 o
376.395 161.634 o
380.358 161.056 o
384.321 160.488 o
388.284 159.903 o
392.247 159.319 o
396.21 158.72 o
400.173 158.117 o
404.136 157.512 o
408.099 156.896 o
412.062 156.282 o
416.025 155.631 o
419.988 151.325 o
423.951 154.376 o
427.914 153.726 o
431.878 148.887 o
435.841 152.34 o
439.804 105.889 o
443.767 128.694 o
447.73 106.053 o
451.693 106.447 o
455.656 104.69 o
459.619 104.509 o
463.582 104.304 o
471.508 103.833 o
475.471 103.558 o
479.434 103.299 o
491.324 102.404 o
495.287 102.067 o
503.213 101.272 o
523.028 99.4908 o
526.991 99.0367 o
530.954 98.6651 o
542.843 97.3767 o
558.696 95.5818 o
566.622 94.6633 o
574.548 93.8383 o
578.511 93.1866 o
586.437 92.111 o
590.4 91.8684 o
594.363 91.4048 o
602.289 90.4553 o
610.216 89.5409 o
626.068 87.5522 o
630.031 87.2493 o
637.957 86.3854 o
641.92 85.7035 o
649.846 84.0401 o
673.625 82.6186 o
677.588 81.5888 o
697.403 80.3482 o
800.443 70.0237 o
812.332 63.8956 o
848 66.8101 o
859.889 63.88 o
grestore
1.500 setlinewidth
2 setlinecap
0.580 0.404 0.741 setrgbcolor
gsave
837 380.5 60.93 45.31 clipbox
106.905966 236.470207 m
110.869034 370.953819 l
114.832102 368.305828 l
118.79517 366.762975 l
122.758239 364.975834 l
126.721307 347.955478 l
130.684375 361.574196 l
138.610511 361.015551 l
142.57358 268.158421 l
146.536648 362.835492 l
150.499716 363.438228 l
154.462784 358.42061 l
158.425852 364.088445 l
162.38892 364.007476 l
166.351989 362.959121 l
170.315057 362.945299 l
174.278125 361.873879 l
178.241193 360.568072 l
182.204261 358.967166 l
186.16733 357.085485 l
190.130398 354.94586 l
194.093466 352.453267 l
198.056534 349.920152 l
202.019602 346.072033 l
205.98267 344.015972 l
213.908807 324.875932 l
229.76108 324.056409 l
233.724148 319.208488 l
237.687216 313.905346 l
245.613352 311.11184 l
stroke
grestore
1.000 setlinewidth
0 setlinejoin
0 setlinecap
gsave
837 380.5 60.93 45.31 clipbox
/o {
gsave
newpath
translate
1.0 setlinewidth
0 setlinejoin
0 setlinecap
-0 -2 m
2 2 l
-2 2 l
cl

gsave
0.580 0.404 0.741 setrgbcolor
fill
grestore
stroke
grestore
} bind def
106.906 236.47 o
110.869 370.954 o
114.832 368.306 o
118.795 366.763 o
122.758 364.976 o
126.721 347.955 o
130.684 361.574 o
138.611 361.016 o
142.574 268.158 o
146.537 362.835 o
150.5 363.438 o
154.463 358.421 o
158.426 364.088 o
162.389 364.007 o
166.352 362.959 o
170.315 362.945 o
174.278 361.874 o
178.241 360.568 o
182.204 358.967 o
186.167 357.085 o
190.13 354.946 o
194.093 352.453 o
198.057 349.92 o
202.02 346.072 o
205.983 344.016 o
213.909 324.876 o
229.761 324.056 o
233.724 319.208 o
237.687 313.905 o
245.613 311.112 o
grestore
1.500 setlinewidth
1 setlinejoin
2 setlinecap
0.549 0.337 0.294 setrgbcolor
gsave
837 380.5 60.93 45.31 clipbox
110.869034 386.333038 m
114.832102 386.725516 l
118.79517 386.520166 l
122.758239 385.994856 l
126.721307 385.430362 l
130.684375 254.540754 l
134.647443 384.312767 l
138.610511 384.031562 l
142.57358 383.945486 l
146.536648 383.999023 l
150.499716 384.147247 l
154.462784 384.297592 l
158.425852 384.401522 l
162.38892 384.40883 l
166.351989 384.300444 l
170.315057 384.045026 l
174.278125 383.621509 l
178.241193 383.021613 l
182.204261 382.221223 l
186.16733 381.213093 l
190.130398 380.13257 l
194.093466 378.536004 l
198.056534 376.828471 l
202.019602 374.916897 l
205.98267 372.621567 l
209.945739 370.11673 l
213.908807 367.32493 l
217.871875 364.260304 l
221.834943 360.926002 l
225.798011 357.380713 l
229.76108 353.622558 l
233.724148 349.747125 l
237.687216 345.771635 l
241.650284 341.779439 l
245.613352 337.812186 l
249.57642 333.875197 l
253.539489 330.004555 l
257.502557 326.344774 l
261.465625 322.745054 l
265.428693 319.280228 l
269.391761 315.906816 l
273.35483 312.657892 l
277.317898 309.550799 l
281.280966 306.359043 l
289.207102 300.414688 l
293.17017 297.121508 l
297.133239 294.572908 l
316.94858 281.322412 l
320.911648 278.239852 l
328.837784 273.580827 l
340.726989 218.294478 l
348.653125 215.234594 l
360.54233 213.486903 l
364.505398 231.16073 l
372.431534 211.213645 l
stroke
grestore
1.000 setlinewidth
0 setlinejoin
0 setlinecap
gsave
837 380.5 60.93 45.31 clipbox
/o {
gsave
newpath
translate
1.0 setlinewidth
0 setlinejoin
0 setlinecap
-2 -2 m
2 -2 l
2 2 l
-2 2 l
cl

gsave
0.549 0.337 0.294 setrgbcolor
fill
grestore
stroke
grestore
} bind def
110.869 386.333 o
114.832 386.726 o
118.795 386.52 o
122.758 385.995 o
126.721 385.43 o
130.684 254.541 o
134.647 384.313 o
138.611 384.032 o
142.574 383.945 o
146.537 383.999 o
150.5 384.147 o
154.463 384.298 o
158.426 384.402 o
162.389 384.409 o
166.352 384.3 o
170.315 384.045 o
174.278 383.622 o
178.241 383.022 o
182.204 382.221 o
186.167 381.213 o
190.13 380.133 o
194.093 378.536 o
198.057 376.828 o
202.02 374.917 o
205.983 372.622 o
209.946 370.117 o
213.909 367.325 o
217.872 364.26 o
221.835 360.926 o
225.798 357.381 o
229.761 353.623 o
233.724 349.747 o
237.687 345.772 o
241.65 341.779 o
245.613 337.812 o
249.576 333.875 o
253.539 330.005 o
257.503 326.345 o
261.466 322.745 o
265.429 319.28 o
269.392 315.907 o
273.355 312.658 o
277.318 309.551 o
281.281 306.359 o
289.207 300.415 o
293.17 297.122 o
297.133 294.573 o
316.949 281.322 o
320.912 278.24 o
328.838 273.581 o
340.727 218.294 o
348.653 215.235 o
360.542 213.487 o
364.505 231.161 o
372.432 211.214 o
grestore
1.500 setlinewidth
1 setlinejoin
2 setlinecap
0.890 0.467 0.761 setrgbcolor
gsave
837 380.5 60.93 45.31 clipbox
118.79517 401.624138 m
130.684375 398.839967 l
134.647443 262.935868 l
138.610511 399.292082 l
142.57358 399.28421 l
146.536648 399.121887 l
150.499716 398.836406 l
154.462784 398.468974 l
158.425852 398.052149 l
162.38892 397.595554 l
166.351989 397.111243 l
170.315057 396.628616 l
174.278125 396.146497 l
178.241193 395.665329 l
182.204261 395.176145 l
186.16733 394.66999 l
190.130398 394.11137 l
194.093466 393.465084 l
198.056534 392.717715 l
202.019602 391.81415 l
205.98267 390.728697 l
209.945739 389.035871 l
213.908807 387.91394 l
217.871875 386.15102 l
221.834943 384.134516 l
225.798011 381.86973 l
229.76108 379.418703 l
233.724148 376.740826 l
237.687216 373.945425 l
241.650284 371.082261 l
245.613352 368.189843 l
249.57642 365.336065 l
253.539489 362.538614 l
257.502557 359.850822 l
261.465625 357.231944 l
265.428693 354.792855 l
269.391761 352.412451 l
273.35483 350.103474 l
277.317898 347.969729 l
281.280966 345.834387 l
285.244034 343.794369 l
289.207102 341.800929 l
293.17017 339.813024 l
297.133239 337.896753 l
301.096307 335.974893 l
305.059375 334.06448 l
309.022443 332.164548 l
312.985511 330.246896 l
316.94858 328.334125 l
320.911648 326.402662 l
324.874716 324.290862 l
328.837784 322.525566 l
332.800852 320.557859 l
336.76392 318.029125 l
340.726989 316.560671 l
344.690057 314.532858 l
348.653125 312.06597 l
352.616193 310.41453 l
360.54233 306.074626 l
364.505398 301.665675 l
368.468466 301.934752 l
372.431534 294.712169 l
376.394602 292.940015 l
380.35767 295.240173 l
384.320739 293.201646 l
388.283807 290.934827 l
392.246875 288.718138 l
404.13608 277.039012 l
408.099148 278.282908 l
412.062216 277.230429 l
416.025284 273.708014 l
419.988352 266.728588 l
423.95142 270.723417 l
427.914489 268.526854 l
431.877557 264.784819 l
435.840625 259.114624 l
447.72983 207.559135 l
467.54517 194.543176 l
stroke
grestore
1.000 setlinewidth
0 setlinejoin
0 setlinecap
gsave
837 380.5 60.93 45.31 clipbox
/o {
gsave
newpath
translate
1.0 setlinewidth
0 setlinejoin
0 setlinecap
-0 -2.828427 m
2.828427 0 l
0 2.828427 l
-2.828427 0 l
cl

gsave
0.890 0.467 0.761 setrgbcolor
fill
grestore
stroke
grestore
} bind def
118.795 401.624 o
130.684 398.84 o
134.647 262.936 o
138.611 399.292 o
142.574 399.284 o
146.537 399.122 o
150.5 398.836 o
154.463 398.469 o
158.426 398.052 o
162.389 397.596 o
166.352 397.111 o
170.315 396.629 o
174.278 396.146 o
178.241 395.665 o
182.204 395.176 o
186.167 394.67 o
190.13 394.111 o
194.093 393.465 o
198.057 392.718 o
202.02 391.814 o
205.983 390.729 o
209.946 389.036 o
213.909 387.914 o
217.872 386.151 o
221.835 384.135 o
225.798 381.87 o
229.761 379.419 o
233.724 376.741 o
237.687 373.945 o
241.65 371.082 o
245.613 368.19 o
249.576 365.336 o
253.539 362.539 o
257.503 359.851 o
261.466 357.232 o
265.429 354.793 o
269.392 352.412 o
273.355 350.103 o
277.318 347.97 o
281.281 345.834 o
285.244 343.794 o
289.207 341.801 o
293.17 339.813 o
297.133 337.897 o
301.096 335.975 o
305.059 334.064 o
309.022 332.165 o
312.986 330.247 o
316.949 328.334 o
320.912 326.403 o
324.875 324.291 o
328.838 322.526 o
332.801 320.558 o
336.764 318.029 o
340.727 316.561 o
344.69 314.533 o
348.653 312.066 o
352.616 310.415 o
360.542 306.075 o
364.505 301.666 o
368.468 301.935 o
372.432 294.712 o
376.395 292.94 o
380.358 295.24 o
384.321 293.202 o
388.284 290.935 o
392.247 288.718 o
404.136 277.039 o
408.099 278.283 o
412.062 277.23 o
416.025 273.708 o
419.988 266.729 o
423.951 270.723 o
427.914 268.527 o
431.878 264.785 o
435.841 259.115 o
447.73 207.559 o
467.545 194.543 o
grestore
1.500 setlinewidth
1 setlinejoin
2 setlinecap
0.498 setgray
gsave
837 380.5 60.93 45.31 clipbox
118.79517 407.093952 m
122.758239 406.397924 l
130.684375 407.685865 l
134.647443 407.953572 l
138.610511 408.15865 l
142.57358 408.331212 l
146.536648 408.45024 l
150.499716 408.512213 l
154.462784 408.533011 l
158.425852 408.517151 l
162.38892 408.463337 l
166.351989 408.376023 l
170.315057 408.261559 l
174.278125 408.124851 l
178.241193 407.917731 l
182.204261 407.787681 l
186.16733 407.598772 l
190.130398 407.398646 l
194.093466 407.1804 l
198.056534 406.940855 l
202.019602 406.671638 l
205.98267 406.362432 l
209.945739 405.996026 l
213.908807 405.551351 l
217.871875 405.007091 l
221.834943 404.341215 l
225.798011 403.527907 l
229.76108 402.536727 l
233.724148 401.353083 l
237.687216 399.955899 l
241.650284 398.338554 l
245.613352 396.494228 l
249.57642 394.431003 l
253.539489 392.15961 l
257.502557 389.695898 l
261.465625 387.058935 l
265.428693 384.263413 l
269.391761 381.343647 l
273.35483 378.297471 l
277.317898 375.16323 l
281.280966 371.909966 l
285.244034 368.6462 l
289.207102 365.290439 l
293.17017 361.892866 l
297.133239 358.495308 l
301.096307 355.173109 l
305.059375 351.918214 l
309.022443 344.725065 l
312.985511 342.591997 l
316.94858 340.812755 l
320.911648 339.228838 l
324.874716 337.337009 l
328.837784 336.789081 l
332.800852 336.076316 l
336.76392 335.461236 l
340.726989 334.762766 l
344.690057 334.371812 l
348.653125 333.757285 l
352.616193 332.954345 l
360.54233 331.872406 l
364.505398 331.235237 l
368.468466 327.964103 l
372.431534 329.6968 l
376.394602 329.007804 l
380.35767 328.24336 l
384.320739 327.246354 l
388.283807 326.459765 l
392.246875 325.505189 l
404.13608 322.681798 l
408.099148 321.271238 l
412.062216 320.586055 l
416.025284 318.59204 l
419.988352 310.444504 l
423.95142 317.068897 l
427.914489 315.497912 l
431.877557 314.618286 l
435.840625 313.263142 l
439.803693 311.12019 l
443.766761 304.559513 l
447.72983 308.859854 l
451.692898 301.893798 l
455.655966 306.693873 l
459.619034 305.246594 l
463.582102 300.888774 l
467.54517 302.248277 l
475.471307 298.093319 l
487.360511 294.317546 l
491.32358 286.064856 l
495.286648 291.109394 l
499.249716 282.34247 l
503.212784 287.270954 l
511.13892 283.789177 l
519.065057 276.088512 l
526.991193 276.902538 l
534.91733 275.040739 l
733.070739 180.955377 l
stroke
grestore
1.000 setlinewidth
0 setlinecap
gsave
837 380.5 60.93 45.31 clipbox
/o {
gsave
newpath
translate
1.0 setlinewidth
1 setlinejoin
0 setlinecap
0 -2 m
0.530406 -2 1.03916 -1.789267 1.414214 -1.414214 c
1.789267 -1.03916 2 -0.530406 2 0 c
2 0.530406 1.789267 1.03916 1.414214 1.414214 c
1.03916 1.789267 0.530406 2 0 2 c
-0.530406 2 -1.03916 1.789267 -1.414214 1.414214 c
-1.789267 1.03916 -2 0.530406 -2 0 c
-2 -0.530406 -1.789267 -1.03916 -1.414214 -1.414214 c
-1.03916 -1.789267 -0.530406 -2 0 -2 c
cl

gsave
0.498 setgray
fill
grestore
stroke
grestore
} bind def
118.795 407.094 o
122.758 406.398 o
130.684 407.686 o
134.647 407.954 o
138.611 408.159 o
142.574 408.331 o
146.537 408.45 o
150.5 408.512 o
154.463 408.533 o
158.426 408.517 o
162.389 408.463 o
166.352 408.376 o
170.315 408.262 o
174.278 408.125 o
178.241 407.918 o
182.204 407.788 o
186.167 407.599 o
190.13 407.399 o
194.093 407.18 o
198.057 406.941 o
202.02 406.672 o
205.983 406.362 o
209.946 405.996 o
213.909 405.551 o
217.872 405.007 o
221.835 404.341 o
225.798 403.528 o
229.761 402.537 o
233.724 401.353 o
237.687 399.956 o
241.65 398.339 o
245.613 396.494 o
249.576 394.431 o
253.539 392.16 o
257.503 389.696 o
261.466 387.059 o
265.429 384.263 o
269.392 381.344 o
273.355 378.297 o
277.318 375.163 o
281.281 371.91 o
285.244 368.646 o
289.207 365.29 o
293.17 361.893 o
297.133 358.495 o
301.096 355.173 o
305.059 351.918 o
309.022 344.725 o
312.986 342.592 o
316.949 340.813 o
320.912 339.229 o
324.875 337.337 o
328.838 336.789 o
332.801 336.076 o
336.764 335.461 o
340.727 334.763 o
344.69 334.372 o
348.653 333.757 o
352.616 332.954 o
360.542 331.872 o
364.505 331.235 o
368.468 327.964 o
372.432 329.697 o
376.395 329.008 o
380.358 328.243 o
384.321 327.246 o
388.284 326.46 o
392.247 325.505 o
404.136 322.682 o
408.099 321.271 o
412.062 320.586 o
416.025 318.592 o
419.988 310.445 o
423.951 317.069 o
427.914 315.498 o
431.878 314.618 o
435.841 313.263 o
439.804 311.12 o
443.767 304.56 o
447.73 308.86 o
451.693 301.894 o
455.656 306.694 o
459.619 305.247 o
463.582 300.889 o
467.545 302.248 o
475.471 298.093 o
487.361 294.318 o
491.324 286.065 o
495.287 291.109 o
499.25 282.342 o
503.213 287.271 o
511.139 283.789 o
519.065 276.089 o
526.991 276.903 o
534.917 275.041 o
733.071 180.955 o
grestore
0.800 setlinewidth
0 setlinejoin
2 setlinecap
[] 0 setdash
0.000 setgray
gsave
60.934375 45.309375 m
60.934375 425.829375 l
stroke
grestore
gsave
897.934375 45.309375 m
897.934375 425.829375 l
stroke
grestore
gsave
60.934375 45.309375 m
897.934375 45.309375 l
stroke
grestore
gsave
60.934375 425.829375 m
897.934375 425.829375 l
stroke
grestore
1.000 setlinewidth
0 setlinecap
0.800 setgray
gsave
643.81875 250.254375 m
888.134375 250.254375 l
890.001042 250.254375 890.934375 251.187708 890.934375 253.054375 c
890.934375 416.029375 l
890.934375 417.896042 890.001042 418.829375 888.134375 418.829375 c
643.81875 418.829375 l
641.952083 418.829375 641.01875 417.896042 641.01875 416.029375 c
641.01875 253.054375 l
641.01875 251.187708 641.952083 250.254375 643.81875 250.254375 c
cl
gsave
1.000 setgray
fill
grestore
stroke
grestore
1.500 setlinewidth
1 setlinejoin
2 setlinecap
[] 0 setdash
0.122 0.467 0.706 setrgbcolor
gsave
646.61875 407.48875 m
674.61875 407.48875 l
stroke
grestore
1.000 setlinewidth
0 setlinejoin
0 setlinecap
gsave
/o {
gsave
newpath
translate
1.0 setlinewidth
0 setlinejoin
0 setlinecap
-0 -2 m
2 2 l
-2 2 l
cl

gsave
0.122 0.467 0.706 setrgbcolor
fill
grestore
stroke
grestore
} bind def
660.619 407.489 o
grestore
0.000 setgray
/DejaVuSans findfont
14.000 scalefont
setfont
gsave
685.818750 402.588750 translate
0.000000 rotate
0.000000 0 m /three glyphshow
8.907227 0 m /hyphen glyphshow
13.958984 0 m /q glyphshow
22.845703 0 m /space glyphshow
27.295898 0 m /s glyphshow
34.589844 0 m /e glyphshow
43.203125 0 m /n glyphshow
52.076172 0 m /d glyphshow
60.962891 0 m /e glyphshow
69.576172 0 m /r glyphshow
75.332031 0 m /comma glyphshow
79.782227 0 m /space glyphshow
84.232422 0 m /four glyphshow
93.139648 0 m /hyphen glyphshow
98.191406 0 m /q glyphshow
107.078125 0 m /space glyphshow
111.528320 0 m /e glyphshow
119.891602 0 m /x glyphshow
128.176758 0 m /t glyphshow
133.666016 0 m /period glyphshow
138.116211 0 m /space glyphshow
142.566406 0 m /r glyphshow
148.072266 0 m /e glyphshow
156.685547 0 m /c glyphshow
164.382812 0 m /e glyphshow
172.996094 0 m /i glyphshow
176.885742 0 m /v glyphshow
185.170898 0 m /e glyphshow
193.784180 0 m /r glyphshow
grestore
1.500 setlinewidth
1 setlinejoin
2 setlinecap
1.000 0.498 0.055 setrgbcolor
gsave
646.61875 386.941875 m
674.61875 386.941875 l
stroke
grestore
1.000 setlinewidth
0 setlinejoin
0 setlinecap
gsave
/o {
gsave
newpath
translate
1.0 setlinewidth
0 setlinejoin
0 setlinecap
-2 -2 m
2 -2 l
2 2 l
-2 2 l
cl

gsave
1.000 0.498 0.055 setrgbcolor
fill
grestore
stroke
grestore
} bind def
660.619 386.942 o
grestore
0.000 setgray
gsave
685.818750 382.041875 translate
0.000000 rotate
0.000000 0 m /three glyphshow
8.907227 0 m /hyphen glyphshow
13.958984 0 m /q glyphshow
22.845703 0 m /space glyphshow
27.295898 0 m /s glyphshow
34.589844 0 m /e glyphshow
43.203125 0 m /n glyphshow
52.076172 0 m /d glyphshow
60.962891 0 m /e glyphshow
69.576172 0 m /r glyphshow
75.332031 0 m /comma glyphshow
79.782227 0 m /space glyphshow
84.232422 0 m /five glyphshow
93.139648 0 m /hyphen glyphshow
98.191406 0 m /q glyphshow
107.078125 0 m /space glyphshow
111.528320 0 m /e glyphshow
119.891602 0 m /x glyphshow
128.176758 0 m /t glyphshow
133.666016 0 m /period glyphshow
138.116211 0 m /space glyphshow
142.566406 0 m /r glyphshow
148.072266 0 m /e glyphshow
156.685547 0 m /c glyphshow
164.382812 0 m /e glyphshow
172.996094 0 m /i glyphshow
176.885742 0 m /v glyphshow
185.170898 0 m /e glyphshow
193.784180 0 m /r glyphshow
grestore
1.500 setlinewidth
1 setlinejoin
2 setlinecap
0.173 0.627 0.173 setrgbcolor
gsave
646.61875 366.395 m
674.61875 366.395 l
stroke
grestore
1.000 setlinewidth
0 setlinejoin
0 setlinecap
gsave
/o {
gsave
newpath
translate
1.0 setlinewidth
0 setlinejoin
0 setlinecap
-0 -2.828427 m
2.828427 0 l
0 2.828427 l
-2.828427 0 l
cl

gsave
0.173 0.627 0.173 setrgbcolor
fill
grestore
stroke
grestore
} bind def
660.619 366.395 o
grestore
0.000 setgray
gsave
685.818750 361.495000 translate
0.000000 rotate
0.000000 0 m /three glyphshow
8.907227 0 m /hyphen glyphshow
13.958984 0 m /q glyphshow
22.845703 0 m /space glyphshow
27.295898 0 m /s glyphshow
34.589844 0 m /e glyphshow
43.203125 0 m /n glyphshow
52.076172 0 m /d glyphshow
60.962891 0 m /e glyphshow
69.576172 0 m /r glyphshow
75.332031 0 m /comma glyphshow
79.782227 0 m /space glyphshow
84.232422 0 m /six glyphshow
93.139648 0 m /hyphen glyphshow
98.191406 0 m /q glyphshow
107.078125 0 m /space glyphshow
111.528320 0 m /e glyphshow
119.891602 0 m /x glyphshow
128.176758 0 m /t glyphshow
133.666016 0 m /period glyphshow
138.116211 0 m /space glyphshow
142.566406 0 m /r glyphshow
148.072266 0 m /e glyphshow
156.685547 0 m /c glyphshow
164.382812 0 m /e glyphshow
172.996094 0 m /i glyphshow
176.885742 0 m /v glyphshow
185.170898 0 m /e glyphshow
193.784180 0 m /r glyphshow
grestore
1.500 setlinewidth
1 setlinejoin
2 setlinecap
0.839 0.153 0.157 setrgbcolor
gsave
646.61875 345.848125 m
674.61875 345.848125 l
stroke
grestore
1.000 setlinewidth
0 setlinecap
gsave
/o {
gsave
newpath
translate
1.0 setlinewidth
1 setlinejoin
0 setlinecap
0 -2 m
0.530406 -2 1.03916 -1.789267 1.414214 -1.414214 c
1.789267 -1.03916 2 -0.530406 2 0 c
2 0.530406 1.789267 1.03916 1.414214 1.414214 c
1.03916 1.789267 0.530406 2 0 2 c
-0.530406 2 -1.03916 1.789267 -1.414214 1.414214 c
-1.789267 1.03916 -2 0.530406 -2 0 c
-2 -0.530406 -1.789267 -1.03916 -1.414214 -1.414214 c
-1.03916 -1.789267 -0.530406 -2 0 -2 c
cl

gsave
0.839 0.153 0.157 setrgbcolor
fill
grestore
stroke
grestore
} bind def
660.619 345.848 o
grestore
0.000 setgray
gsave
685.818750 340.948125 translate
0.000000 rotate
0.000000 0 m /three glyphshow
8.907227 0 m /hyphen glyphshow
13.958984 0 m /q glyphshow
22.845703 0 m /space glyphshow
27.295898 0 m /s glyphshow
34.589844 0 m /e glyphshow
43.203125 0 m /n glyphshow
52.076172 0 m /d glyphshow
60.962891 0 m /e glyphshow
69.576172 0 m /r glyphshow
75.332031 0 m /comma glyphshow
79.782227 0 m /space glyphshow
84.232422 0 m /seven glyphshow
93.139648 0 m /hyphen glyphshow
98.191406 0 m /q glyphshow
107.078125 0 m /space glyphshow
111.528320 0 m /e glyphshow
119.891602 0 m /x glyphshow
128.176758 0 m /t glyphshow
133.666016 0 m /period glyphshow
138.116211 0 m /space glyphshow
142.566406 0 m /r glyphshow
148.072266 0 m /e glyphshow
156.685547 0 m /c glyphshow
164.382812 0 m /e glyphshow
172.996094 0 m /i glyphshow
176.885742 0 m /v glyphshow
185.170898 0 m /e glyphshow
193.784180 0 m /r glyphshow
grestore
1.500 setlinewidth
2 setlinecap
0.580 0.404 0.741 setrgbcolor
gsave
646.61875 325.30125 m
674.61875 325.30125 l
stroke
grestore
1.000 setlinewidth
0 setlinejoin
0 setlinecap
gsave
/o {
gsave
newpath
translate
1.0 setlinewidth
0 setlinejoin
0 setlinecap
-0 -2 m
2 2 l
-2 2 l
cl

gsave
0.580 0.404 0.741 setrgbcolor
fill
grestore
stroke
grestore
} bind def
660.619 325.301 o
grestore
0.000 setgray
gsave
685.818750 320.401250 translate
0.000000 rotate
0.000000 0 m /four glyphshow
8.907227 0 m /hyphen glyphshow
13.958984 0 m /q glyphshow
22.845703 0 m /space glyphshow
27.295898 0 m /s glyphshow
34.589844 0 m /e glyphshow
43.203125 0 m /n glyphshow
52.076172 0 m /d glyphshow
60.962891 0 m /e glyphshow
69.576172 0 m /r glyphshow
75.332031 0 m /comma glyphshow
79.782227 0 m /space glyphshow
84.232422 0 m /five glyphshow
93.139648 0 m /hyphen glyphshow
98.191406 0 m /q glyphshow
107.078125 0 m /space glyphshow
111.528320 0 m /e glyphshow
119.891602 0 m /x glyphshow
128.176758 0 m /t glyphshow
133.666016 0 m /period glyphshow
138.116211 0 m /space glyphshow
142.566406 0 m /r glyphshow
148.072266 0 m /e glyphshow
156.685547 0 m /c glyphshow
164.382812 0 m /e glyphshow
172.996094 0 m /i glyphshow
176.885742 0 m /v glyphshow
185.170898 0 m /e glyphshow
193.784180 0 m /r glyphshow
grestore
1.500 setlinewidth
1 setlinejoin
2 setlinecap
0.549 0.337 0.294 setrgbcolor
gsave
646.61875 304.754375 m
674.61875 304.754375 l
stroke
grestore
1.000 setlinewidth
0 setlinejoin
0 setlinecap
gsave
/o {
gsave
newpath
translate
1.0 setlinewidth
0 setlinejoin
0 setlinecap
-2 -2 m
2 -2 l
2 2 l
-2 2 l
cl

gsave
0.549 0.337 0.294 setrgbcolor
fill
grestore
stroke
grestore
} bind def
660.619 304.754 o
grestore
0.000 setgray
gsave
685.818750 299.854375 translate
0.000000 rotate
0.000000 0 m /four glyphshow
8.907227 0 m /hyphen glyphshow
13.958984 0 m /q glyphshow
22.845703 0 m /space glyphshow
27.295898 0 m /s glyphshow
34.589844 0 m /e glyphshow
43.203125 0 m /n glyphshow
52.076172 0 m /d glyphshow
60.962891 0 m /e glyphshow
69.576172 0 m /r glyphshow
75.332031 0 m /comma glyphshow
79.782227 0 m /space glyphshow
84.232422 0 m /six glyphshow
93.139648 0 m /hyphen glyphshow
98.191406 0 m /q glyphshow
107.078125 0 m /space glyphshow
111.528320 0 m /e glyphshow
119.891602 0 m /x glyphshow
128.176758 0 m /t glyphshow
133.666016 0 m /period glyphshow
138.116211 0 m /space glyphshow
142.566406 0 m /r glyphshow
148.072266 0 m /e glyphshow
156.685547 0 m /c glyphshow
164.382812 0 m /e glyphshow
172.996094 0 m /i glyphshow
176.885742 0 m /v glyphshow
185.170898 0 m /e glyphshow
193.784180 0 m /r glyphshow
grestore
1.500 setlinewidth
1 setlinejoin
2 setlinecap
0.890 0.467 0.761 setrgbcolor
gsave
646.61875 284.2075 m
674.61875 284.2075 l
stroke
grestore
1.000 setlinewidth
0 setlinejoin
0 setlinecap
gsave
/o {
gsave
newpath
translate
1.0 setlinewidth
0 setlinejoin
0 setlinecap
-0 -2.828427 m
2.828427 0 l
0 2.828427 l
-2.828427 0 l
cl

gsave
0.890 0.467 0.761 setrgbcolor
fill
grestore
stroke
grestore
} bind def
660.619 284.207 o
grestore
0.000 setgray
gsave
685.818750 279.307500 translate
0.000000 rotate
0.000000 0 m /four glyphshow
8.907227 0 m /hyphen glyphshow
13.958984 0 m /q glyphshow
22.845703 0 m /space glyphshow
27.295898 0 m /s glyphshow
34.589844 0 m /e glyphshow
43.203125 0 m /n glyphshow
52.076172 0 m /d glyphshow
60.962891 0 m /e glyphshow
69.576172 0 m /r glyphshow
75.332031 0 m /comma glyphshow
79.782227 0 m /space glyphshow
84.232422 0 m /seven glyphshow
93.139648 0 m /hyphen glyphshow
98.191406 0 m /q glyphshow
107.078125 0 m /space glyphshow
111.528320 0 m /e glyphshow
119.891602 0 m /x glyphshow
128.176758 0 m /t glyphshow
133.666016 0 m /period glyphshow
138.116211 0 m /space glyphshow
142.566406 0 m /r glyphshow
148.072266 0 m /e glyphshow
156.685547 0 m /c glyphshow
164.382812 0 m /e glyphshow
172.996094 0 m /i glyphshow
176.885742 0 m /v glyphshow
185.170898 0 m /e glyphshow
193.784180 0 m /r glyphshow
grestore
1.500 setlinewidth
1 setlinejoin
2 setlinecap
0.498 setgray
gsave
646.61875 263.660625 m
674.61875 263.660625 l
stroke
grestore
1.000 setlinewidth
0 setlinecap
gsave
/o {
gsave
newpath
translate
1.0 setlinewidth
1 setlinejoin
0 setlinecap
0 -2 m
0.530406 -2 1.03916 -1.789267 1.414214 -1.414214 c
1.789267 -1.03916 2 -0.530406 2 0 c
2 0.530406 1.789267 1.03916 1.414214 1.414214 c
1.03916 1.789267 0.530406 2 0 2 c
-0.530406 2 -1.03916 1.789267 -1.414214 1.414214 c
-1.789267 1.03916 -2 0.530406 -2 0 c
-2 -0.530406 -1.789267 -1.03916 -1.414214 -1.414214 c
-1.03916 -1.789267 -0.530406 -2 0 -2 c
cl

gsave
0.498 setgray
fill
grestore
stroke
grestore
} bind def
660.619 263.661 o
grestore
0.000 setgray
gsave
685.818750 258.760625 translate
0.000000 rotate
0.000000 0 m /four glyphshow
8.907227 0 m /hyphen glyphshow
13.958984 0 m /q glyphshow
22.845703 0 m /space glyphshow
27.295898 0 m /s glyphshow
34.589844 0 m /e glyphshow
43.203125 0 m /n glyphshow
52.076172 0 m /d glyphshow
60.962891 0 m /e glyphshow
69.576172 0 m /r glyphshow
75.332031 0 m /comma glyphshow
79.782227 0 m /space glyphshow
84.232422 0 m /eight glyphshow
93.139648 0 m /hyphen glyphshow
98.191406 0 m /q glyphshow
107.078125 0 m /space glyphshow
111.528320 0 m /e glyphshow
119.891602 0 m /x glyphshow
128.176758 0 m /t glyphshow
133.666016 0 m /period glyphshow
138.116211 0 m /space glyphshow
142.566406 0 m /r glyphshow
148.072266 0 m /e glyphshow
156.685547 0 m /c glyphshow
164.382812 0 m /e glyphshow
172.996094 0 m /i glyphshow
176.885742 0 m /v glyphshow
185.170898 0 m /e glyphshow
193.784180 0 m /r glyphshow
grestore

end
showpage
