%!PS-Adobe-3.0 EPSF-3.0
%%Title: /content/drive/MyDrive/zero-coherence-transfer/deviation-n.eps
%%Creator: matplotlib version 3.2.2, http://matplotlib.org/
%%CreationDate: Fri Jul 30 11:40:28 2021
%%Orientation: portrait
%%BoundingBox: -142.4890625 177.20406250000005 754.4890625 614.7959374999999
%%EndComments
%%BeginProlog
/mpldict 9 dict def
mpldict begin
/m { moveto } bind def
/l { lineto } bind def
/r { rlineto } bind def
/c { curveto } bind def
/cl { closepath } bind def
/box {
m
1 index 0 r
0 exch r
neg 0 r
cl
} bind def
/clipbox {
box
clip
newpath
} bind def
%!PS-Adobe-3.0 Resource-Font
%%Title: DejaVu Sans
%%Copyright: Copyright (c) 2003 by Bitstream, Inc. All Rights Reserved. Copyright (c) 2006 by Tavmjong Bah. All Rights Reserved. DejaVu changes are in public domain 
%%Creator: Converted from TrueType to type 3 by PPR
25 dict begin
/_d{bind def}bind def
/_m{moveto}_d
/_l{lineto}_d
/_cl{closepath eofill}_d
/_c{curveto}_d
/_sc{7 -1 roll{setcachedevice}{pop pop pop pop pop pop}ifelse}_d
/_e{exec}_d
/FontName /DejaVuSans def
/PaintType 0 def
/FontMatrix[.001 0 0 .001 0 0]def
/FontBBox[-1021 -463 1793 1232]def
/FontType 3 def
/Encoding [ /space /comma /hyphen /period /zero /one /two /three /four /five /six /seven /eight /nine /D /N /S /a /c /d /e /g /h /i /l /n /o /p /q /r /s /t /v /x ] def
/FontInfo 10 dict dup begin
/FamilyName (DejaVu Sans) def
/FullName (DejaVu Sans) def
/Notice (Copyright (c) 2003 by Bitstream, Inc. All Rights Reserved. Copyright (c) 2006 by Tavmjong Bah. All Rights Reserved. DejaVu changes are in public domain ) def
/Weight (Book) def
/Version (Version 2.35) def
/ItalicAngle 0.0 def
/isFixedPitch false def
/UnderlinePosition -130 def
/UnderlineThickness 90 def
end readonly def
/CharStrings 35 dict dup begin
/.notdef 0 def
/space{318 0 0 0 0 0 _sc
}_d
/comma{318 0 77 -115 220 124 _sc
117 124 _m
220 124 _l
220 40 _l
140 -115 _l
77 -115 _l
117 40 _l
117 124 _l
_cl}_d
/hyphen{361 0 49 234 312 314 _sc
49 314 _m
312 314 _l
312 234 _l
49 234 _l
49 314 _l
_cl}_d
/period{318 0 107 0 210 124 _sc
107 124 _m
210 124 _l
210 0 _l
107 0 _l
107 124 _l
_cl}_d
/zero{636 0 66 -13 570 742 _sc
318 664 _m
267 664 229 639 203 589 _c
177 539 165 464 165 364 _c
165 264 177 189 203 139 _c
229 89 267 64 318 64 _c
369 64 407 89 433 139 _c
458 189 471 264 471 364 _c
471 464 458 539 433 589 _c
407 639 369 664 318 664 _c
318 742 _m
399 742 461 709 505 645 _c
548 580 570 486 570 364 _c
570 241 548 147 505 83 _c
461 19 399 -13 318 -13 _c
236 -13 173 19 130 83 _c
87 147 66 241 66 364 _c
66 486 87 580 130 645 _c
173 709 236 742 318 742 _c
_cl}_d
/one{636 0 110 0 544 729 _sc
124 83 _m
285 83 _l
285 639 _l
110 604 _l
110 694 _l
284 729 _l
383 729 _l
383 83 _l
544 83 _l
544 0 _l
124 0 _l
124 83 _l
_cl}_d
/two{{636 0 73 0 536 742 _sc
192 83 _m
536 83 _l
536 0 _l
73 0 _l
73 83 _l
110 121 161 173 226 239 _c
290 304 331 346 348 365 _c
380 400 402 430 414 455 _c
426 479 433 504 433 528 _c
433 566 419 598 392 622 _c
365 646 330 659 286 659 _c
255 659 222 653 188 643 _c
154 632 117 616 78 594 _c
78 694 _l
118 710 155 722 189 730 _c
223 738 255 742 284 742 _c
}_e{359 742 419 723 464 685 _c
509 647 532 597 532 534 _c
532 504 526 475 515 449 _c
504 422 484 390 454 354 _c
446 344 420 317 376 272 _c
332 227 271 164 192 83 _c
_cl}_e}_d
/three{{636 0 76 -13 556 742 _sc
406 393 _m
453 383 490 362 516 330 _c
542 298 556 258 556 212 _c
556 140 531 84 482 45 _c
432 6 362 -13 271 -13 _c
240 -13 208 -10 176 -4 _c
144 1 110 10 76 22 _c
76 117 _l
103 101 133 89 166 81 _c
198 73 232 69 268 69 _c
330 69 377 81 409 105 _c
441 129 458 165 458 212 _c
458 254 443 288 413 312 _c
383 336 341 349 287 349 _c
}_e{202 349 _l
202 430 _l
291 430 _l
339 430 376 439 402 459 _c
428 478 441 506 441 543 _c
441 580 427 609 401 629 _c
374 649 336 659 287 659 _c
260 659 231 656 200 650 _c
169 644 135 635 98 623 _c
98 711 _l
135 721 170 729 203 734 _c
235 739 266 742 296 742 _c
370 742 429 725 473 691 _c
517 657 539 611 539 553 _c
539 513 527 479 504 451 _c
481 423 448 403 406 393 _c
_cl}_e}_d
/four{636 0 49 0 580 729 _sc
378 643 _m
129 254 _l
378 254 _l
378 643 _l
352 729 _m
476 729 _l
476 254 _l
580 254 _l
580 172 _l
476 172 _l
476 0 _l
378 0 _l
378 172 _l
49 172 _l
49 267 _l
352 729 _l
_cl}_d
/five{{636 0 77 -13 549 729 _sc
108 729 _m
495 729 _l
495 646 _l
198 646 _l
198 467 _l
212 472 227 476 241 478 _c
255 480 270 482 284 482 _c
365 482 429 459 477 415 _c
525 370 549 310 549 234 _c
549 155 524 94 475 51 _c
426 8 357 -13 269 -13 _c
238 -13 207 -10 175 -6 _c
143 -1 111 6 77 17 _c
77 116 _l
106 100 136 88 168 80 _c
199 72 232 69 267 69 _c
}_e{323 69 368 83 401 113 _c
433 143 450 183 450 234 _c
450 284 433 324 401 354 _c
368 384 323 399 267 399 _c
241 399 214 396 188 390 _c
162 384 135 375 108 363 _c
108 729 _l
_cl}_e}_d
/six{{636 0 70 -13 573 742 _sc
330 404 _m
286 404 251 388 225 358 _c
199 328 186 286 186 234 _c
186 181 199 139 225 109 _c
251 79 286 64 330 64 _c
374 64 409 79 435 109 _c
461 139 474 181 474 234 _c
474 286 461 328 435 358 _c
409 388 374 404 330 404 _c
526 713 _m
526 623 _l
501 635 476 644 451 650 _c
425 656 400 659 376 659 _c
310 659 260 637 226 593 _c
}_e{192 549 172 482 168 394 _c
187 422 211 444 240 459 _c
269 474 301 482 336 482 _c
409 482 467 459 509 415 _c
551 371 573 310 573 234 _c
573 159 550 99 506 54 _c
462 9 403 -13 330 -13 _c
246 -13 181 19 137 83 _c
92 147 70 241 70 364 _c
70 479 97 571 152 639 _c
206 707 280 742 372 742 _c
396 742 421 739 447 735 _c
472 730 498 723 526 713 _c
_cl}_e}_d
/seven{636 0 82 0 551 729 _sc
82 729 _m
551 729 _l
551 687 _l
286 0 _l
183 0 _l
432 646 _l
82 646 _l
82 729 _l
_cl}_d
/eight{{636 0 68 -13 568 742 _sc
318 346 _m
271 346 234 333 207 308 _c
180 283 167 249 167 205 _c
167 161 180 126 207 101 _c
234 76 271 64 318 64 _c
364 64 401 76 428 102 _c
455 127 469 161 469 205 _c
469 249 455 283 429 308 _c
402 333 365 346 318 346 _c
219 388 _m
177 398 144 418 120 447 _c
96 476 85 511 85 553 _c
85 611 105 657 147 691 _c
188 725 245 742 318 742 _c
}_e{390 742 447 725 489 691 _c
530 657 551 611 551 553 _c
551 511 539 476 515 447 _c
491 418 459 398 417 388 _c
464 377 501 355 528 323 _c
554 291 568 251 568 205 _c
568 134 546 80 503 43 _c
459 5 398 -13 318 -13 _c
237 -13 175 5 132 43 _c
89 80 68 134 68 205 _c
68 251 81 291 108 323 _c
134 355 171 377 219 388 _c
183 544 _m
183 506 194 476 218 455 _c
}_e{242 434 275 424 318 424 _c
360 424 393 434 417 455 _c
441 476 453 506 453 544 _c
453 582 441 611 417 632 _c
393 653 360 664 318 664 _c
275 664 242 653 218 632 _c
194 611 183 582 183 544 _c
_cl}_e}_d
/nine{{636 0 63 -13 566 742 _sc
110 15 _m
110 105 _l
134 93 159 84 185 78 _c
210 72 235 69 260 69 _c
324 69 374 90 408 134 _c
442 178 462 244 468 334 _c
448 306 424 284 396 269 _c
367 254 335 247 300 247 _c
226 247 168 269 126 313 _c
84 357 63 417 63 494 _c
63 568 85 628 129 674 _c
173 719 232 742 306 742 _c
390 742 455 709 499 645 _c
543 580 566 486 566 364 _c
}_e{566 248 538 157 484 89 _c
429 21 356 -13 264 -13 _c
239 -13 214 -10 189 -6 _c
163 -2 137 5 110 15 _c
306 324 _m
350 324 385 339 411 369 _c
437 399 450 441 450 494 _c
450 546 437 588 411 618 _c
385 648 350 664 306 664 _c
262 664 227 648 201 618 _c
175 588 162 546 162 494 _c
162 441 175 399 201 369 _c
227 339 262 324 306 324 _c
_cl}_e}_d
/D{770 0 98 0 711 729 _sc
197 648 _m
197 81 _l
316 81 _l
416 81 490 103 537 149 _c
583 195 607 267 607 365 _c
607 463 583 534 537 580 _c
490 625 416 648 316 648 _c
197 648 _l
98 729 _m
301 729 _l
442 729 546 699 612 641 _c
678 582 711 490 711 365 _c
711 239 677 147 611 88 _c
545 29 441 0 301 0 _c
98 0 _l
98 729 _l
_cl}_d
/N{748 0 98 0 650 729 _sc
98 729 _m
231 729 _l
554 119 _l
554 729 _l
650 729 _l
650 0 _l
517 0 _l
194 610 _l
194 0 _l
98 0 _l
98 729 _l
_cl}_d
/S{{635 0 66 -13 579 742 _sc
535 705 _m
535 609 _l
497 627 462 640 429 649 _c
395 657 363 662 333 662 _c
279 662 237 651 208 631 _c
179 610 165 580 165 542 _c
165 510 174 485 194 469 _c
213 452 250 439 304 429 _c
364 417 _l
437 403 491 378 526 343 _c
561 307 579 260 579 201 _c
579 130 555 77 508 41 _c
460 5 391 -13 300 -13 _c
265 -13 228 -9 189 -2 _c
}_e{150 5 110 16 69 32 _c
69 134 _l
109 111 148 94 186 83 _c
224 71 262 66 300 66 _c
356 66 399 77 430 99 _c
460 121 476 152 476 194 _c
476 230 465 258 443 278 _c
421 298 385 313 335 323 _c
275 335 _l
201 349 148 372 115 404 _c
82 435 66 478 66 534 _c
66 598 88 649 134 686 _c
179 723 242 742 322 742 _c
356 742 390 739 426 733 _c
461 727 497 717 535 705 _c
}_e{_cl}_e}_d
/a{{613 0 60 -13 522 560 _sc
343 275 _m
270 275 220 266 192 250 _c
164 233 150 205 150 165 _c
150 133 160 107 181 89 _c
202 70 231 61 267 61 _c
317 61 357 78 387 114 _c
417 149 432 196 432 255 _c
432 275 _l
343 275 _l
522 312 _m
522 0 _l
432 0 _l
432 83 _l
411 49 385 25 355 10 _c
325 -5 287 -13 243 -13 _c
187 -13 142 2 109 33 _c
76 64 60 106 60 159 _c
}_e{60 220 80 266 122 298 _c
163 329 224 345 306 345 _c
432 345 _l
432 354 _l
432 395 418 427 391 450 _c
364 472 326 484 277 484 _c
245 484 215 480 185 472 _c
155 464 127 453 100 439 _c
100 522 _l
132 534 164 544 195 550 _c
226 556 256 560 286 560 _c
365 560 424 539 463 498 _c
502 457 522 395 522 312 _c
_cl}_e}_d
/c{{550 0 55 -13 488 560 _sc
488 526 _m
488 442 _l
462 456 437 466 411 473 _c
385 480 360 484 334 484 _c
276 484 230 465 198 428 _c
166 391 150 339 150 273 _c
150 206 166 154 198 117 _c
230 80 276 62 334 62 _c
360 62 385 65 411 72 _c
437 79 462 90 488 104 _c
488 21 _l
462 9 436 0 410 -5 _c
383 -10 354 -13 324 -13 _c
242 -13 176 12 128 64 _c
}_e{79 115 55 185 55 273 _c
55 362 79 432 128 483 _c
177 534 244 560 330 560 _c
358 560 385 557 411 551 _c
437 545 463 537 488 526 _c
_cl}_e}_d
/d{{635 0 55 -13 544 760 _sc
454 464 _m
454 760 _l
544 760 _l
544 0 _l
454 0 _l
454 82 _l
435 49 411 25 382 10 _c
353 -5 319 -13 279 -13 _c
213 -13 159 13 117 65 _c
75 117 55 187 55 273 _c
55 359 75 428 117 481 _c
159 533 213 560 279 560 _c
319 560 353 552 382 536 _c
411 520 435 496 454 464 _c
148 273 _m
148 207 161 155 188 117 _c
215 79 253 61 301 61 _c
}_e{348 61 385 79 413 117 _c
440 155 454 207 454 273 _c
454 339 440 390 413 428 _c
385 466 348 485 301 485 _c
253 485 215 466 188 428 _c
161 390 148 339 148 273 _c
_cl}_e}_d
/e{{615 0 55 -13 562 560 _sc
562 296 _m
562 252 _l
149 252 _l
153 190 171 142 205 110 _c
238 78 284 62 344 62 _c
378 62 412 66 444 74 _c
476 82 509 95 541 113 _c
541 28 _l
509 14 476 3 442 -3 _c
408 -9 373 -13 339 -13 _c
251 -13 182 12 131 62 _c
80 112 55 181 55 268 _c
55 357 79 428 127 481 _c
175 533 241 560 323 560 _c
397 560 455 536 498 489 _c
}_e{540 441 562 377 562 296 _c
472 322 _m
471 371 457 410 431 440 _c
404 469 368 484 324 484 _c
274 484 234 469 204 441 _c
174 413 156 373 152 322 _c
472 322 _l
_cl}_e}_d
/g{{635 0 55 -207 544 560 _sc
454 280 _m
454 344 440 395 414 431 _c
387 467 349 485 301 485 _c
253 485 215 467 188 431 _c
161 395 148 344 148 280 _c
148 215 161 165 188 129 _c
215 93 253 75 301 75 _c
349 75 387 93 414 129 _c
440 165 454 215 454 280 _c
544 68 _m
544 -24 523 -93 482 -139 _c
440 -184 377 -207 292 -207 _c
260 -207 231 -204 203 -200 _c
175 -195 147 -188 121 -178 _c
}_e{121 -91 _l
147 -105 173 -115 199 -122 _c
225 -129 251 -133 278 -133 _c
336 -133 380 -117 410 -87 _c
439 -56 454 -10 454 52 _c
454 96 _l
435 64 411 40 382 24 _c
353 8 319 0 279 0 _c
211 0 157 25 116 76 _c
75 127 55 195 55 280 _c
55 364 75 432 116 483 _c
157 534 211 560 279 560 _c
319 560 353 552 382 536 _c
411 520 435 496 454 464 _c
454 547 _l
544 547 _l
}_e{544 68 _l
_cl}_e}_d
/h{634 0 91 0 549 760 _sc
549 330 _m
549 0 _l
459 0 _l
459 327 _l
459 379 448 417 428 443 _c
408 469 378 482 338 482 _c
289 482 251 466 223 435 _c
195 404 181 362 181 309 _c
181 0 _l
91 0 _l
91 760 _l
181 760 _l
181 462 _l
202 494 227 519 257 535 _c
286 551 320 560 358 560 _c
420 560 468 540 500 501 _c
532 462 549 405 549 330 _c
_cl}_d
/i{278 0 94 0 184 760 _sc
94 547 _m
184 547 _l
184 0 _l
94 0 _l
94 547 _l
94 760 _m
184 760 _l
184 646 _l
94 646 _l
94 760 _l
_cl}_d
/l{278 0 94 0 184 760 _sc
94 760 _m
184 760 _l
184 0 _l
94 0 _l
94 760 _l
_cl}_d
/n{634 0 91 0 549 560 _sc
549 330 _m
549 0 _l
459 0 _l
459 327 _l
459 379 448 417 428 443 _c
408 469 378 482 338 482 _c
289 482 251 466 223 435 _c
195 404 181 362 181 309 _c
181 0 _l
91 0 _l
91 547 _l
181 547 _l
181 462 _l
202 494 227 519 257 535 _c
286 551 320 560 358 560 _c
420 560 468 540 500 501 _c
532 462 549 405 549 330 _c
_cl}_d
/o{612 0 55 -13 557 560 _sc
306 484 _m
258 484 220 465 192 427 _c
164 389 150 338 150 273 _c
150 207 163 156 191 118 _c
219 80 257 62 306 62 _c
354 62 392 80 420 118 _c
448 156 462 207 462 273 _c
462 337 448 389 420 427 _c
392 465 354 484 306 484 _c
306 560 _m
384 560 445 534 490 484 _c
534 433 557 363 557 273 _c
557 183 534 113 490 63 _c
445 12 384 -13 306 -13 _c
227 -13 165 12 121 63 _c
77 113 55 183 55 273 _c
55 363 77 433 121 484 _c
165 534 227 560 306 560 _c
_cl}_d
/p{{635 0 91 -207 580 560 _sc
181 82 _m
181 -207 _l
91 -207 _l
91 547 _l
181 547 _l
181 464 _l
199 496 223 520 252 536 _c
281 552 316 560 356 560 _c
422 560 476 533 518 481 _c
559 428 580 359 580 273 _c
580 187 559 117 518 65 _c
476 13 422 -13 356 -13 _c
316 -13 281 -5 252 10 _c
223 25 199 49 181 82 _c
487 273 _m
487 339 473 390 446 428 _c
418 466 381 485 334 485 _c
}_e{286 485 249 466 222 428 _c
194 390 181 339 181 273 _c
181 207 194 155 222 117 _c
249 79 286 61 334 61 _c
381 61 418 79 446 117 _c
473 155 487 207 487 273 _c
_cl}_e}_d
/q{{635 0 55 -207 544 560 _sc
148 273 _m
148 207 161 155 188 117 _c
215 79 253 61 301 61 _c
348 61 385 79 413 117 _c
440 155 454 207 454 273 _c
454 339 440 390 413 428 _c
385 466 348 485 301 485 _c
253 485 215 466 188 428 _c
161 390 148 339 148 273 _c
454 82 _m
435 49 411 25 382 10 _c
353 -5 319 -13 279 -13 _c
213 -13 159 13 117 65 _c
75 117 55 187 55 273 _c
}_e{55 359 75 428 117 481 _c
159 533 213 560 279 560 _c
319 560 353 552 382 536 _c
411 520 435 496 454 464 _c
454 547 _l
544 547 _l
544 -207 _l
454 -207 _l
454 82 _l
_cl}_e}_d
/r{411 0 91 0 411 560 _sc
411 463 _m
401 469 390 473 378 476 _c
366 478 353 480 339 480 _c
288 480 249 463 222 430 _c
194 397 181 350 181 288 _c
181 0 _l
91 0 _l
91 547 _l
181 547 _l
181 462 _l
199 495 224 520 254 536 _c
284 552 321 560 365 560 _c
371 560 378 559 386 559 _c
393 558 401 557 411 555 _c
411 463 _l
_cl}_d
/s{{521 0 54 -13 472 560 _sc
443 531 _m
443 446 _l
417 458 391 468 364 475 _c
336 481 308 485 279 485 _c
234 485 200 478 178 464 _c
156 450 145 430 145 403 _c
145 382 153 366 169 354 _c
185 342 217 330 265 320 _c
296 313 _l
360 299 405 279 432 255 _c
458 230 472 195 472 151 _c
472 100 452 60 412 31 _c
372 1 316 -13 246 -13 _c
216 -13 186 -10 154 -5 _c
}_e{122 0 89 8 54 20 _c
54 113 _l
87 95 120 82 152 74 _c
184 65 216 61 248 61 _c
290 61 323 68 346 82 _c
368 96 380 117 380 144 _c
380 168 371 187 355 200 _c
339 213 303 226 247 238 _c
216 245 _l
160 257 119 275 95 299 _c
70 323 58 356 58 399 _c
58 450 76 490 112 518 _c
148 546 200 560 268 560 _c
301 560 332 557 362 552 _c
391 547 418 540 443 531 _c
}_e{_cl}_e}_d
/t{392 0 27 0 368 702 _sc
183 702 _m
183 547 _l
368 547 _l
368 477 _l
183 477 _l
183 180 _l
183 135 189 106 201 94 _c
213 81 238 75 276 75 _c
368 75 _l
368 0 _l
276 0 _l
206 0 158 13 132 39 _c
106 65 93 112 93 180 _c
93 477 _l
27 477 _l
27 547 _l
93 547 _l
93 702 _l
183 702 _l
_cl}_d
/v{592 0 30 0 562 547 _sc
30 547 _m
125 547 _l
296 88 _l
467 547 _l
562 547 _l
357 0 _l
235 0 _l
30 547 _l
_cl}_d
/x{592 0 29 0 559 547 _sc
549 547 _m
351 281 _l
559 0 _l
453 0 _l
294 215 _l
135 0 _l
29 0 _l
241 286 _l
47 547 _l
153 547 _l
298 352 _l
443 547 _l
549 547 _l
_cl}_d
end readonly def

/BuildGlyph
 {exch begin
 CharStrings exch
 2 copy known not{pop /.notdef}if
 true 3 1 roll get exec
 end}_d

/BuildChar {
 1 index /Encoding get exch get
 1 index /BuildGlyph get exec
}_d

FontName currentdict end definefont pop
%!PS-Adobe-3.0 Resource-Font
%%Title: DejaVu Sans Oblique
%%Copyright: Copyright (c) 2003 by Bitstream, Inc. All Rights Reserved. Copyright (c) 2006 by Tavmjong Bah. All Rights Reserved. DejaVu changes are in public domain 
%%Creator: Converted from TrueType to type 3 by PPR
25 dict begin
/_d{bind def}bind def
/_m{moveto}_d
/_l{lineto}_d
/_cl{closepath eofill}_d
/_c{curveto}_d
/_sc{7 -1 roll{setcachedevice}{pop pop pop pop pop pop}ifelse}_d
/_e{exec}_d
/FontName /DejaVuSans-Oblique def
/PaintType 0 def
/FontMatrix[.001 0 0 .001 0 0]def
/FontBBox[-1016 -350 1659 1068]def
/FontType 3 def
/Encoding [ /delta ] def
/FontInfo 10 dict dup begin
/FamilyName (DejaVu Sans) def
/FullName (DejaVu Sans Oblique) def
/Notice (Copyright (c) 2003 by Bitstream, Inc. All Rights Reserved. Copyright (c) 2006 by Tavmjong Bah. All Rights Reserved. DejaVu changes are in public domain ) def
/Weight (Oblique) def
/Version (Version 2.35) def
/ItalicAngle -11.0 def
/isFixedPitch false def
/UnderlinePosition -130 def
/UnderlineThickness 90 def
end readonly def
/CharStrings 2 dict dup begin
/.notdef 0 def
/delta{{612 0 38 -13 557 742 _sc
542 633 _m
514 655 461 667 383 667 _c
300 667 255 648 248 610 _c
242 580 280 557 364 542 _c
428 530 476 505 508 469 _c
546 425 556 358 539 268 _c
521 182 486 113 432 63 _c
377 12 310 -13 232 -13 _c
154 -13 98 12 63 63 _c
28 113 20 183 38 273 _c
50 339 84 399 139 453 _c
160 473 184 490 211 502 _c
165 528 147 563 156 609 _c
}_e{173 697 253 742 397 742 _c
469 742 522 730 557 708 _c
542 633 _l
274 478 _m
250 468 226 451 204 428 _c
168 391 144 339 132 273 _c
119 207 123 155 144 118 _c
164 80 199 62 248 62 _c
295 62 336 81 372 119 _c
407 156 431 206 443 268 _c
455 332 450 380 427 412 _c
401 445 369 464 329 468 _c
308 470 290 473 274 478 _c
_cl}_e}_d
end readonly def

/BuildGlyph
 {exch begin
 CharStrings exch
 2 copy known not{pop /.notdef}if
 true 3 1 roll get exec
 end}_d

/BuildChar {
 1 index /Encoding get exch get
 1 index /BuildGlyph get exec
}_d

FontName currentdict end definefont pop
end
%%EndProlog
mpldict begin
-142.489 177.204 translate
896.978 437.592 0 0 clipbox
gsave
0 0 m
896.978125 0 l
896.978125 437.591875 l
0 437.591875 l
cl
1.000 setgray
fill
grestore
gsave
52.778125 45.309375 m
889.778125 45.309375 l
889.778125 425.829375 l
52.778125 425.829375 l
cl
1.000 setgray
fill
grestore
0.800 setlinewidth
1 setlinejoin
2 setlinecap
[] 0 setdash
0.690 setgray
gsave
837 380.5 52.78 45.31 clipbox
102.712784 45.309375 m
102.712784 425.829375 l
stroke
grestore
0 setlinecap
0.000 setgray
gsave
/o {
gsave
newpath
translate
0.8 setlinewidth
1 setlinejoin
0 setlinecap
0 0 m
0 -3.5 l

gsave
0.000 setgray
fill
grestore
stroke
grestore
} bind def
102.713 45.3094 o
grestore
/DejaVuSans findfont
12.000 scalefont
setfont
gsave
95.072159 29.184375 translate
0.000000 rotate
0.000000 0 m /one glyphshow
7.634766 0 m /zero glyphshow
grestore
2 setlinecap
0.690 setgray
gsave
837 380.5 52.78 45.31 clipbox
142.343466 45.309375 m
142.343466 425.829375 l
stroke
grestore
0 setlinecap
0.000 setgray
gsave
/o {
gsave
newpath
translate
0.8 setlinewidth
1 setlinejoin
0 setlinecap
0 0 m
0 -3.5 l

gsave
0.000 setgray
fill
grestore
stroke
grestore
} bind def
142.343 45.3094 o
grestore
gsave
134.702841 29.184375 translate
0.000000 rotate
0.000000 0 m /two glyphshow
7.634766 0 m /zero glyphshow
grestore
2 setlinecap
0.690 setgray
gsave
837 380.5 52.78 45.31 clipbox
181.974148 45.309375 m
181.974148 425.829375 l
stroke
grestore
0 setlinecap
0.000 setgray
gsave
/o {
gsave
newpath
translate
0.8 setlinewidth
1 setlinejoin
0 setlinecap
0 0 m
0 -3.5 l

gsave
0.000 setgray
fill
grestore
stroke
grestore
} bind def
181.974 45.3094 o
grestore
gsave
174.333523 29.184375 translate
0.000000 rotate
0.000000 0 m /three glyphshow
7.634766 0 m /zero glyphshow
grestore
2 setlinecap
0.690 setgray
gsave
837 380.5 52.78 45.31 clipbox
221.60483 45.309375 m
221.60483 425.829375 l
stroke
grestore
0 setlinecap
0.000 setgray
gsave
/o {
gsave
newpath
translate
0.8 setlinewidth
1 setlinejoin
0 setlinecap
0 0 m
0 -3.5 l

gsave
0.000 setgray
fill
grestore
stroke
grestore
} bind def
221.605 45.3094 o
grestore
gsave
213.964205 29.184375 translate
0.000000 rotate
0.000000 0 m /four glyphshow
7.634766 0 m /zero glyphshow
grestore
2 setlinecap
0.690 setgray
gsave
837 380.5 52.78 45.31 clipbox
261.235511 45.309375 m
261.235511 425.829375 l
stroke
grestore
0 setlinecap
0.000 setgray
gsave
/o {
gsave
newpath
translate
0.8 setlinewidth
1 setlinejoin
0 setlinecap
0 0 m
0 -3.5 l

gsave
0.000 setgray
fill
grestore
stroke
grestore
} bind def
261.236 45.3094 o
grestore
gsave
253.594886 29.184375 translate
0.000000 rotate
0.000000 0 m /five glyphshow
7.634766 0 m /zero glyphshow
grestore
2 setlinecap
0.690 setgray
gsave
837 380.5 52.78 45.31 clipbox
300.866193 45.309375 m
300.866193 425.829375 l
stroke
grestore
0 setlinecap
0.000 setgray
gsave
/o {
gsave
newpath
translate
0.8 setlinewidth
1 setlinejoin
0 setlinecap
0 0 m
0 -3.5 l

gsave
0.000 setgray
fill
grestore
stroke
grestore
} bind def
300.866 45.3094 o
grestore
gsave
293.225568 29.184375 translate
0.000000 rotate
0.000000 0 m /six glyphshow
7.634766 0 m /zero glyphshow
grestore
2 setlinecap
0.690 setgray
gsave
837 380.5 52.78 45.31 clipbox
340.496875 45.309375 m
340.496875 425.829375 l
stroke
grestore
0 setlinecap
0.000 setgray
gsave
/o {
gsave
newpath
translate
0.8 setlinewidth
1 setlinejoin
0 setlinecap
0 0 m
0 -3.5 l

gsave
0.000 setgray
fill
grestore
stroke
grestore
} bind def
340.497 45.3094 o
grestore
gsave
332.856250 29.184375 translate
0.000000 rotate
0.000000 0 m /seven glyphshow
7.634766 0 m /zero glyphshow
grestore
2 setlinecap
0.690 setgray
gsave
837 380.5 52.78 45.31 clipbox
380.127557 45.309375 m
380.127557 425.829375 l
stroke
grestore
0 setlinecap
0.000 setgray
gsave
/o {
gsave
newpath
translate
0.8 setlinewidth
1 setlinejoin
0 setlinecap
0 0 m
0 -3.5 l

gsave
0.000 setgray
fill
grestore
stroke
grestore
} bind def
380.128 45.3094 o
grestore
gsave
372.486932 29.184375 translate
0.000000 rotate
0.000000 0 m /eight glyphshow
7.634766 0 m /zero glyphshow
grestore
2 setlinecap
0.690 setgray
gsave
837 380.5 52.78 45.31 clipbox
419.758239 45.309375 m
419.758239 425.829375 l
stroke
grestore
0 setlinecap
0.000 setgray
gsave
/o {
gsave
newpath
translate
0.8 setlinewidth
1 setlinejoin
0 setlinecap
0 0 m
0 -3.5 l

gsave
0.000 setgray
fill
grestore
stroke
grestore
} bind def
419.758 45.3094 o
grestore
gsave
412.117614 29.184375 translate
0.000000 rotate
0.000000 0 m /nine glyphshow
7.634766 0 m /zero glyphshow
grestore
2 setlinecap
0.690 setgray
gsave
837 380.5 52.78 45.31 clipbox
459.38892 45.309375 m
459.38892 425.829375 l
stroke
grestore
0 setlinecap
0.000 setgray
gsave
/o {
gsave
newpath
translate
0.8 setlinewidth
1 setlinejoin
0 setlinecap
0 0 m
0 -3.5 l

gsave
0.000 setgray
fill
grestore
stroke
grestore
} bind def
459.389 45.3094 o
grestore
gsave
447.927983 29.184375 translate
0.000000 rotate
0.000000 0 m /one glyphshow
7.634766 0 m /zero glyphshow
15.269531 0 m /zero glyphshow
grestore
2 setlinecap
0.690 setgray
gsave
837 380.5 52.78 45.31 clipbox
499.019602 45.309375 m
499.019602 425.829375 l
stroke
grestore
0 setlinecap
0.000 setgray
gsave
/o {
gsave
newpath
translate
0.8 setlinewidth
1 setlinejoin
0 setlinecap
0 0 m
0 -3.5 l

gsave
0.000 setgray
fill
grestore
stroke
grestore
} bind def
499.02 45.3094 o
grestore
gsave
487.558665 29.184375 translate
0.000000 rotate
0.000000 0 m /one glyphshow
7.634766 0 m /one glyphshow
15.269531 0 m /zero glyphshow
grestore
2 setlinecap
0.690 setgray
gsave
837 380.5 52.78 45.31 clipbox
538.650284 45.309375 m
538.650284 425.829375 l
stroke
grestore
0 setlinecap
0.000 setgray
gsave
/o {
gsave
newpath
translate
0.8 setlinewidth
1 setlinejoin
0 setlinecap
0 0 m
0 -3.5 l

gsave
0.000 setgray
fill
grestore
stroke
grestore
} bind def
538.65 45.3094 o
grestore
gsave
527.189347 29.184375 translate
0.000000 rotate
0.000000 0 m /one glyphshow
7.634766 0 m /two glyphshow
15.269531 0 m /zero glyphshow
grestore
2 setlinecap
0.690 setgray
gsave
837 380.5 52.78 45.31 clipbox
578.280966 45.309375 m
578.280966 425.829375 l
stroke
grestore
0 setlinecap
0.000 setgray
gsave
/o {
gsave
newpath
translate
0.8 setlinewidth
1 setlinejoin
0 setlinecap
0 0 m
0 -3.5 l

gsave
0.000 setgray
fill
grestore
stroke
grestore
} bind def
578.281 45.3094 o
grestore
gsave
566.820028 29.184375 translate
0.000000 rotate
0.000000 0 m /one glyphshow
7.634766 0 m /three glyphshow
15.269531 0 m /zero glyphshow
grestore
2 setlinecap
0.690 setgray
gsave
837 380.5 52.78 45.31 clipbox
617.911648 45.309375 m
617.911648 425.829375 l
stroke
grestore
0 setlinecap
0.000 setgray
gsave
/o {
gsave
newpath
translate
0.8 setlinewidth
1 setlinejoin
0 setlinecap
0 0 m
0 -3.5 l

gsave
0.000 setgray
fill
grestore
stroke
grestore
} bind def
617.912 45.3094 o
grestore
gsave
606.450710 29.184375 translate
0.000000 rotate
0.000000 0 m /one glyphshow
7.634766 0 m /four glyphshow
15.269531 0 m /zero glyphshow
grestore
2 setlinecap
0.690 setgray
gsave
837 380.5 52.78 45.31 clipbox
657.54233 45.309375 m
657.54233 425.829375 l
stroke
grestore
0 setlinecap
0.000 setgray
gsave
/o {
gsave
newpath
translate
0.8 setlinewidth
1 setlinejoin
0 setlinecap
0 0 m
0 -3.5 l

gsave
0.000 setgray
fill
grestore
stroke
grestore
} bind def
657.542 45.3094 o
grestore
gsave
646.081392 29.184375 translate
0.000000 rotate
0.000000 0 m /one glyphshow
7.634766 0 m /five glyphshow
15.269531 0 m /zero glyphshow
grestore
2 setlinecap
0.690 setgray
gsave
837 380.5 52.78 45.31 clipbox
697.173011 45.309375 m
697.173011 425.829375 l
stroke
grestore
0 setlinecap
0.000 setgray
gsave
/o {
gsave
newpath
translate
0.8 setlinewidth
1 setlinejoin
0 setlinecap
0 0 m
0 -3.5 l

gsave
0.000 setgray
fill
grestore
stroke
grestore
} bind def
697.173 45.3094 o
grestore
gsave
685.712074 29.184375 translate
0.000000 rotate
0.000000 0 m /one glyphshow
7.634766 0 m /six glyphshow
15.269531 0 m /zero glyphshow
grestore
2 setlinecap
0.690 setgray
gsave
837 380.5 52.78 45.31 clipbox
736.803693 45.309375 m
736.803693 425.829375 l
stroke
grestore
0 setlinecap
0.000 setgray
gsave
/o {
gsave
newpath
translate
0.8 setlinewidth
1 setlinejoin
0 setlinecap
0 0 m
0 -3.5 l

gsave
0.000 setgray
fill
grestore
stroke
grestore
} bind def
736.804 45.3094 o
grestore
gsave
725.342756 29.184375 translate
0.000000 rotate
0.000000 0 m /one glyphshow
7.634766 0 m /seven glyphshow
15.269531 0 m /zero glyphshow
grestore
2 setlinecap
0.690 setgray
gsave
837 380.5 52.78 45.31 clipbox
776.434375 45.309375 m
776.434375 425.829375 l
stroke
grestore
0 setlinecap
0.000 setgray
gsave
/o {
gsave
newpath
translate
0.8 setlinewidth
1 setlinejoin
0 setlinecap
0 0 m
0 -3.5 l

gsave
0.000 setgray
fill
grestore
stroke
grestore
} bind def
776.434 45.3094 o
grestore
gsave
764.973438 29.184375 translate
0.000000 rotate
0.000000 0 m /one glyphshow
7.634766 0 m /eight glyphshow
15.269531 0 m /zero glyphshow
grestore
2 setlinecap
0.690 setgray
gsave
837 380.5 52.78 45.31 clipbox
816.065057 45.309375 m
816.065057 425.829375 l
stroke
grestore
0 setlinecap
0.000 setgray
gsave
/o {
gsave
newpath
translate
0.8 setlinewidth
1 setlinejoin
0 setlinecap
0 0 m
0 -3.5 l

gsave
0.000 setgray
fill
grestore
stroke
grestore
} bind def
816.065 45.3094 o
grestore
gsave
804.604119 29.184375 translate
0.000000 rotate
0.000000 0 m /one glyphshow
7.634766 0 m /nine glyphshow
15.269531 0 m /zero glyphshow
grestore
/DejaVuSans findfont
16.000 scalefont
setfont
gsave
414.692188 10.528125 translate
0.000000 rotate
0.000000 0 m /S glyphshow
10.156250 0 m /p glyphshow
20.312500 0 m /i glyphshow
24.757812 0 m /n glyphshow
34.898438 0 m /space glyphshow
39.984375 0 m /l glyphshow
44.429688 0 m /e glyphshow
54.273438 0 m /n glyphshow
64.414062 0 m /g glyphshow
74.570312 0 m /t glyphshow
80.843750 0 m /h glyphshow
90.984375 0 m /comma glyphshow
96.070312 0 m /space glyphshow
101.156250 0 m /N glyphshow
grestore
2 setlinecap
0.690 setgray
gsave
837 380.5 52.78 45.31 clipbox
52.778125 45.309375 m
889.778125 45.309375 l
stroke
grestore
0 setlinecap
0.000 setgray
gsave
/o {
gsave
newpath
translate
0.8 setlinewidth
1 setlinejoin
0 setlinecap
0 0 m
-3.5 0 l

gsave
0.000 setgray
fill
grestore
stroke
grestore
} bind def
52.7781 45.3094 o
grestore
/DejaVuSans findfont
12.000 scalefont
setfont
gsave
26.684375 40.746875 translate
0.000000 rotate
0.000000 0 m /zero glyphshow
7.634766 0 m /period glyphshow
11.449219 0 m /four glyphshow
grestore
2 setlinecap
0.690 setgray
gsave
837 380.5 52.78 45.31 clipbox
52.778125 92.874375 m
889.778125 92.874375 l
stroke
grestore
0 setlinecap
0.000 setgray
gsave
/o {
gsave
newpath
translate
0.8 setlinewidth
1 setlinejoin
0 setlinecap
0 0 m
-3.5 0 l

gsave
0.000 setgray
fill
grestore
stroke
grestore
} bind def
52.7781 92.8744 o
grestore
gsave
26.684375 88.311875 translate
0.000000 rotate
0.000000 0 m /zero glyphshow
7.634766 0 m /period glyphshow
11.449219 0 m /six glyphshow
grestore
2 setlinecap
0.690 setgray
gsave
837 380.5 52.78 45.31 clipbox
52.778125 140.439375 m
889.778125 140.439375 l
stroke
grestore
0 setlinecap
0.000 setgray
gsave
/o {
gsave
newpath
translate
0.8 setlinewidth
1 setlinejoin
0 setlinecap
0 0 m
-3.5 0 l

gsave
0.000 setgray
fill
grestore
stroke
grestore
} bind def
52.7781 140.439 o
grestore
gsave
26.684375 135.876875 translate
0.000000 rotate
0.000000 0 m /zero glyphshow
7.634766 0 m /period glyphshow
11.449219 0 m /eight glyphshow
grestore
2 setlinecap
0.690 setgray
gsave
837 380.5 52.78 45.31 clipbox
52.778125 188.004375 m
889.778125 188.004375 l
stroke
grestore
0 setlinecap
0.000 setgray
gsave
/o {
gsave
newpath
translate
0.8 setlinewidth
1 setlinejoin
0 setlinecap
0 0 m
-3.5 0 l

gsave
0.000 setgray
fill
grestore
stroke
grestore
} bind def
52.7781 188.004 o
grestore
gsave
26.684375 183.441875 translate
0.000000 rotate
0.000000 0 m /one glyphshow
7.634766 0 m /period glyphshow
11.449219 0 m /zero glyphshow
grestore
2 setlinecap
0.690 setgray
gsave
837 380.5 52.78 45.31 clipbox
52.778125 235.569375 m
889.778125 235.569375 l
stroke
grestore
0 setlinecap
0.000 setgray
gsave
/o {
gsave
newpath
translate
0.8 setlinewidth
1 setlinejoin
0 setlinecap
0 0 m
-3.5 0 l

gsave
0.000 setgray
fill
grestore
stroke
grestore
} bind def
52.7781 235.569 o
grestore
gsave
26.684375 231.006875 translate
0.000000 rotate
0.000000 0 m /one glyphshow
7.634766 0 m /period glyphshow
11.449219 0 m /two glyphshow
grestore
2 setlinecap
0.690 setgray
gsave
837 380.5 52.78 45.31 clipbox
52.778125 283.134375 m
889.778125 283.134375 l
stroke
grestore
0 setlinecap
0.000 setgray
gsave
/o {
gsave
newpath
translate
0.8 setlinewidth
1 setlinejoin
0 setlinecap
0 0 m
-3.5 0 l

gsave
0.000 setgray
fill
grestore
stroke
grestore
} bind def
52.7781 283.134 o
grestore
gsave
26.684375 278.571875 translate
0.000000 rotate
0.000000 0 m /one glyphshow
7.634766 0 m /period glyphshow
11.449219 0 m /four glyphshow
grestore
2 setlinecap
0.690 setgray
gsave
837 380.5 52.78 45.31 clipbox
52.778125 330.699375 m
889.778125 330.699375 l
stroke
grestore
0 setlinecap
0.000 setgray
gsave
/o {
gsave
newpath
translate
0.8 setlinewidth
1 setlinejoin
0 setlinecap
0 0 m
-3.5 0 l

gsave
0.000 setgray
fill
grestore
stroke
grestore
} bind def
52.7781 330.699 o
grestore
gsave
26.684375 326.136875 translate
0.000000 rotate
0.000000 0 m /one glyphshow
7.634766 0 m /period glyphshow
11.449219 0 m /six glyphshow
grestore
2 setlinecap
0.690 setgray
gsave
837 380.5 52.78 45.31 clipbox
52.778125 378.264375 m
889.778125 378.264375 l
stroke
grestore
0 setlinecap
0.000 setgray
gsave
/o {
gsave
newpath
translate
0.8 setlinewidth
1 setlinejoin
0 setlinecap
0 0 m
-3.5 0 l

gsave
0.000 setgray
fill
grestore
stroke
grestore
} bind def
52.7781 378.264 o
grestore
gsave
26.684375 373.701875 translate
0.000000 rotate
0.000000 0 m /one glyphshow
7.634766 0 m /period glyphshow
11.449219 0 m /eight glyphshow
grestore
2 setlinecap
0.690 setgray
gsave
837 380.5 52.78 45.31 clipbox
52.778125 425.829375 m
889.778125 425.829375 l
stroke
grestore
0 setlinecap
0.000 setgray
gsave
/o {
gsave
newpath
translate
0.8 setlinewidth
1 setlinejoin
0 setlinecap
0 0 m
-3.5 0 l

gsave
0.000 setgray
fill
grestore
stroke
grestore
} bind def
52.7781 425.829 o
grestore
gsave
26.684375 421.266875 translate
0.000000 rotate
0.000000 0 m /two glyphshow
7.634766 0 m /period glyphshow
11.449219 0 m /zero glyphshow
grestore
gsave
19.356250 187.069375 translate
90.000000 rotate
/DejaVuSans findfont
16.0 scalefont
setfont
0.000000 0.843750 moveto
/D glyphshow
12.320312 0.843750 moveto
/e glyphshow
22.164062 0.843750 moveto
/v glyphshow
31.632812 0.843750 moveto
/i glyphshow
36.078125 0.843750 moveto
/a glyphshow
45.882812 0.843750 moveto
/t glyphshow
52.156250 0.843750 moveto
/i glyphshow
56.601562 0.843750 moveto
/o glyphshow
66.390625 0.843750 moveto
/n glyphshow
76.531250 0.843750 moveto
/comma glyphshow
81.617188 0.843750 moveto
/space glyphshow
/DejaVuSans-Oblique findfont
16.0 scalefont
setfont
86.703125 0.843750 moveto
/delta glyphshow

grestore
1.500 setlinewidth
2 setlinecap
0.122 0.467 0.706 setrgbcolor
gsave
837 380.5 52.78 45.31 clipbox
90.82358 224.001699 m
94.786648 208.255149 l
98.749716 219.741628 l
102.712784 219.795946 l
106.675852 215.719153 l
110.63892 215.247597 l
114.601989 212.070919 l
118.565057 199.788563 l
122.528125 200.545745 l
126.491193 203.186106 l
130.454261 200.372603 l
134.41733 198.377459 l
138.380398 195.928446 l
142.343466 194.394403 l
146.306534 189.0302 l
150.269602 181.611371 l
154.23267 189.509369 l
158.195739 187.870784 l
162.158807 186.299987 l
166.121875 184.780809 l
170.084943 182.32286 l
174.048011 174.759555 l
181.974148 178.712214 l
185.937216 177.235105 l
189.900284 164.035625 l
193.863352 173.267559 l
197.82642 172.783737 l
201.789489 171.081475 l
205.752557 169.861611 l
209.715625 168.410429 l
213.678693 166.883157 l
217.641761 164.14964 l
221.60483 162.169775 l
241.42017 153.738884 l
245.383239 155.205721 l
257.272443 151.089503 l
265.19858 148.8237 l
269.161648 147.511569 l
273.124716 146.173116 l
277.087784 143.676475 l
285.01392 140.929033 l
292.940057 139.41426 l
296.903125 138.232627 l
300.866193 136.103038 l
308.79233 132.640431 l
316.718466 129.935588 l
328.60767 128.121771 l
340.496875 124.42928 l
344.459943 121.640227 l
356.349148 110.649026 l
360.312216 118.118748 l
364.275284 113.716816 l
368.238352 113.585433 l
372.20142 112.976614 l
395.97983 108.354906 l
403.905966 99.971449 l
411.832102 97.536912 l
415.79517 102.616323 l
431.647443 97.791071 l
stroke
grestore
1.000 setlinewidth
0 setlinejoin
0 setlinecap
gsave
837 380.5 52.78 45.31 clipbox
/o {
gsave
newpath
translate
1.0 setlinewidth
0 setlinejoin
0 setlinecap
-0 -2 m
2 2 l
-2 2 l
cl

gsave
0.122 0.467 0.706 setrgbcolor
fill
grestore
stroke
grestore
} bind def
90.8236 224.002 o
94.7866 208.255 o
98.7497 219.742 o
102.713 219.796 o
106.676 215.719 o
110.639 215.248 o
114.602 212.071 o
118.565 199.789 o
122.528 200.546 o
126.491 203.186 o
130.454 200.373 o
134.417 198.377 o
138.38 195.928 o
142.343 194.394 o
146.307 189.03 o
150.27 181.611 o
154.233 189.509 o
158.196 187.871 o
162.159 186.3 o
166.122 184.781 o
170.085 182.323 o
174.048 174.76 o
181.974 178.712 o
185.937 177.235 o
189.9 164.036 o
193.863 173.268 o
197.826 172.784 o
201.789 171.081 o
205.753 169.862 o
209.716 168.41 o
213.679 166.883 o
217.642 164.15 o
221.605 162.17 o
241.42 153.739 o
245.383 155.206 o
257.272 151.09 o
265.199 148.824 o
269.162 147.512 o
273.125 146.173 o
277.088 143.676 o
285.014 140.929 o
292.94 139.414 o
296.903 138.233 o
300.866 136.103 o
308.792 132.64 o
316.718 129.936 o
328.608 128.122 o
340.497 124.429 o
344.46 121.64 o
356.349 110.649 o
360.312 118.119 o
364.275 113.717 o
368.238 113.585 o
372.201 112.977 o
395.98 108.355 o
403.906 99.9714 o
411.832 97.5369 o
415.795 102.616 o
431.647 97.7911 o
grestore
1.500 setlinewidth
1 setlinejoin
2 setlinecap
1.000 0.498 0.055 setrgbcolor
gsave
837 380.5 52.78 45.31 clipbox
94.786648 267.843908 m
98.749716 260.338903 l
102.712784 258.589592 l
106.675852 259.388284 l
110.63892 259.545087 l
114.601989 259.27618 l
118.565057 258.523341 l
122.528125 257.33033 l
126.491193 255.834128 l
130.454261 254.156375 l
134.41733 252.367539 l
138.380398 250.519931 l
142.343466 248.666363 l
146.306534 246.845492 l
150.269602 245.06581 l
154.23267 243.329568 l
158.195739 241.658373 l
162.158807 240.078366 l
166.121875 238.591102 l
170.084943 237.17825 l
174.048011 235.827574 l
178.01108 234.544537 l
181.974148 233.331763 l
185.937216 232.170938 l
189.900284 231.053079 l
193.863352 229.955761 l
197.82642 228.871414 l
201.789489 227.830106 l
205.752557 226.787461 l
209.715625 226.01406 l
213.678693 225.081067 l
217.641761 224.104409 l
221.60483 222.734844 l
225.567898 221.944197 l
229.530966 221.18058 l
233.494034 220.262629 l
237.457102 219.269158 l
241.42017 218.167548 l
245.383239 215.641019 l
249.346307 216.228572 l
253.309375 215.19291 l
257.272443 214.148491 l
261.235511 213.094517 l
265.19858 212.030038 l
269.161648 210.953671 l
273.124716 209.861686 l
277.087784 208.778218 l
281.050852 207.676053 l
285.01392 206.537478 l
288.976989 205.442825 l
292.940057 203.922065 l
296.903125 202.669309 l
300.866193 202.034015 l
304.829261 200.882632 l
308.79233 199.723019 l
312.755398 198.548002 l
320.681534 193.995147 l
324.644602 195.032957 l
328.60767 193.834788 l
332.570739 192.656357 l
336.533807 191.465066 l
340.496875 190.266439 l
344.459943 189.066041 l
348.423011 187.866368 l
352.38608 186.657793 l
356.349148 185.45019 l
360.312216 184.211382 l
364.275284 183.028834 l
368.238352 181.783826 l
372.20142 180.553049 l
376.164489 177.756201 l
380.127557 177.985108 l
384.090625 176.933721 l
388.053693 175.707887 l
392.016761 174.483748 l
395.97983 173.255404 l
399.942898 172.033776 l
403.905966 170.796668 l
407.869034 169.582831 l
411.832102 168.323219 l
415.79517 167.081836 l
419.758239 165.907358 l
423.721307 164.683618 l
427.684375 163.436901 l
431.647443 162.248938 l
435.610511 160.930445 l
439.57358 159.77434 l
443.536648 158.61176 l
447.499716 157.405082 l
451.462784 156.190753 l
455.425852 154.959302 l
459.38892 150.088214 l
463.351989 152.612696 l
467.315057 151.381153 l
479.204261 147.883692 l
483.16733 146.684842 l
502.98267 140.679325 l
506.945739 139.554261 l
510.908807 138.669832 l
514.871875 136.638992 l
518.834943 135.489104 l
522.798011 135.034634 l
526.76108 129.913684 l
534.687216 129.408678 l
542.613352 119.269591 l
546.57642 119.49628 l
554.502557 118.604565 l
558.465625 120.225849 l
562.428693 124.739612 l
570.35483 119.387484 l
578.280966 114.809835 l
582.244034 106.754888 l
602.059375 103.998649 l
617.911648 110.775068 l
625.837784 108.920124 l
665.468466 100.127522 l
stroke
grestore
1.000 setlinewidth
0 setlinejoin
0 setlinecap
gsave
837 380.5 52.78 45.31 clipbox
/o {
gsave
newpath
translate
1.0 setlinewidth
0 setlinejoin
0 setlinecap
-2 -2 m
2 -2 l
2 2 l
-2 2 l
cl

gsave
1.000 0.498 0.055 setrgbcolor
fill
grestore
stroke
grestore
} bind def
94.7866 267.844 o
98.7497 260.339 o
102.713 258.59 o
106.676 259.388 o
110.639 259.545 o
114.602 259.276 o
118.565 258.523 o
122.528 257.33 o
126.491 255.834 o
130.454 254.156 o
134.417 252.368 o
138.38 250.52 o
142.343 248.666 o
146.307 246.845 o
150.27 245.066 o
154.233 243.33 o
158.196 241.658 o
162.159 240.078 o
166.122 238.591 o
170.085 237.178 o
174.048 235.828 o
178.011 234.545 o
181.974 233.332 o
185.937 232.171 o
189.9 231.053 o
193.863 229.956 o
197.826 228.871 o
201.789 227.83 o
205.753 226.787 o
209.716 226.014 o
213.679 225.081 o
217.642 224.104 o
221.605 222.735 o
225.568 221.944 o
229.531 221.181 o
233.494 220.263 o
237.457 219.269 o
241.42 218.168 o
245.383 215.641 o
249.346 216.229 o
253.309 215.193 o
257.272 214.148 o
261.236 213.095 o
265.199 212.03 o
269.162 210.954 o
273.125 209.862 o
277.088 208.778 o
281.051 207.676 o
285.014 206.537 o
288.977 205.443 o
292.94 203.922 o
296.903 202.669 o
300.866 202.034 o
304.829 200.883 o
308.792 199.723 o
312.755 198.548 o
320.682 193.995 o
324.645 195.033 o
328.608 193.835 o
332.571 192.656 o
336.534 191.465 o
340.497 190.266 o
344.46 189.066 o
348.423 187.866 o
352.386 186.658 o
356.349 185.45 o
360.312 184.211 o
364.275 183.029 o
368.238 181.784 o
372.201 180.553 o
376.164 177.756 o
380.128 177.985 o
384.091 176.934 o
388.054 175.708 o
392.017 174.484 o
395.98 173.255 o
399.943 172.034 o
403.906 170.797 o
407.869 169.583 o
411.832 168.323 o
415.795 167.082 o
419.758 165.907 o
423.721 164.684 o
427.684 163.437 o
431.647 162.249 o
435.611 160.93 o
439.574 159.774 o
443.537 158.612 o
447.5 157.405 o
451.463 156.191 o
455.426 154.959 o
459.389 150.088 o
463.352 152.613 o
467.315 151.381 o
479.204 147.884 o
483.167 146.685 o
502.983 140.679 o
506.946 139.554 o
510.909 138.67 o
514.872 136.639 o
518.835 135.489 o
522.798 135.035 o
526.761 129.914 o
534.687 129.409 o
542.613 119.27 o
546.576 119.496 o
554.503 118.605 o
558.466 120.226 o
562.429 124.74 o
570.355 119.387 o
578.281 114.81 o
582.244 106.755 o
602.059 103.999 o
617.912 110.775 o
625.838 108.92 o
665.468 100.128 o
grestore
1.500 setlinewidth
1 setlinejoin
2 setlinecap
0.173 0.627 0.173 setrgbcolor
gsave
837 380.5 52.78 45.31 clipbox
98.749716 272.458313 m
102.712784 269.290258 l
106.675852 270.157214 l
110.63892 270.893361 l
114.601989 271.908426 l
118.565057 272.575967 l
122.528125 272.691037 l
126.491193 272.333131 l
130.454261 271.612507 l
134.41733 270.574782 l
138.380398 269.255568 l
142.343466 267.727611 l
150.269602 264.324771 l
162.158807 258.74862 l
185.937216 247.527491 l
197.82642 242.184326 l
209.715625 237.087849 l
221.60483 232.369616 l
233.494034 227.950866 l
245.383239 223.861832 l
257.272443 220.030871 l
261.235511 219.498058 l
288.976989 212.566949 l
312.755398 206.389732 l
324.644602 203.218524 l
328.60767 198.402389 l
332.570739 201.074245 l
372.20142 190.068577 l
395.97983 183.319815 l
399.942898 182.057248 l
403.905966 181.046549 l
407.869034 179.838228 l
411.832102 178.772008 l
415.79517 177.568448 l
423.721307 175.355502 l
475.241193 160.590102 l
518.834943 148.81219 l
526.76108 146.847975 l
546.57642 140.68889 l
550.539489 140.545586 l
554.502557 139.826692 l
570.35483 136.116361 l
578.280966 133.453138 l
582.244034 130.682551 l
598.096307 129.912137 l
617.911648 125.649266 l
621.874716 123.505817 l
633.76392 121.80638 l
653.579261 110.823831 l
657.54233 115.955061 l
665.468466 102.75394 l
681.320739 97.318997 l
701.13608 107.713298 l
709.062216 91.425642 l
713.025284 104.825614 l
716.988352 100.242206 l
744.72983 90.03613 l
752.655966 91.879842 l
760.582102 101.030055 l
764.54517 98.469771 l
776.434375 97.447992 l
808.13892 91.279039 l
808.13892 91.279039 l
stroke
grestore
1.000 setlinewidth
0 setlinejoin
0 setlinecap
gsave
837 380.5 52.78 45.31 clipbox
/o {
gsave
newpath
translate
1.0 setlinewidth
0 setlinejoin
0 setlinecap
-0 -2.828427 m
2.828427 0 l
0 2.828427 l
-2.828427 0 l
cl

gsave
0.173 0.627 0.173 setrgbcolor
fill
grestore
stroke
grestore
} bind def
98.7497 272.458 o
102.713 269.29 o
106.676 270.157 o
110.639 270.893 o
114.602 271.908 o
118.565 272.576 o
122.528 272.691 o
126.491 272.333 o
130.454 271.613 o
134.417 270.575 o
138.38 269.256 o
142.343 267.728 o
146.307 266.07 o
150.27 264.325 o
154.233 262.506 o
158.196 260.636 o
162.159 258.749 o
166.122 256.86 o
170.085 254.971 o
174.048 253.083 o
178.011 251.207 o
181.974 249.355 o
185.937 247.527 o
189.9 245.72 o
193.863 243.938 o
197.826 242.184 o
201.789 240.465 o
205.753 238.779 o
209.716 237.088 o
213.679 235.501 o
217.642 233.914 o
221.605 232.37 o
225.568 230.86 o
229.531 229.388 o
233.494 227.951 o
237.457 226.554 o
241.42 225.194 o
245.383 223.862 o
249.346 222.569 o
253.309 221.299 o
257.272 220.031 o
261.236 219.498 o
265.199 218.52 o
269.162 217.539 o
273.125 216.555 o
277.088 215.567 o
281.051 214.569 o
285.014 213.574 o
288.977 212.567 o
292.94 211.554 o
296.903 210.535 o
300.866 209.509 o
304.829 208.478 o
308.792 207.407 o
312.755 206.39 o
316.718 205.318 o
320.682 204.268 o
324.645 203.219 o
328.608 198.402 o
332.571 201.074 o
336.534 199.984 o
340.497 198.91 o
344.46 197.803 o
348.423 196.728 o
352.386 195.63 o
356.349 194.525 o
360.312 193.422 o
364.275 192.312 o
368.238 191.198 o
372.201 190.069 o
376.164 188.959 o
380.128 187.826 o
384.091 186.712 o
388.054 185.568 o
392.017 184.453 o
395.98 183.32 o
399.943 182.057 o
403.906 181.047 o
407.869 179.838 o
411.832 178.772 o
415.795 177.568 o
419.758 176.495 o
423.721 175.356 o
427.684 174.218 o
431.647 173.069 o
435.611 171.911 o
439.574 170.809 o
443.537 169.586 o
447.5 168.551 o
451.463 167.408 o
455.426 166.291 o
459.389 165.132 o
463.352 164.057 o
467.315 162.933 o
475.241 160.59 o
483.167 158.445 o
487.13 157.422 o
499.02 154.179 o
506.946 152.057 o
514.872 149.949 o
518.835 148.812 o
526.761 146.848 o
546.576 140.689 o
550.539 140.546 o
554.503 139.827 o
558.466 138.883 o
566.392 136.94 o
570.355 136.116 o
578.281 133.453 o
582.244 130.683 o
598.096 129.912 o
609.986 127.357 o
617.912 125.649 o
621.875 123.506 o
633.764 121.806 o
653.579 110.824 o
657.542 115.955 o
665.468 102.754 o
681.321 97.319 o
701.136 107.713 o
709.062 91.4256 o
713.025 104.826 o
716.988 100.242 o
744.73 90.0361 o
752.656 91.8798 o
760.582 101.03 o
764.545 98.4698 o
776.434 97.448 o
808.139 91.279 o
grestore
1.500 setlinewidth
1 setlinejoin
2 setlinecap
0.839 0.153 0.157 setrgbcolor
gsave
837 380.5 52.78 45.31 clipbox
102.712784 281.291335 m
106.675852 278.726298 l
110.63892 274.775 l
114.601989 274.449941 l
118.565057 275.932851 l
122.528125 277.149976 l
126.491193 278.094249 l
130.454261 278.845889 l
134.41733 279.415548 l
138.380398 279.766783 l
142.343466 279.887645 l
146.306534 279.813332 l
150.269602 279.587638 l
154.23267 279.23042 l
158.195739 278.747413 l
162.158807 278.149375 l
166.121875 277.457555 l
170.084943 276.68159 l
174.048011 275.857187 l
178.01108 274.965902 l
181.974148 274.026942 l
185.937216 273.051635 l
189.900284 272.047825 l
193.863352 271.021802 l
197.82642 269.980928 l
201.789489 268.933423 l
205.752557 267.885329 l
209.715625 266.841398 l
213.678693 265.806054 l
217.641761 264.775747 l
221.60483 263.78123 l
225.567898 262.798296 l
229.530966 261.836277 l
233.494034 260.893739 l
237.457102 259.976359 l
241.42017 259.083545 l
245.383239 258.208366 l
249.346307 257.35008 l
253.309375 256.506883 l
257.272443 255.677697 l
261.235511 254.859476 l
265.19858 254.049372 l
269.161648 253.24484 l
273.124716 252.444224 l
277.087784 251.645219 l
281.050852 250.848835 l
285.01392 250.05002 l
288.976989 249.249173 l
292.940057 248.443383 l
296.903125 247.635123 l
300.866193 246.820432 l
304.829261 246.001068 l
308.79233 245.170717 l
312.755398 244.338934 l
316.718466 243.496585 l
320.681534 242.64616 l
324.644602 241.78654 l
328.60767 240.913857 l
332.570739 240.038984 l
336.533807 239.062022 l
340.496875 238.240206 l
344.459943 237.336023 l
348.423011 236.426124 l
352.38608 235.49527 l
356.349148 234.554684 l
360.312216 233.602305 l
364.275284 231.886434 l
368.238352 231.664416 l
372.20142 230.662864 l
376.164489 229.682835 l
380.127557 228.667142 l
384.090625 227.649922 l
388.053693 226.609684 l
392.016761 225.569228 l
395.97983 224.500963 l
399.942898 223.416168 l
403.905966 222.355229 l
407.869034 221.238839 l
411.832102 214.982868 l
415.79517 219.021278 l
419.758239 217.892806 l
423.721307 213.098998 l
427.684375 215.598223 l
431.647443 214.32389 l
435.610511 211.641423 l
439.57358 212.284633 l
443.536648 210.63506 l
447.499716 210.048793 l
451.462784 208.94591 l
455.425852 207.78696 l
463.351989 205.438652 l
467.315057 204.113707 l
471.278125 203.012985 l
483.16733 199.400185 l
487.130398 198.12671 l
495.056534 195.41645 l
514.871875 189.319341 l
518.834943 187.868244 l
522.798011 186.740694 l
534.687216 182.846053 l
550.539489 177.638144 l
558.465625 175.038436 l
566.391761 172.275862 l
570.35483 170.853367 l
578.280966 168.040394 l
582.244034 167.302187 l
586.207102 166.008498 l
594.133239 163.459007 l
602.059375 160.962992 l
617.911648 155.670804 l
621.874716 154.79242 l
629.800852 152.437713 l
633.76392 150.613597 l
641.690057 146.751206 l
665.468466 141.773428 l
669.431534 139.496058 l
689.246875 135.817419 l
792.286648 107.22163 l
804.175852 93.980106 l
839.843466 97.49911 l
851.73267 67.711291 l
stroke
grestore
1.000 setlinewidth
0 setlinecap
gsave
837 380.5 52.78 45.31 clipbox
/o {
gsave
newpath
translate
1.0 setlinewidth
1 setlinejoin
0 setlinecap
0 -2 m
0.530406 -2 1.03916 -1.789267 1.414214 -1.414214 c
1.789267 -1.03916 2 -0.530406 2 0 c
2 0.530406 1.789267 1.03916 1.414214 1.414214 c
1.03916 1.789267 0.530406 2 0 2 c
-0.530406 2 -1.03916 1.789267 -1.414214 1.414214 c
-1.789267 1.03916 -2 0.530406 -2 0 c
-2 -0.530406 -1.789267 -1.03916 -1.414214 -1.414214 c
-1.03916 -1.789267 -0.530406 -2 0 -2 c
cl

gsave
0.839 0.153 0.157 setrgbcolor
fill
grestore
stroke
grestore
} bind def
102.713 281.291 o
106.676 278.726 o
110.639 274.775 o
114.602 274.45 o
118.565 275.933 o
122.528 277.15 o
126.491 278.094 o
130.454 278.846 o
134.417 279.416 o
138.38 279.767 o
142.343 279.888 o
146.307 279.813 o
150.27 279.588 o
154.233 279.23 o
158.196 278.747 o
162.159 278.149 o
166.122 277.458 o
170.085 276.682 o
174.048 275.857 o
178.011 274.966 o
181.974 274.027 o
185.937 273.052 o
189.9 272.048 o
193.863 271.022 o
197.826 269.981 o
201.789 268.933 o
205.753 267.885 o
209.716 266.841 o
213.679 265.806 o
217.642 264.776 o
221.605 263.781 o
225.568 262.798 o
229.531 261.836 o
233.494 260.894 o
237.457 259.976 o
241.42 259.084 o
245.383 258.208 o
249.346 257.35 o
253.309 256.507 o
257.272 255.678 o
261.236 254.859 o
265.199 254.049 o
269.162 253.245 o
273.125 252.444 o
277.088 251.645 o
281.051 250.849 o
285.014 250.05 o
288.977 249.249 o
292.94 248.443 o
296.903 247.635 o
300.866 246.82 o
304.829 246.001 o
308.792 245.171 o
312.755 244.339 o
316.718 243.497 o
320.682 242.646 o
324.645 241.787 o
328.608 240.914 o
332.571 240.039 o
336.534 239.062 o
340.497 238.24 o
344.46 237.336 o
348.423 236.426 o
352.386 235.495 o
356.349 234.555 o
360.312 233.602 o
364.275 231.886 o
368.238 231.664 o
372.201 230.663 o
376.164 229.683 o
380.128 228.667 o
384.091 227.65 o
388.054 226.61 o
392.017 225.569 o
395.98 224.501 o
399.943 223.416 o
403.906 222.355 o
407.869 221.239 o
411.832 214.983 o
415.795 219.021 o
419.758 217.893 o
423.721 213.099 o
427.684 215.598 o
431.647 214.324 o
435.611 211.641 o
439.574 212.285 o
443.537 210.635 o
447.5 210.049 o
451.463 208.946 o
455.426 207.787 o
463.352 205.439 o
467.315 204.114 o
471.278 203.013 o
483.167 199.4 o
487.13 198.127 o
495.057 195.416 o
514.872 189.319 o
518.835 187.868 o
522.798 186.741 o
534.687 182.846 o
550.539 177.638 o
558.466 175.038 o
566.392 172.276 o
570.355 170.853 o
578.281 168.04 o
582.244 167.302 o
586.207 166.008 o
594.133 163.459 o
602.059 160.963 o
617.912 155.671 o
621.875 154.792 o
629.801 152.438 o
633.764 150.614 o
641.69 146.751 o
665.468 141.773 o
669.432 139.496 o
689.247 135.817 o
792.287 107.222 o
804.176 93.9801 o
839.843 97.4991 o
851.733 67.7113 o
grestore
1.500 setlinewidth
2 setlinecap
0.580 0.404 0.741 setrgbcolor
gsave
837 380.5 52.78 45.31 clipbox
98.749716 349.644952 m
102.712784 362.848216 l
106.675852 361.323038 l
110.63892 360.077431 l
114.601989 358.926916 l
118.565057 352.88567 l
122.528125 356.781924 l
130.454261 356.839074 l
134.41733 349.639481 l
138.380398 358.234367 l
142.343466 358.806005 l
146.306534 358.135427 l
150.269602 359.047094 l
154.23267 358.745819 l
158.195739 357.433819 l
162.158807 357.238044 l
166.121875 356.040482 l
170.084943 354.55989 l
174.048011 352.803649 l
178.01108 350.780143 l
181.974148 348.499361 l
185.937216 345.969959 l
189.900284 343.211596 l
193.863352 338.684988 l
197.82642 337.092562 l
205.752557 324.877142 l
221.60483 316.458547 l
225.567898 312.952812 l
229.530966 309.385506 l
237.457102 303.295184 l
stroke
grestore
1.000 setlinewidth
0 setlinejoin
0 setlinecap
gsave
837 380.5 52.78 45.31 clipbox
/o {
gsave
newpath
translate
1.0 setlinewidth
0 setlinejoin
0 setlinecap
-0 -2 m
2 2 l
-2 2 l
cl

gsave
0.580 0.404 0.741 setrgbcolor
fill
grestore
stroke
grestore
} bind def
98.7497 349.645 o
102.713 362.848 o
106.676 361.323 o
110.639 360.077 o
114.602 358.927 o
118.565 352.886 o
122.528 356.782 o
130.454 356.839 o
134.417 349.639 o
138.38 358.234 o
142.343 358.806 o
146.307 358.135 o
150.27 359.047 o
154.233 358.746 o
158.196 357.434 o
162.159 357.238 o
166.122 356.04 o
170.085 354.56 o
174.048 352.804 o
178.011 350.78 o
181.974 348.499 o
185.937 345.97 o
189.9 343.212 o
193.863 338.685 o
197.826 337.093 o
205.753 324.877 o
221.605 316.459 o
225.568 312.953 o
229.531 309.386 o
237.457 303.295 o
grestore
1.500 setlinewidth
1 setlinejoin
2 setlinecap
0.549 0.337 0.294 setrgbcolor
gsave
837 380.5 52.78 45.31 clipbox
102.712784 378.664648 m
106.675852 379.113064 l
110.63892 378.958169 l
114.601989 378.522617 l
118.565057 378.070473 l
122.528125 373.969233 l
126.491193 377.237202 l
130.454261 377.132476 l
134.41733 377.223762 l
138.380398 377.433886 l
142.343466 377.681144 l
146.306534 377.894267 l
150.269602 378.016184 l
154.23267 378.006617 l
158.195739 377.843641 l
162.158807 377.516407 l
166.121875 377.005128 l
170.084943 376.290693 l
174.048011 375.361514 l
178.01108 374.213616 l
181.974148 372.708674 l
185.937216 371.21921 l
189.900284 369.338332 l
193.863352 367.174277 l
197.82642 364.755052 l
201.789489 362.042323 l
205.752557 359.041736 l
209.715625 355.758169 l
213.678693 352.211687 l
217.641761 348.436991 l
221.60483 344.477423 l
225.567898 340.384017 l
229.530966 336.214101 l
233.494034 332.027499 l
237.457102 327.878268 l
241.42017 323.805301 l
245.383239 319.830767 l
249.346307 315.983864 l
253.309375 312.256331 l
257.272443 308.657587 l
261.235511 305.175365 l
265.19858 301.799915 l
269.161648 298.520598 l
273.124716 295.332735 l
281.050852 289.167731 l
285.01392 286.000586 l
288.976989 283.269485 l
308.79233 269.359689 l
312.755398 266.666305 l
320.681534 261.54343 l
332.570739 256.76904 l
340.496875 250.774892 l
352.38608 245.355116 l
356.349148 241.502542 l
364.275284 238.571694 l
stroke
grestore
1.000 setlinewidth
0 setlinejoin
0 setlinecap
gsave
837 380.5 52.78 45.31 clipbox
/o {
gsave
newpath
translate
1.0 setlinewidth
0 setlinejoin
0 setlinecap
-2 -2 m
2 -2 l
2 2 l
-2 2 l
cl

gsave
0.549 0.337 0.294 setrgbcolor
fill
grestore
stroke
grestore
} bind def
102.713 378.665 o
106.676 379.113 o
110.639 378.958 o
114.602 378.523 o
118.565 378.07 o
122.528 373.969 o
126.491 377.237 o
130.454 377.132 o
134.417 377.224 o
138.38 377.434 o
142.343 377.681 o
146.307 377.894 o
150.27 378.016 o
154.233 378.007 o
158.196 377.844 o
162.159 377.516 o
166.122 377.005 o
170.085 376.291 o
174.048 375.362 o
178.011 374.214 o
181.974 372.709 o
185.937 371.219 o
189.9 369.338 o
193.863 367.174 o
197.826 364.755 o
201.789 362.042 o
205.753 359.042 o
209.716 355.758 o
213.679 352.212 o
217.642 348.437 o
221.605 344.477 o
225.568 340.384 o
229.531 336.214 o
233.494 332.027 o
237.457 327.878 o
241.42 323.805 o
245.383 319.831 o
249.346 315.984 o
253.309 312.256 o
257.272 308.658 o
261.236 305.175 o
265.199 301.8 o
269.162 298.521 o
273.125 295.333 o
281.051 289.168 o
285.014 286.001 o
288.977 283.269 o
308.792 269.36 o
312.755 266.666 o
320.682 261.543 o
332.571 256.769 o
340.497 250.775 o
352.386 245.355 o
356.349 241.503 o
364.275 238.572 o
grestore
1.500 setlinewidth
1 setlinejoin
2 setlinecap
0.890 0.467 0.761 setrgbcolor
gsave
837 380.5 52.78 45.31 clipbox
110.63892 396.052068 m
122.528125 392.490078 l
126.491193 389.016329 l
130.454261 393.051706 l
134.41733 393.095469 l
138.380398 392.981054 l
142.343466 392.741062 l
146.306534 392.425487 l
150.269602 392.065046 l
154.23267 391.672286 l
158.195739 391.262398 l
162.158807 390.85432 l
166.121875 390.453424 l
170.084943 390.051071 l
174.048011 389.631616 l
178.01108 389.174542 l
181.974148 388.649214 l
185.937216 388.022418 l
189.900284 387.259226 l
193.863352 386.329355 l
197.82642 385.205815 l
201.789489 383.333299 l
205.752557 382.280742 l
209.715625 380.447084 l
213.678693 378.361066 l
217.641761 376.030614 l
221.60483 373.496353 l
225.567898 370.791613 l
229.530966 367.964368 l
233.494034 365.085288 l
237.457102 362.207116 l
241.42017 359.37551 l
245.383239 356.625643 l
249.346307 353.976775 l
253.309375 351.326291 l
257.272443 349.003497 l
261.235511 346.661232 l
265.19858 344.345203 l
269.161648 342.230772 l
273.124716 340.087318 l
277.087784 338.006344 l
281.050852 335.962198 l
285.01392 333.898537 l
288.976989 331.896287 l
292.940057 329.867254 l
296.903125 327.843758 l
300.866193 325.803156 l
304.829261 323.747184 l
308.79233 321.665391 l
312.755398 319.562754 l
316.718466 317.252218 l
320.681534 315.319304 l
324.644602 313.154294 l
328.60767 310.351668 l
332.570739 308.739742 l
336.533807 306.493682 l
340.496875 303.931871 l
344.459943 301.924049 l
352.38608 297.102372 l
356.349148 292.826926 l
360.312216 292.469676 l
364.275284 285.162774 l
368.238352 282.563078 l
372.20142 285.055203 l
376.164489 282.770441 l
380.127557 280.290794 l
384.090625 277.834635 l
395.97983 266.204394 l
399.942898 266.297014 l
403.905966 265.171988 l
407.869034 261.331749 l
411.832102 253.603484 l
415.79517 257.963725 l
419.758239 255.496371 l
423.721307 251.431792 l
427.684375 244.959321 l
439.57358 246.93508 l
459.38892 228.066759 l
stroke
grestore
1.000 setlinewidth
0 setlinejoin
0 setlinecap
gsave
837 380.5 52.78 45.31 clipbox
/o {
gsave
newpath
translate
1.0 setlinewidth
0 setlinejoin
0 setlinecap
-0 -2.828427 m
2.828427 0 l
0 2.828427 l
-2.828427 0 l
cl

gsave
0.890 0.467 0.761 setrgbcolor
fill
grestore
stroke
grestore
} bind def
110.639 396.052 o
122.528 392.49 o
126.491 389.016 o
130.454 393.052 o
134.417 393.095 o
138.38 392.981 o
142.343 392.741 o
146.307 392.425 o
150.27 392.065 o
154.233 391.672 o
158.196 391.262 o
162.159 390.854 o
166.122 390.453 o
170.085 390.051 o
174.048 389.632 o
178.011 389.175 o
181.974 388.649 o
185.937 388.022 o
189.9 387.259 o
193.863 386.329 o
197.826 385.206 o
201.789 383.333 o
205.753 382.281 o
209.716 380.447 o
213.679 378.361 o
217.642 376.031 o
221.605 373.496 o
225.568 370.792 o
229.531 367.964 o
233.494 365.085 o
237.457 362.207 o
241.42 359.376 o
245.383 356.626 o
249.346 353.977 o
253.309 351.326 o
257.272 349.003 o
261.236 346.661 o
265.199 344.345 o
269.162 342.231 o
273.125 340.087 o
277.088 338.006 o
281.051 335.962 o
285.014 333.899 o
288.977 331.896 o
292.94 329.867 o
296.903 327.844 o
300.866 325.803 o
304.829 323.747 o
308.792 321.665 o
312.755 319.563 o
316.718 317.252 o
320.682 315.319 o
324.645 313.154 o
328.608 310.352 o
332.571 308.74 o
336.534 306.494 o
340.497 303.932 o
344.46 301.924 o
352.386 297.102 o
356.349 292.827 o
360.312 292.47 o
364.275 285.163 o
368.238 282.563 o
372.201 285.055 o
376.164 282.77 o
380.128 280.291 o
384.091 277.835 o
395.98 266.204 o
399.943 266.297 o
403.906 265.172 o
407.869 261.332 o
411.832 253.603 o
415.795 257.964 o
419.758 255.496 o
423.721 251.432 o
427.684 244.959 o
439.574 246.935 o
459.389 228.067 o
grestore
1.500 setlinewidth
1 setlinejoin
2 setlinecap
0.498 setgray
gsave
837 380.5 52.78 45.31 clipbox
110.63892 401.764062 m
114.601989 401.165015 l
122.528125 402.286453 l
126.491193 402.530194 l
130.454261 402.735715 l
134.41733 402.919861 l
138.380398 403.052217 l
142.343466 403.127731 l
146.306534 403.162068 l
150.269602 403.161555 l
154.23267 403.124088 l
158.195739 403.053253 l
162.158807 402.957844 l
166.121875 402.841602 l
170.084943 402.662818 l
174.048011 402.553279 l
178.01108 402.390687 l
181.974148 402.215854 l
185.937216 402.021086 l
189.900284 401.799244 l
193.863352 401.541457 l
197.82642 401.235093 l
201.789489 400.860506 l
205.752557 400.394338 l
209.715625 399.814782 l
213.678693 399.098484 l
217.641761 398.220203 l
221.60483 397.149147 l
225.567898 395.87342 l
229.530966 394.371526 l
233.494034 392.640372 l
237.457102 390.681635 l
241.42017 388.500779 l
245.383239 386.113074 l
249.346307 383.544922 l
253.309375 380.812836 l
257.272443 377.93913 l
261.235511 374.96589 l
265.19858 371.898217 l
269.161648 368.789594 l
273.124716 365.618568 l
277.087784 362.528432 l
281.050852 359.461075 l
285.01392 356.485517 l
288.976989 353.633658 l
292.940057 350.961848 l
296.903125 348.437819 l
300.866193 340.794001 l
304.829261 339.598307 l
308.79233 338.843725 l
312.755398 338.186214 l
316.718466 338.148691 l
320.681534 337.181992 l
324.644602 336.723744 l
328.60767 336.213819 l
332.570739 335.496247 l
336.533807 335.137686 l
340.496875 334.517671 l
344.459943 333.641587 l
352.38608 332.451773 l
356.349148 331.73812 l
360.312216 328.158806 l
364.275284 329.983056 l
368.238352 329.2256 l
372.20142 328.331002 l
376.164489 327.169252 l
380.127557 326.299777 l
384.090625 325.17032 l
395.97983 321.880745 l
399.942898 320.252619 l
403.905966 319.465174 l
407.869034 317.081443 l
411.832102 308.013806 l
415.79517 315.404399 l
419.758239 313.577481 l
423.721307 312.493207 l
427.684375 310.947625 l
431.647443 308.417134 l
435.610511 300.938021 l
439.57358 305.938594 l
443.536648 298.124214 l
447.499716 303.341475 l
451.462784 301.67155 l
455.425852 296.650381 l
459.38892 298.180212 l
467.315057 293.484307 l
479.204261 289.072752 l
483.16733 280.241099 l
487.130398 285.408189 l
491.093466 275.537851 l
495.056534 281.026463 l
502.98267 276.904197 l
510.908807 268.361689 l
518.834943 269.215941 l
526.76108 267.100989 l
724.914489 193.234299 l
stroke
grestore
1.000 setlinewidth
0 setlinecap
gsave
837 380.5 52.78 45.31 clipbox
/o {
gsave
newpath
translate
1.0 setlinewidth
1 setlinejoin
0 setlinecap
0 -2 m
0.530406 -2 1.03916 -1.789267 1.414214 -1.414214 c
1.789267 -1.03916 2 -0.530406 2 0 c
2 0.530406 1.789267 1.03916 1.414214 1.414214 c
1.03916 1.789267 0.530406 2 0 2 c
-0.530406 2 -1.03916 1.789267 -1.414214 1.414214 c
-1.789267 1.03916 -2 0.530406 -2 0 c
-2 -0.530406 -1.789267 -1.03916 -1.414214 -1.414214 c
-1.03916 -1.789267 -0.530406 -2 0 -2 c
cl

gsave
0.498 setgray
fill
grestore
stroke
grestore
} bind def
110.639 401.764 o
114.602 401.165 o
122.528 402.286 o
126.491 402.53 o
130.454 402.736 o
134.417 402.92 o
138.38 403.052 o
142.343 403.128 o
146.307 403.162 o
150.27 403.162 o
154.233 403.124 o
158.196 403.053 o
162.159 402.958 o
166.122 402.842 o
170.085 402.663 o
174.048 402.553 o
178.011 402.391 o
181.974 402.216 o
185.937 402.021 o
189.9 401.799 o
193.863 401.541 o
197.826 401.235 o
201.789 400.861 o
205.753 400.394 o
209.716 399.815 o
213.679 399.098 o
217.642 398.22 o
221.605 397.149 o
225.568 395.873 o
229.531 394.372 o
233.494 392.64 o
237.457 390.682 o
241.42 388.501 o
245.383 386.113 o
249.346 383.545 o
253.309 380.813 o
257.272 377.939 o
261.236 374.966 o
265.199 371.898 o
269.162 368.79 o
273.125 365.619 o
277.088 362.528 o
281.051 359.461 o
285.014 356.486 o
288.977 353.634 o
292.94 350.962 o
296.903 348.438 o
300.866 340.794 o
304.829 339.598 o
308.792 338.844 o
312.755 338.186 o
316.718 338.149 o
320.682 337.182 o
324.645 336.724 o
328.608 336.214 o
332.571 335.496 o
336.534 335.138 o
340.497 334.518 o
344.46 333.642 o
352.386 332.452 o
356.349 331.738 o
360.312 328.159 o
364.275 329.983 o
368.238 329.226 o
372.201 328.331 o
376.164 327.169 o
380.128 326.3 o
384.091 325.17 o
395.98 321.881 o
399.943 320.253 o
403.906 319.465 o
407.869 317.081 o
411.832 308.014 o
415.795 315.404 o
419.758 313.577 o
423.721 312.493 o
427.684 310.948 o
431.647 308.417 o
435.611 300.938 o
439.574 305.939 o
443.537 298.124 o
447.5 303.341 o
451.463 301.672 o
455.426 296.65 o
459.389 298.18 o
467.315 293.484 o
479.204 289.073 o
483.167 280.241 o
487.13 285.408 o
491.093 275.538 o
495.057 281.026 o
502.983 276.904 o
510.909 268.362 o
518.835 269.216 o
526.761 267.101 o
724.914 193.234 o
grestore
0.800 setlinewidth
0 setlinejoin
2 setlinecap
[] 0 setdash
0.000 setgray
gsave
52.778125 45.309375 m
52.778125 425.829375 l
stroke
grestore
gsave
889.778125 45.309375 m
889.778125 425.829375 l
stroke
grestore
gsave
52.778125 45.309375 m
889.778125 45.309375 l
stroke
grestore
gsave
52.778125 425.829375 m
889.778125 425.829375 l
stroke
grestore
1.000 setlinewidth
0 setlinecap
0.800 setgray
gsave
635.6625 250.254375 m
879.978125 250.254375 l
881.844792 250.254375 882.778125 251.187708 882.778125 253.054375 c
882.778125 416.029375 l
882.778125 417.896042 881.844792 418.829375 879.978125 418.829375 c
635.6625 418.829375 l
633.795833 418.829375 632.8625 417.896042 632.8625 416.029375 c
632.8625 253.054375 l
632.8625 251.187708 633.795833 250.254375 635.6625 250.254375 c
cl
gsave
1.000 setgray
fill
grestore
stroke
grestore
1.500 setlinewidth
1 setlinejoin
2 setlinecap
[] 0 setdash
0.122 0.467 0.706 setrgbcolor
gsave
638.4625 407.48875 m
666.4625 407.48875 l
stroke
grestore
1.000 setlinewidth
0 setlinejoin
0 setlinecap
gsave
/o {
gsave
newpath
translate
1.0 setlinewidth
0 setlinejoin
0 setlinecap
-0 -2 m
2 2 l
-2 2 l
cl

gsave
0.122 0.467 0.706 setrgbcolor
fill
grestore
stroke
grestore
} bind def
652.463 407.489 o
grestore
0.000 setgray
/DejaVuSans findfont
14.000 scalefont
setfont
gsave
677.662500 402.588750 translate
0.000000 rotate
0.000000 0 m /three glyphshow
8.907227 0 m /hyphen glyphshow
13.958984 0 m /q glyphshow
22.845703 0 m /space glyphshow
27.295898 0 m /s glyphshow
34.589844 0 m /e glyphshow
43.203125 0 m /n glyphshow
52.076172 0 m /d glyphshow
60.962891 0 m /e glyphshow
69.576172 0 m /r glyphshow
75.332031 0 m /comma glyphshow
79.782227 0 m /space glyphshow
84.232422 0 m /four glyphshow
93.139648 0 m /hyphen glyphshow
98.191406 0 m /q glyphshow
107.078125 0 m /space glyphshow
111.528320 0 m /e glyphshow
119.891602 0 m /x glyphshow
128.176758 0 m /t glyphshow
133.666016 0 m /period glyphshow
138.116211 0 m /space glyphshow
142.566406 0 m /r glyphshow
148.072266 0 m /e glyphshow
156.685547 0 m /c glyphshow
164.382812 0 m /e glyphshow
172.996094 0 m /i glyphshow
176.885742 0 m /v glyphshow
185.170898 0 m /e glyphshow
193.784180 0 m /r glyphshow
grestore
1.500 setlinewidth
1 setlinejoin
2 setlinecap
1.000 0.498 0.055 setrgbcolor
gsave
638.4625 386.941875 m
666.4625 386.941875 l
stroke
grestore
1.000 setlinewidth
0 setlinejoin
0 setlinecap
gsave
/o {
gsave
newpath
translate
1.0 setlinewidth
0 setlinejoin
0 setlinecap
-2 -2 m
2 -2 l
2 2 l
-2 2 l
cl

gsave
1.000 0.498 0.055 setrgbcolor
fill
grestore
stroke
grestore
} bind def
652.463 386.942 o
grestore
0.000 setgray
gsave
677.662500 382.041875 translate
0.000000 rotate
0.000000 0 m /three glyphshow
8.907227 0 m /hyphen glyphshow
13.958984 0 m /q glyphshow
22.845703 0 m /space glyphshow
27.295898 0 m /s glyphshow
34.589844 0 m /e glyphshow
43.203125 0 m /n glyphshow
52.076172 0 m /d glyphshow
60.962891 0 m /e glyphshow
69.576172 0 m /r glyphshow
75.332031 0 m /comma glyphshow
79.782227 0 m /space glyphshow
84.232422 0 m /five glyphshow
93.139648 0 m /hyphen glyphshow
98.191406 0 m /q glyphshow
107.078125 0 m /space glyphshow
111.528320 0 m /e glyphshow
119.891602 0 m /x glyphshow
128.176758 0 m /t glyphshow
133.666016 0 m /period glyphshow
138.116211 0 m /space glyphshow
142.566406 0 m /r glyphshow
148.072266 0 m /e glyphshow
156.685547 0 m /c glyphshow
164.382812 0 m /e glyphshow
172.996094 0 m /i glyphshow
176.885742 0 m /v glyphshow
185.170898 0 m /e glyphshow
193.784180 0 m /r glyphshow
grestore
1.500 setlinewidth
1 setlinejoin
2 setlinecap
0.173 0.627 0.173 setrgbcolor
gsave
638.4625 366.395 m
666.4625 366.395 l
stroke
grestore
1.000 setlinewidth
0 setlinejoin
0 setlinecap
gsave
/o {
gsave
newpath
translate
1.0 setlinewidth
0 setlinejoin
0 setlinecap
-0 -2.828427 m
2.828427 0 l
0 2.828427 l
-2.828427 0 l
cl

gsave
0.173 0.627 0.173 setrgbcolor
fill
grestore
stroke
grestore
} bind def
652.463 366.395 o
grestore
0.000 setgray
gsave
677.662500 361.495000 translate
0.000000 rotate
0.000000 0 m /three glyphshow
8.907227 0 m /hyphen glyphshow
13.958984 0 m /q glyphshow
22.845703 0 m /space glyphshow
27.295898 0 m /s glyphshow
34.589844 0 m /e glyphshow
43.203125 0 m /n glyphshow
52.076172 0 m /d glyphshow
60.962891 0 m /e glyphshow
69.576172 0 m /r glyphshow
75.332031 0 m /comma glyphshow
79.782227 0 m /space glyphshow
84.232422 0 m /six glyphshow
93.139648 0 m /hyphen glyphshow
98.191406 0 m /q glyphshow
107.078125 0 m /space glyphshow
111.528320 0 m /e glyphshow
119.891602 0 m /x glyphshow
128.176758 0 m /t glyphshow
133.666016 0 m /period glyphshow
138.116211 0 m /space glyphshow
142.566406 0 m /r glyphshow
148.072266 0 m /e glyphshow
156.685547 0 m /c glyphshow
164.382812 0 m /e glyphshow
172.996094 0 m /i glyphshow
176.885742 0 m /v glyphshow
185.170898 0 m /e glyphshow
193.784180 0 m /r glyphshow
grestore
1.500 setlinewidth
1 setlinejoin
2 setlinecap
0.839 0.153 0.157 setrgbcolor
gsave
638.4625 345.848125 m
666.4625 345.848125 l
stroke
grestore
1.000 setlinewidth
0 setlinecap
gsave
/o {
gsave
newpath
translate
1.0 setlinewidth
1 setlinejoin
0 setlinecap
0 -2 m
0.530406 -2 1.03916 -1.789267 1.414214 -1.414214 c
1.789267 -1.03916 2 -0.530406 2 0 c
2 0.530406 1.789267 1.03916 1.414214 1.414214 c
1.03916 1.789267 0.530406 2 0 2 c
-0.530406 2 -1.03916 1.789267 -1.414214 1.414214 c
-1.789267 1.03916 -2 0.530406 -2 0 c
-2 -0.530406 -1.789267 -1.03916 -1.414214 -1.414214 c
-1.03916 -1.789267 -0.530406 -2 0 -2 c
cl

gsave
0.839 0.153 0.157 setrgbcolor
fill
grestore
stroke
grestore
} bind def
652.463 345.848 o
grestore
0.000 setgray
gsave
677.662500 340.948125 translate
0.000000 rotate
0.000000 0 m /three glyphshow
8.907227 0 m /hyphen glyphshow
13.958984 0 m /q glyphshow
22.845703 0 m /space glyphshow
27.295898 0 m /s glyphshow
34.589844 0 m /e glyphshow
43.203125 0 m /n glyphshow
52.076172 0 m /d glyphshow
60.962891 0 m /e glyphshow
69.576172 0 m /r glyphshow
75.332031 0 m /comma glyphshow
79.782227 0 m /space glyphshow
84.232422 0 m /seven glyphshow
93.139648 0 m /hyphen glyphshow
98.191406 0 m /q glyphshow
107.078125 0 m /space glyphshow
111.528320 0 m /e glyphshow
119.891602 0 m /x glyphshow
128.176758 0 m /t glyphshow
133.666016 0 m /period glyphshow
138.116211 0 m /space glyphshow
142.566406 0 m /r glyphshow
148.072266 0 m /e glyphshow
156.685547 0 m /c glyphshow
164.382812 0 m /e glyphshow
172.996094 0 m /i glyphshow
176.885742 0 m /v glyphshow
185.170898 0 m /e glyphshow
193.784180 0 m /r glyphshow
grestore
1.500 setlinewidth
2 setlinecap
0.580 0.404 0.741 setrgbcolor
gsave
638.4625 325.30125 m
666.4625 325.30125 l
stroke
grestore
1.000 setlinewidth
0 setlinejoin
0 setlinecap
gsave
/o {
gsave
newpath
translate
1.0 setlinewidth
0 setlinejoin
0 setlinecap
-0 -2 m
2 2 l
-2 2 l
cl

gsave
0.580 0.404 0.741 setrgbcolor
fill
grestore
stroke
grestore
} bind def
652.463 325.301 o
grestore
0.000 setgray
gsave
677.662500 320.401250 translate
0.000000 rotate
0.000000 0 m /four glyphshow
8.907227 0 m /hyphen glyphshow
13.958984 0 m /q glyphshow
22.845703 0 m /space glyphshow
27.295898 0 m /s glyphshow
34.589844 0 m /e glyphshow
43.203125 0 m /n glyphshow
52.076172 0 m /d glyphshow
60.962891 0 m /e glyphshow
69.576172 0 m /r glyphshow
75.332031 0 m /comma glyphshow
79.782227 0 m /space glyphshow
84.232422 0 m /five glyphshow
93.139648 0 m /hyphen glyphshow
98.191406 0 m /q glyphshow
107.078125 0 m /space glyphshow
111.528320 0 m /e glyphshow
119.891602 0 m /x glyphshow
128.176758 0 m /t glyphshow
133.666016 0 m /period glyphshow
138.116211 0 m /space glyphshow
142.566406 0 m /r glyphshow
148.072266 0 m /e glyphshow
156.685547 0 m /c glyphshow
164.382812 0 m /e glyphshow
172.996094 0 m /i glyphshow
176.885742 0 m /v glyphshow
185.170898 0 m /e glyphshow
193.784180 0 m /r glyphshow
grestore
1.500 setlinewidth
1 setlinejoin
2 setlinecap
0.549 0.337 0.294 setrgbcolor
gsave
638.4625 304.754375 m
666.4625 304.754375 l
stroke
grestore
1.000 setlinewidth
0 setlinejoin
0 setlinecap
gsave
/o {
gsave
newpath
translate
1.0 setlinewidth
0 setlinejoin
0 setlinecap
-2 -2 m
2 -2 l
2 2 l
-2 2 l
cl

gsave
0.549 0.337 0.294 setrgbcolor
fill
grestore
stroke
grestore
} bind def
652.463 304.754 o
grestore
0.000 setgray
gsave
677.662500 299.854375 translate
0.000000 rotate
0.000000 0 m /four glyphshow
8.907227 0 m /hyphen glyphshow
13.958984 0 m /q glyphshow
22.845703 0 m /space glyphshow
27.295898 0 m /s glyphshow
34.589844 0 m /e glyphshow
43.203125 0 m /n glyphshow
52.076172 0 m /d glyphshow
60.962891 0 m /e glyphshow
69.576172 0 m /r glyphshow
75.332031 0 m /comma glyphshow
79.782227 0 m /space glyphshow
84.232422 0 m /six glyphshow
93.139648 0 m /hyphen glyphshow
98.191406 0 m /q glyphshow
107.078125 0 m /space glyphshow
111.528320 0 m /e glyphshow
119.891602 0 m /x glyphshow
128.176758 0 m /t glyphshow
133.666016 0 m /period glyphshow
138.116211 0 m /space glyphshow
142.566406 0 m /r glyphshow
148.072266 0 m /e glyphshow
156.685547 0 m /c glyphshow
164.382812 0 m /e glyphshow
172.996094 0 m /i glyphshow
176.885742 0 m /v glyphshow
185.170898 0 m /e glyphshow
193.784180 0 m /r glyphshow
grestore
1.500 setlinewidth
1 setlinejoin
2 setlinecap
0.890 0.467 0.761 setrgbcolor
gsave
638.4625 284.2075 m
666.4625 284.2075 l
stroke
grestore
1.000 setlinewidth
0 setlinejoin
0 setlinecap
gsave
/o {
gsave
newpath
translate
1.0 setlinewidth
0 setlinejoin
0 setlinecap
-0 -2.828427 m
2.828427 0 l
0 2.828427 l
-2.828427 0 l
cl

gsave
0.890 0.467 0.761 setrgbcolor
fill
grestore
stroke
grestore
} bind def
652.463 284.207 o
grestore
0.000 setgray
gsave
677.662500 279.307500 translate
0.000000 rotate
0.000000 0 m /four glyphshow
8.907227 0 m /hyphen glyphshow
13.958984 0 m /q glyphshow
22.845703 0 m /space glyphshow
27.295898 0 m /s glyphshow
34.589844 0 m /e glyphshow
43.203125 0 m /n glyphshow
52.076172 0 m /d glyphshow
60.962891 0 m /e glyphshow
69.576172 0 m /r glyphshow
75.332031 0 m /comma glyphshow
79.782227 0 m /space glyphshow
84.232422 0 m /seven glyphshow
93.139648 0 m /hyphen glyphshow
98.191406 0 m /q glyphshow
107.078125 0 m /space glyphshow
111.528320 0 m /e glyphshow
119.891602 0 m /x glyphshow
128.176758 0 m /t glyphshow
133.666016 0 m /period glyphshow
138.116211 0 m /space glyphshow
142.566406 0 m /r glyphshow
148.072266 0 m /e glyphshow
156.685547 0 m /c glyphshow
164.382812 0 m /e glyphshow
172.996094 0 m /i glyphshow
176.885742 0 m /v glyphshow
185.170898 0 m /e glyphshow
193.784180 0 m /r glyphshow
grestore
1.500 setlinewidth
1 setlinejoin
2 setlinecap
0.498 setgray
gsave
638.4625 263.660625 m
666.4625 263.660625 l
stroke
grestore
1.000 setlinewidth
0 setlinecap
gsave
/o {
gsave
newpath
translate
1.0 setlinewidth
1 setlinejoin
0 setlinecap
0 -2 m
0.530406 -2 1.03916 -1.789267 1.414214 -1.414214 c
1.789267 -1.03916 2 -0.530406 2 0 c
2 0.530406 1.789267 1.03916 1.414214 1.414214 c
1.03916 1.789267 0.530406 2 0 2 c
-0.530406 2 -1.03916 1.789267 -1.414214 1.414214 c
-1.789267 1.03916 -2 0.530406 -2 0 c
-2 -0.530406 -1.789267 -1.03916 -1.414214 -1.414214 c
-1.03916 -1.789267 -0.530406 -2 0 -2 c
cl

gsave
0.498 setgray
fill
grestore
stroke
grestore
} bind def
652.463 263.661 o
grestore
0.000 setgray
gsave
677.662500 258.760625 translate
0.000000 rotate
0.000000 0 m /four glyphshow
8.907227 0 m /hyphen glyphshow
13.958984 0 m /q glyphshow
22.845703 0 m /space glyphshow
27.295898 0 m /s glyphshow
34.589844 0 m /e glyphshow
43.203125 0 m /n glyphshow
52.076172 0 m /d glyphshow
60.962891 0 m /e glyphshow
69.576172 0 m /r glyphshow
75.332031 0 m /comma glyphshow
79.782227 0 m /space glyphshow
84.232422 0 m /eight glyphshow
93.139648 0 m /hyphen glyphshow
98.191406 0 m /q glyphshow
107.078125 0 m /space glyphshow
111.528320 0 m /e glyphshow
119.891602 0 m /x glyphshow
128.176758 0 m /t glyphshow
133.666016 0 m /period glyphshow
138.116211 0 m /space glyphshow
142.566406 0 m /r glyphshow
148.072266 0 m /e glyphshow
156.685547 0 m /c glyphshow
164.382812 0 m /e glyphshow
172.996094 0 m /i glyphshow
176.885742 0 m /v glyphshow
185.170898 0 m /e glyphshow
193.784180 0 m /r glyphshow
grestore

end
showpage
